<?xml version="1.0" encoding="utf-8"?>
<COLLADA xmlns="http://www.collada.org/2005/11/COLLADASchema" version="1.4.1">
  <asset>
    <contributor>
      <author>Blender User</author>
      <authoring_tool>Blender 2.74.0 commit date:2015-03-26, commit time:16:12, hash:3593082</authoring_tool>
    </contributor>
    <created>2015-04-29T11:54:16</created>
    <modified>2015-04-29T11:54:16</modified>
    <unit name="meter" meter="1"/>
    <up_axis>Z_UP</up_axis>
  </asset>
  <library_images>
    <image id="diff_credentials_png" name="diff_credentials_png">
      <init_from>diff_credentials.png</init_from>
    </image>
  </library_images>
  <library_effects>
    <effect id="pizza_Diff-effect">
      <profile_COMMON>
        <newparam sid="diff_credentials_png-surface">
          <surface type="2D">
            <init_from>diff_credentials_png</init_from>
          </surface>
        </newparam>
        <newparam sid="diff_credentials_png-sampler">
          <sampler2D>
            <source>diff_credentials_png-surface</source>
          </sampler2D>
        </newparam>
        <technique sid="common">
          <lambert>
            <emission>
              <color sid="emission">0 0 0 1</color>
            </emission>
            <ambient>
              <color sid="ambient">0.5 0.5 0.5 1</color>
            </ambient>
            <diffuse>
              <texture texture="diff_credentials_png-sampler" texcoord="UVMap"/>
            </diffuse>
            <index_of_refraction>
              <float sid="index_of_refraction">1</float>
            </index_of_refraction>
          </lambert>
        </technique>
        <extra>
          <technique profile="GOOGLEEARTH">
            <double_sided>1</double_sided>
          </technique>
        </extra>
      </profile_COMMON>
      <extra><technique profile="MAX3D"><double_sided>1</double_sided></technique></extra>
    </effect>
  </library_effects>
  <library_materials>
    <material id="pizza_Diff-material" name="pizza_Diff">
      <instance_effect url="#pizza_Diff-effect"/>
    </material>
  </library_materials>
  <library_geometries>
    <geometry id="Cube_006-mesh" name="Cube.006">
      <mesh>
        <source id="Cube_006-mesh-positions">
          <float_array id="Cube_006-mesh-positions-array" count="78">0.00411117 0.005059957 0.001780748 -1.58756e-4 0.00602889 0.002271234 -0.005218625 0.005208075 0.001668274 0.00411117 -0.005059957 0.001780748 -1.58756e-4 -0.00602889 0.002271234 0.004674255 0 0.002343893 -0.00701636 0 0.002466559 -0.005218625 -0.005208075 0.001668274 -6.31751e-5 0 0.003529906 0.00411117 0.005059957 -0.001780748 -1.58756e-4 0.00602889 -0.002271234 0.004674255 0.005623042 0 -4.09267e-4 0.006316602 0 -0.006011307 0.005628347 0 -0.005218625 0.005208075 -0.001668274 0.00411117 -0.005059957 -0.001780748 -1.58756e-4 -0.00602889 -0.002271234 0.004674255 -0.005623042 0 0.004674255 0 -0.002343893 -0.00701636 0 -0.002466559 -4.09267e-4 -0.006316602 0 0.005278289 0 0 -0.006011307 -0.005628347 0 -0.005218625 -0.005208075 -0.001668274 -6.31751e-5 0 -0.003529906 -0.007919013 0 0</float_array>
          <technique_common>
            <accessor source="#Cube_006-mesh-positions-array" count="26" stride="3">
              <param name="X" type="float"/>
              <param name="Y" type="float"/>
              <param name="Z" type="float"/>
            </accessor>
          </technique_common>
        </source>
        <source id="Cube_006-mesh-normals">
          <float_array id="Cube_006-mesh-normals-array" count="78">0.5731986 0.5312357 0.6238288 0.7224952 0.6913663 0 0.005157589 0.9999695 0 0.6766869 0 0.7362591 1 0 0 -0.6717124 0.7408063 0 -0.4454482 0.6204413 0.6454359 0.02649003 0 0.9996338 0.0295419 0.7083346 0.7052522 -1 0 0 0.005157589 -0.9999695 0 0.7224952 -0.6913663 0 0.5731986 -0.5312357 0.6238288 -0.4454482 -0.6204413 0.6454359 -0.6717124 -0.7408063 0 -0.6403394 0 0.7680593 0.0295419 -0.7083346 0.7052522 0.5731986 0.5312357 -0.6238288 -0.4454482 0.6204413 -0.6454359 0.02649003 0 -0.9996338 -0.6403394 0 -0.7680593 0.0295419 0.7083346 -0.7052522 0.5731986 -0.5312357 -0.6238288 0.6766869 0 -0.7362591 -0.4454482 -0.6204413 -0.6454359 0.0295419 -0.7083346 -0.7052522</float_array>
          <technique_common>
            <accessor source="#Cube_006-mesh-normals-array" count="26" stride="3">
              <param name="X" type="float"/>
              <param name="Y" type="float"/>
              <param name="Z" type="float"/>
            </accessor>
          </technique_common>
        </source>
        <source id="Cube_006-mesh-map">
          <float_array id="Cube_006-mesh-map-array" count="288">0.618165 0.258444 0.632937 0.2917184 0.5275055 0.2795953 0.618165 0.258444 0.6655116 0.1884788 0.7117348 0.2084769 0.5275055 0.2795953 0.4464839 0.2110514 0.4808502 0.199036 0.5824697 0.1525515 0.5453755 0.2382907 0.4808502 0.199036 0.618165 0.258444 0.5453755 0.2382907 0.5824697 0.1525515 0.4808502 0.199036 0.4464839 0.2110514 0.4532047 0.09662646 0.6374339 0.02550774 0.7184556 0.09405165 0.6840893 0.1060671 0.6840893 0.1060671 0.7184556 0.09405165 0.7117348 0.2084769 0.5467743 0.04665923 0.5320023 0.01338469 0.6374339 0.02550774 0.5824697 0.1525515 0.4994277 0.1166244 0.5467743 0.04665923 0.5824697 0.1525515 0.6195638 0.06681239 0.6840893 0.1060671 0.4532047 0.09662646 0.5320023 0.01338469 0.5467743 0.04665923 0.5275055 0.2795953 0.4464839 0.2110514 0.4808502 0.199036 0.4808502 0.199036 0.4464839 0.2110514 0.4532047 0.09662646 0.618165 0.258444 0.632937 0.2917184 0.5275055 0.2795953 0.5824697 0.1525515 0.6655116 0.1884788 0.618165 0.258444 0.5824697 0.1525515 0.5453755 0.2382907 0.4808502 0.199036 0.7117348 0.2084769 0.632937 0.2917184 0.618165 0.258444 0.5467743 0.04665923 0.5320023 0.01338469 0.6374339 0.02550774 0.5467743 0.04665923 0.4994277 0.1166244 0.4532047 0.09662646 0.6374339 0.02550774 0.7184556 0.09405165 0.6840893 0.1060671 0.5824697 0.1525515 0.6195638 0.06681239 0.6840893 0.1060671 0.5467743 0.04665923 0.6195638 0.06681239 0.5824697 0.1525515 0.6840893 0.1060671 0.7184556 0.09405165 0.7117348 0.2084769 0.5453755 0.2382907 0.618165 0.258444 0.5275055 0.2795953 0.632937 0.2917184 0.618165 0.258444 0.7117348 0.2084769 0.5453755 0.2382907 0.5275055 0.2795953 0.4808502 0.199036 0.4994277 0.1166244 0.5824697 0.1525515 0.4808502 0.199036 0.6655116 0.1884788 0.618165 0.258444 0.5824697 0.1525515 0.4994277 0.1166244 0.4808502 0.199036 0.4532047 0.09662646 0.6195638 0.06681239 0.6374339 0.02550774 0.6840893 0.1060671 0.6655116 0.1884788 0.6840893 0.1060671 0.7117348 0.2084769 0.6195638 0.06681239 0.5467743 0.04665923 0.6374339 0.02550774 0.6195638 0.06681239 0.5824697 0.1525515 0.5467743 0.04665923 0.6655116 0.1884788 0.5824697 0.1525515 0.6840893 0.1060671 0.4994277 0.1166244 0.4532047 0.09662646 0.5467743 0.04665923 0.5453755 0.2382907 0.5275055 0.2795953 0.4808502 0.199036 0.4994277 0.1166244 0.4808502 0.199036 0.4532047 0.09662646 0.5453755 0.2382907 0.618165 0.258444 0.5275055 0.2795953 0.5453755 0.2382907 0.5824697 0.1525515 0.618165 0.258444 0.4994277 0.1166244 0.5824697 0.1525515 0.4808502 0.199036 0.6655116 0.1884788 0.7117348 0.2084769 0.618165 0.258444 0.6195638 0.06681239 0.5467743 0.04665923 0.6374339 0.02550774 0.5320023 0.01338469 0.5467743 0.04665923 0.4532047 0.09662646 0.6195638 0.06681239 0.6374339 0.02550774 0.6840893 0.1060671 0.6655116 0.1884788 0.5824697 0.1525515 0.6840893 0.1060671 0.4994277 0.1166244 0.5467743 0.04665923 0.5824697 0.1525515 0.6655116 0.1884788 0.6840893 0.1060671 0.7117348 0.2084769</float_array>
          <technique_common>
            <accessor source="#Cube_006-mesh-map-array" count="144" stride="2">
              <param name="S" type="float"/>
              <param name="T" type="float"/>
            </accessor>
          </technique_common>
        </source>
        <vertices id="Cube_006-mesh-vertices">
          <input semantic="POSITION" source="#Cube_006-mesh-positions"/>
        </vertices>
        <polylist material="pizza_Diff-material" count="48">
          <input semantic="VERTEX" source="#Cube_006-mesh-vertices" offset="0"/>
          <input semantic="NORMAL" source="#Cube_006-mesh-normals" offset="1"/>
          <input semantic="TEXCOORD" source="#Cube_006-mesh-map" offset="2" set="0"/>
          <vcount>3 3 3 3 3 3 3 3 3 3 3 3 3 3 3 3 3 3 3 3 3 3 3 3 3 3 3 3 3 3 3 3 3 3 3 3 3 3 3 3 3 3 3 3 3 3 3 3 </vcount>
          <p>0 0 0 11 1 1 12 2 2 0 0 3 5 3 4 21 4 5 12 2 6 13 5 7 2 6 8 8 7 9 1 8 10 2 6 11 0 0 12 1 8 13 8 7 14 2 6 15 13 5 16 25 9 17 20 10 18 17 11 19 3 12 20 3 12 21 17 11 22 21 4 23 7 13 24 22 14 25 20 10 26 8 7 27 6 15 28 7 13 29 8 7 30 4 16 31 3 12 32 25 9 33 22 14 34 7 13 35 12 2 36 11 1 37 9 17 38 9 17 39 11 1 40 21 4 41 14 18 42 13 5 43 12 2 44 24 19 45 19 20 46 14 18 47 24 19 48 10 21 49 9 17 50 25 9 51 13 5 52 14 18 53 15 22 54 17 11 55 20 10 56 15 22 57 18 23 58 21 4 59 20 10 60 22 14 61 23 24 62 24 19 63 16 25 64 23 24 65 15 22 66 16 25 67 24 19 68 23 24 69 22 14 70 25 9 71 1 8 72 0 0 73 12 2 74 11 1 75 0 0 76 21 4 77 1 8 78 12 2 79 2 6 80 6 15 81 8 7 82 2 6 83 5 3 84 0 0 85 8 7 86 6 15 87 2 6 88 25 9 89 4 16 90 20 10 91 3 12 92 5 3 93 3 12 94 21 4 95 4 16 96 7 13 97 20 10 98 4 16 99 8 7 100 7 13 101 5 3 102 8 7 103 3 12 104 6 15 105 25 9 106 7 13 107 10 21 108 12 2 109 9 17 110 18 23 111 9 17 112 21 4 113 10 21 114 14 18 115 12 2 116 10 21 117 24 19 118 14 18 119 18 23 120 24 19 121 9 17 122 19 20 123 25 9 124 14 18 125 16 25 126 15 22 127 20 10 128 17 11 129 15 22 130 21 4 131 16 25 132 20 10 133 23 24 134 19 20 135 24 19 136 23 24 137 18 23 138 15 22 139 24 19 140 19 20 141 23 24 142 25 9 143</p>
        </polylist>
      </mesh>
    </geometry>
  </library_geometries>
  <library_controllers/>
  <library_visual_scenes>
    <visual_scene id="Scene" name="Scene">
      <node id="bacon_lp" name="bacon_lp" type="NODE">
        <matrix sid="transform">1 0 0 0 0 1 0 0 0 0 1 0 0 0 0 1</matrix>
        <instance_geometry url="#Cube_006-mesh">
          <bind_material>
            <technique_common>
              <instance_material symbol="pizza_Diff-material" target="#pizza_Diff-material">
                <bind_vertex_input semantic="UVMap" input_semantic="TEXCOORD" input_set="0"/>
              </instance_material>
            </technique_common>
          </bind_material>
        </instance_geometry>
      </node>
    </visual_scene>
  </library_visual_scenes>
  <scene>
    <instance_visual_scene url="#Scene"/>
  </scene>
</COLLADA>