<?xml version="1.0" encoding="utf-8"?>
<COLLADA xmlns="http://www.collada.org/2005/11/COLLADASchema" version="1.4.1">
  <asset>
    <contributor>
      <author>Blender User</author>
      <authoring_tool>Blender 2.73.0 commit date:2015-01-20, commit time:18:16, hash:bbf09d9</authoring_tool>
    </contributor>
    <created>2015-03-10T13:22:50</created>
    <modified>2015-03-10T13:22:50</modified>
    <unit name="meter" meter="1"/>
    <up_axis>Z_UP</up_axis>
  </asset>
  <library_images>
    <image id="pizza_material_png" name="pizza_material_png">
      <init_from>pizza_material.png</init_from>
    </image>
  </library_images>
  <library_effects>
    <effect id="Material_001-effect">
      <profile_COMMON>
        <newparam sid="pizza_material_png-surface">
          <surface type="2D">
            <init_from>pizza_material_png</init_from>
          </surface>
        </newparam>
        <newparam sid="pizza_material_png-sampler">
          <sampler2D>
            <source>pizza_material_png-surface</source>
          </sampler2D>
        </newparam>
        <technique sid="common">
          <phong>
            <emission>
              <color sid="emission">1 1 1 1</color>
            </emission>
            <ambient>
              <color sid="ambient">0 0 0 1</color>
            </ambient>
            <diffuse>
              <texture texture="pizza_material_png-sampler" texcoord="Circle-mesh-map-0"/>
            </diffuse>
            <specular>
              <color sid="specular">0.2 0.2 0.2 1</color>
            </specular>
            <shininess>
              <float sid="shininess">50</float>
            </shininess>
            <index_of_refraction>
              <float sid="index_of_refraction">1</float>
            </index_of_refraction>
          </phong>
        </technique>
      </profile_COMMON>
    </effect>
  </library_effects>
  <library_materials>
    <material id="Material_001-material" name="Material_001">
      <instance_effect url="#Material_001-effect"/>
    </material>
  </library_materials>
  <library_geometries>
    <geometry id="Circle-mesh" name="Circle">
      <mesh>
        <source id="Circle-mesh-positions">
          <float_array id="Circle-mesh-positions-array" count="774">-0.1024375 0.01313018 0.006109237 -0.1043729 -0.02329999 0.006381034 -0.1071962 -0.06388419 0.007140457 -0.1087955 -0.1072342 0.008248984 -0.1043797 -0.1482436 0.009340822 -0.09160453 -0.1852859 0.01016312 -0.06692349 -0.2049245 0.01037663 -0.03475034 -0.210442 0.01022279 -0.002135634 -0.211651 0.01013326 0.03250551 -0.2118453 0.0100668 0.06567287 -0.208304 0.01007568 0.0918768 -0.1885139 0.01025855 0.1039769 -0.1484618 0.01080209 0.1072765 -0.1087866 0.01157766 0.1059918 -0.06954729 0.01242816 0.1040859 -0.03250199 0.01310211 0.1038452 7.85201e-4 0.01328092 0.1064231 0.03944033 0.01285034 0.1071681 0.08056104 0.01213425 0.1075177 0.1225386 0.0110625 0.101839 0.1565793 0.01007163 0.08729708 0.1822929 0.009400308 0.06196433 0.1937942 0.009254157 0.03025734 0.1958678 0.009394347 -0.001953601 0.1955175 0.009484827 -0.03170233 0.1922452 0.009412288 -0.06020891 0.1832032 0.009388864 -0.08238494 0.1678289 0.009150445 -0.09610599 0.1470336 0.008597075 -0.102698 0.1206163 0.007847368 -0.1045291 0.08869481 0.007074773 -0.1043712 0.05186945 0.006477057 -0.04457175 -9.79904e-4 0.00463128 -0.04527807 -0.01412624 0.00474745 -0.04476654 -0.02734518 0.004945695 -0.04252398 -0.04298174 0.005196273 -0.03916567 -0.06087779 0.005530536 -0.03361129 -0.07489925 0.00584203 -0.0254361 -0.08286476 0.006064474 -0.01471072 -0.08681398 0.006173908 -0.002071797 -0.08827906 0.006186306 0.01044684 -0.08648389 0.006201624 0.02100652 -0.08120268 0.006308376 0.02932351 -0.07214045 0.006493866 0.03530389 -0.05966097 0.006735622 0.03925979 -0.04481178 0.006989955 0.0418362 -0.03020131 0.007199943 0.04331779 -0.01832622 0.007337689 0.04347354 -0.005872488 0.007398426 0.0426709 0.008095026 0.007350802 0.04106849 0.02387684 0.007185578 0.03814291 0.03918743 0.00695312 0.03323346 0.05211216 0.006717681 0.02675831 0.06251084 0.006471931 0.01828998 0.06951701 0.006271839 0.00775969 0.07185685 0.006154179 -0.003266274 0.0714423 0.006046473 -0.01366156 0.07112032 0.005904674 -0.02283483 0.07062977 0.005719363 -0.03056091 0.06670165 0.005511462 -0.03665339 0.05746799 0.005297064 -0.04073381 0.04517436 0.005064368 -0.04295372 0.0303018 0.004838883 -0.04386806 0.014131 0.004668474 -0.002803564 -0.008886218 0.006123423 0.09818941 -0.0660175 0.01460754 -0.1011581 -0.1011434 0.01098012 -0.03146499 0.1878799 0.01205676 0.09588772 0.00150448 0.01540154 0.09627801 -0.03055298 0.01523131 -0.08663338 -0.1824139 0.01283448 -0.09809458 -0.1450709 0.0120567 -0.07774728 0.1674622 0.01182204 -0.05723452 0.1808999 0.01202106 -0.03442549 -0.2060503 0.01287996 -0.06396651 -0.2011617 0.01302683 0.0991469 0.07800418 0.01432746 0.0980755 0.0388754 0.01501309 -0.09681481 0.121235 0.01067322 -0.09086322 0.1480528 0.01135677 0.03168231 -0.2076434 0.01246732 -0.002664983 -0.2062084 0.0126754 0.09642088 0.1559038 0.01227253 0.1002947 0.1192798 0.01328331 -0.09666013 0.05121707 0.009328067 -0.09751999 0.08780652 0.009913027 0.08692198 -0.18557 0.01260066 0.06287443 -0.2049121 0.01243305 0.05904507 0.1912318 0.01158004 0.08294278 0.1811676 0.01166462 0.09942185 -0.102774 0.01382362 0.09725064 -0.143769 0.01310324 -0.09894096 -0.05890357 0.00991857 -0.09608578 -0.02093076 0.009209275 -0.002983331 0.190227 0.01203471 0.02906721 0.1919414 0.01177614 -0.09445875 0.014261 0.00896722 -0.1041618 0.0125178 0.001677989 -0.1061644 -0.02394992 0.001956641 -0.1088454 -0.06482183 0.002719044 -0.1101549 -0.1081168 0.00382924 -0.1053789 -0.1483737 0.004921555 -0.09230959 -0.185254 0.005755245 -0.06725209 -0.2051023 0.005980432 -0.0345813 -0.2107827 0.005833387 -0.001856625 -0.2121416 0.005777597 0.03277248 -0.2120963 0.005750715 0.06627649 -0.2083523 0.005776464 0.09278398 -0.188252 0.005970478 0.1052568 -0.1488045 0.006525933 0.1089064 -0.1095279 0.007311522 0.1077805 -0.07002311 0.008172452 0.1059758 -0.03285098 0.00885266 0.1058331 5.68076e-4 0.009029805 0.1084872 0.03927809 0.008591055 0.1090215 0.08046436 0.007877767 0.1090279 0.1224425 0.006810307 0.1028719 0.155647 0.005828142 0.08816987 0.1814725 0.005135655 0.06269109 0.1935583 0.004961431 0.03063017 0.1960318 0.005084514 -0.001632452 0.1958659 0.005136609 -0.03165858 0.1924532 0.005040228 -0.06070125 0.1829724 0.005010962 -0.08312964 0.1670464 0.004753112 -0.09688037 0.1457777 0.004170775 -0.1036285 0.1196825 0.00340557 -0.1058307 0.08834546 0.00263679 -0.1059217 0.05146342 0.002041101 -0.1035102 0.01248151 2.34798e-4 -0.1055101 -0.02384155 2.34798e-4 -0.1081428 -0.06441885 2.34798e-4 -0.1094222 -0.1074187 2.34798e-4 -0.1046776 -0.1476705 2.34798e-4 -0.09169036 -0.1845541 2.34798e-4 -0.06681305 -0.204339 2.34798e-4 -0.03438687 -0.2100269 2.34798e-4 -0.001777827 -0.2112016 2.34798e-4 0.03279781 -0.2112849 2.34798e-4 0.06606537 -0.2075866 2.34798e-4 0.09231132 -0.1873458 2.34798e-4 0.1046528 -0.1478729 2.34798e-4 0.1083158 -0.1088231 2.34798e-4 0.1072686 -0.06965816 2.34798e-4 0.105507 -0.03266078 2.34798e-4 0.1053846 6.13711e-4 2.34798e-4 0.1080238 0.03912895 2.34798e-4 0.1085229 0.08000904 2.34798e-4 0.1084586 0.1216418 2.34798e-4 0.1023384 0.1547256 2.34798e-4 0.08775603 0.1805468 2.34798e-4 0.06249952 0.1927282 2.34798e-4 0.03065115 0.1951822 2.34798e-4 -0.00161159 0.1949111 2.34798e-4 -0.03154659 0.1915878 2.34798e-4 -0.06032621 0.1822469 2.34798e-4 -0.08255362 0.1663668 2.34798e-4 -0.09620195 0.1451416 2.34798e-4 -0.1029301 0.1191592 2.34798e-4 -0.1051341 0.08791708 2.34798e-4 -0.1052543 0.05126768 2.34798e-4 -0.002625763 -0.008886218 2.34798e-4 -0.08592218 -0.01858228 0.004684209 0.08782672 -0.1354408 0.008050084 0.07709664 0.1763883 0.006565272 0.0589928 -0.1976579 0.007414221 -0.08793121 0.08340448 0.005338251 0.090469 0.1119852 0.008172214 -0.002888441 -0.1972246 0.007816016 -0.0833199 0.1456748 0.006691515 0.08810251 0.03649485 0.009750008 -0.05933225 -0.1937918 0.008240699 -0.05334454 0.1753327 0.007276833 -0.08898866 -0.1387524 0.007312238 0.08690232 -0.02792495 0.009925246 -0.08463591 0.01392501 0.004475474 0.08841347 -0.06021624 0.009384691 -0.09064412 -0.09259408 0.006270527 -0.03093862 0.1795299 0.007342278 0.08653676 0.001786649 0.01007461 -0.07918274 -0.1756576 0.008042097 -0.07148021 0.1639994 0.007092595 -0.03314465 -0.1979669 0.00811845 0.08885407 0.07129389 0.009153068 -0.08826488 0.1183837 0.006066203 0.03054428 -0.1997483 0.007477998 0.08872604 0.1511695 0.007139325 -0.08668076 0.04758477 0.004797041 0.07969176 -0.1781498 0.007589697 0.05553948 0.1854239 0.00650829 0.08896601 -0.09337687 0.008699238 -0.08826929 -0.0521233 0.005298495 -0.00399661 0.1808444 0.007210552 0.02746063 0.1847309 0.006779074 -0.00389868 0.1661797 0.007054507 -0.08243811 -0.04880189 0.005251228 0.08230316 -0.08686703 0.008470058 0.0505464 0.1698873 0.006476581 0.07294017 -0.1639398 0.007442772 -0.08094197 0.04310041 0.004779815 0.08128762 0.1378914 0.00708276 0.02785032 -0.1845661 0.007306873 -0.08189362 0.1085703 0.005931913 0.08244878 0.06493788 0.008889377 -0.03067368 -0.1830675 0.007857799 -0.06599521 0.1509572 0.00688064 -0.07307416 -0.1621516 0.007747113 0.08076441 7.60049e-4 0.009715914 -0.02862274 0.1649982 0.007149577 -0.08419388 -0.08594381 0.006126582 0.08217006 -0.05619293 0.009091794 0.02481979 0.1696007 0.00669533 -0.08047407 -0.01798498 0.004692673 0.0807864 -0.1252829 0.007873892 0.07034909 0.1611236 0.006552696 0.05390089 -0.1820478 0.007265985 -0.08190226 0.07628637 0.005271315 0.08345502 0.1022272 0.008008837 -0.002779006 -0.1826211 0.007597565 -0.07706457 0.1338512 0.006504595 0.08201271 0.03268802 0.009428381 -0.05478864 -0.1789225 0.007948994 -0.04925489 0.1612979 0.007068097 -0.08231019 -0.1283138 0.007073342 0.08106005 -0.02663826 0.009578466 -0.07926559 0.01192706 0.004496395 -0.003601789 0.1217026 0.006581246 -0.06475204 -0.03872853 0.00510776 0.06209528 -0.06712305 0.007775187 0.03540271 0.1227657 0.006380498 0.05246317 -0.1208422 0.006997287 -0.06353664 0.02949994 0.004727542 0.05872726 0.09762001 0.006911337 0.01967984 -0.1385187 0.006787955 -0.06257003 0.07880741 0.005524635 0.06302165 0.04566067 0.008089482 -0.02317947 -0.1378785 0.007067263 -0.04935956 0.1114012 0.006237864 -0.05454725 -0.1211886 0.006852746 0.06325721 -0.002353787 0.008627951 -0.02159887 0.1209247 0.006565093 -0.0646308 -0.06577408 0.005689859 0.06323421 -0.04399043 0.008203625 0.01681047 0.1237121 0.006441235 -0.06395035 -0.01617336 0.004718363 0.05943334 -0.09447491 0.007339477 0.04988414 0.114827 0.006514787 0.03845775 -0.1347032 0.006816387 -0.06361681 0.05469769 0.005068302 0.06218194 0.07263135 0.007513225 -0.002446949 -0.1383296 0.006935 -0.05809241 0.09799098 0.005937695 0.0635426 0.02114218 0.008453011 -0.04100829 -0.1338257 0.007064282 -0.03685122 0.1187312 0.006434917 -0.06205481 -0.09665411 0.006349086 0.06334096 -0.02273595 0.008526444 -0.06297761 0.00586754 0.004559695</float_array>
          <technique_common>
            <accessor source="#Circle-mesh-positions-array" count="258" stride="3">
              <param name="X" type="float"/>
              <param name="Y" type="float"/>
              <param name="Z" type="float"/>
            </accessor>
          </technique_common>
        </source>
        <source id="Circle-mesh-normals">
          <float_array id="Circle-mesh-normals-array" count="831">0.002655088 -0.01031523 0.999939 -0.01150542 -0.004882931 0.9999085 -0.009399652 -0.003204405 0.999939 -0.002441465 0.01220738 0.9999085 -0.001953184 0.01898247 0.9998169 -0.01709032 0.01419109 0.9997254 -0.04837179 -0.01425212 0.9987182 -0.03808706 -0.008880853 0.9992066 -0.03250217 -0.007293879 0.9994202 -0.01709032 0.006073176 0.9998169 -0.001892089 -0.001586914 0.9999695 -0.01382488 0.001892089 0.9998779 -0.02417063 -6.71407e-4 0.9996948 -0.02478098 -0.003723204 0.9996643 -0.01568651 5.79852e-4 0.9998474 -0.005005002 -0.01049834 0.9999085 -0.02124083 -0.005981624 0.9997254 -0.02233952 -0.01055938 0.9996643 -0.04934841 0.01937925 0.9985656 -0.03567612 0.01461833 0.9992371 -0.02917569 0.007751643 0.9995422 0.006103694 0.01467937 0.9998474 0.001892089 0.01202428 0.9999085 -0.005767941 0.005584836 0.999939 -0.0087893 -0.01928764 0.9997559 -0.02117979 -0.01174962 0.9996948 -0.01794487 -0.01162755 0.9997559 -0.05850398 0.01062041 0.9982299 -0.0554521 0.01632738 0.9983215 -0.04202395 0.008117914 0.999054 0.003479063 0.01831108 0.9998169 0.00540173 0.01632738 0.9998474 -0.002075254 0.01010161 0.999939 -0.005828976 -0.01818901 0.9998169 -0.01733446 -0.01281774 0.9997559 -0.01876884 -0.01107817 0.9997559 0.001342773 0.02154606 0.9997559 0.002227842 0.02038633 0.9997864 -0.01098662 0.01586961 0.9997864 -0.061037 7.01926e-4 0.9981079 -0.04492324 -0.001800537 0.9989624 -0.04467904 -0.005371212 0.9989624 -0.003295958 -0.01382488 0.9998779 -0.01586961 -0.00665301 0.9998474 -1.52593e-4 0.0217902 0.9997559 -0.01632738 0.01532024 0.9997254 -0.05566573 -0.01516765 0.9983215 -0.0421155 -0.008209466 0.999054 0.005462765 -0.006469905 0.999939 -0.01788383 0.01196324 0.9997559 -0.01892143 0.004150509 0.9997864 -0.03799551 -0.008514642 0.9992371 -0.003051817 4.88296e-4 0.9999695 -0.02215641 0.00665301 0.9997254 -0.00967431 0.006836116 0.9999085 -0.007263362 -0.01605272 0.9998169 -0.03680527 0.008453607 0.9992676 -0.001220703 0.008453607 0.999939 -0.007202327 -0.01925712 0.9997864 -0.04388558 0.004669308 0.9990234 -0.007812738 0.01391643 0.9998474 -0.005249142 -0.01632738 0.9998474 -0.01379436 0.01596117 0.9997559 -0.06009089 -0.009155511 0.9981384 -0.0267952 0.001495361 0.9996338 0.6946929 0.7138584 -0.08807641 0.4846034 0.5032197 -0.7154759 0.1759697 0.6583758 -0.7318034 0.8246101 -0.5656301 -0.00451672 0.3788873 -0.9246498 -0.03811758 0.2659688 -0.6590167 -0.7035127 -0.9996948 -0.02343821 -0.006042659 -0.9994202 0.03372293 -0.001403808 -0.6055788 0.02148503 -0.7954649 0.9882809 0.09646898 0.1181676 0.6904813 0.05801564 -0.7209998 0.652913 0.2265694 -0.7227088 0.05487227 -0.997528 -0.04318368 -0.02008116 -0.9993591 -0.02890098 -0.01132231 -0.649495 -0.7602466 -0.9877316 0.1534165 -0.02844321 -0.9189428 0.3868526 -0.07620471 -0.606708 0.2616657 -0.7506027 0.9798273 -0.03628647 0.1964781 0.6933805 -0.02841269 -0.7199622 0.6856288 -0.00439465 -0.7279275 -0.104709 -0.9939879 -0.03167819 -0.4134953 -0.9095737 -0.04028439 -0.2858974 -0.6427198 -0.7107151 -0.7265847 0.6806543 -0.09314244 -0.4504532 0.8888516 -0.08352911 -0.3040559 0.6062197 -0.7348552 -0.9733268 -0.2282174 0.02307194 -0.6498001 -0.1471908 -0.7456893 -0.5756096 -0.4060183 -0.709769 0.9804987 -0.02990812 0.1941282 0.9830927 0.02471995 0.1812799 0.682577 0.01751762 -0.7305826 -0.2078616 0.9757683 -0.06787312 -0.05883967 0.9965209 -0.05877864 -0.03842276 0.6473586 -0.7611622 -0.9980163 0.0500198 0.0376293 -0.6092105 0.02850425 -0.7924742 -0.6460464 -0.02441477 -0.7628712 0.9858089 0.03442484 0.1641895 0.9896543 -0.03738516 0.1384319 0.6897183 -0.01934874 -0.723777 0.03323465 0.9970702 -0.0682699 0.2614521 0.9605396 -0.09479045 -0.9995728 0.006195247 -0.028077 -0.5299539 0.002990782 -0.8479873 -0.5667898 0.03295993 -0.8231757 0.97528 -0.2031617 0.08676409 0.5904111 -0.3978087 -0.7022309 -0.5777459 -0.01202428 -0.8160955 0.9433577 0.3316141 0.009887993 0.03637802 -0.6658834 -0.74514 -0.6306345 0.1001007 -0.7695853 0.9851375 -0.004821896 0.171575 -0.07147431 -0.6683248 -0.7404096 -0.4893948 0.466628 -0.7366558 0.6799524 -0.02206486 -0.732902 -0.8179571 -0.5750297 -0.01516765 -0.141026 0.6492813 -0.7473373 -0.9978637 -0.0464186 0.04568618 0.6867581 0.02636796 -0.7263711 0.02252262 0.652913 -0.7570727 -0.9979553 0.06326484 0.007049739 0.674459 -0.1285744 -0.7270119 0.009186029 -0.01153594 0.9998779 0.03076261 -0.2392346 0.9704581 0.02414011 -0.305948 0.9517197 0.04477065 0.01013213 0.9989318 0.02990812 0.01989805 0.9993286 0.2043824 0.006439387 0.9788507 -0.0912503 -0.01492351 0.9956969 -0.2634663 -0.0203253 0.964446 -0.2580035 0.01187169 0.9660634 -0.0117191 0.06845301 0.9975585 -0.05908381 -0.3611866 0.9306009 -0.2373424 -0.2605365 0.9358196 0.02291935 -0.04007077 0.9989318 -0.2543718 0.1198462 0.959624 -0.116306 0.2986847 0.947203 0.03323465 -0.0104373 0.9993897 0.2109439 -0.001647949 0.9774773 0.2141789 -0.01382488 0.9766839 -0.09158605 0.02450633 0.9954833 -0.03213596 0.03210544 0.9989624 -0.3019501 -0.05032497 0.9519639 0.005340695 0.0363475 0.9992981 0.006775081 0.005920588 0.999939 0.002227842 0.2920316 0.9563891 -0.01611375 -0.01376384 0.9997559 0.2415235 -0.04232913 0.969451 0.2623981 -0.1365398 0.9552294 -0.1145359 0.0170598 0.9932554 -0.1127353 0.0266121 0.9932554 -0.2702109 0.02832114 0.9623707 0.002838194 -0.03320413 0.9994202 0.02722251 0.2796716 0.959685 0.1172215 0.2732627 0.9547411 -0.02911466 0.07614368 0.996643 -0.05764943 0.09588915 0.9937132 0.2231208 -0.2568132 0.9403363 -0.00741595 0.02319401 0.9996948 -0.05917537 -0.03650009 0.9975585 0.2215644 0.1448103 0.9643239 -0.135258 0.003875792 0.9907834 -0.2824488 0.007171809 0.9592273 -0.2849513 -0.01806694 0.9583423 -0.02111876 0.03933835 0.9989929 0.03283786 -0.2686849 0.9626454 0.008484125 0.02832114 0.9995422 0.2097232 0.01709032 0.9775995 -0.1147801 -0.02093565 0.9931638 -0.2832728 -0.02890098 0.9585864 0.01794487 -0.02764976 0.9994507 0.05536055 -0.001190185 0.9984436 0.2059999 6.1037e-4 0.9785455 -0.06308174 -0.003906369 0.9979858 0.2036195 -4.27259e-4 0.9790338 0.02703934 0.1256142 0.991699 0.007965326 -0.08218634 0.9965819 0.02313297 -0.01245152 0.9996338 -0.2768945 0.02502512 0.9605701 0.01544231 0.2455824 0.9692373 -0.0698263 0.03225803 0.9970092 -0.2763756 0.02417063 0.9607227 -0.02218693 -0.08807641 0.9958495 0.1225013 -0.3137608 0.9415265 0.2269967 0.05194246 0.9725028 -0.131901 -0.01632738 0.9911191 0 0 -1 -0.0612201 -0.01159703 0.9980468 -0.05822926 -0.01901298 0.9981079 0.001586914 0.02166813 0.9997559 -0.001037597 -0.01513713 0.9998779 0.006469905 0.01763969 0.9998169 -0.06070131 0.01388591 0.9980468 -0.00766009 -0.01974546 0.9997559 -0.003479063 -0.01733446 0.9998169 0.009277582 0.0147404 0.9998474 0.007782161 0.01632738 0.9998169 -0.05487227 0.02380442 0.9981994 -0.009063959 -0.01751762 0.9997864 -0.01040679 -0.02063047 0.9997254 -0.006286799 0.007476985 0.999939 -0.01513713 0.005493283 0.9998474 -0.003906369 -0.00100708 0.9999695 -0.006164729 -0.0120548 0.9998779 -0.03857535 -0.009338617 0.9992066 -0.02279728 -1.83111e-4 0.9997254 -0.002685606 0.01239049 0.9999085 0.0109561 -0.007141292 0.9999085 0.002685606 -0.002929747 0.9999695 -0.05063021 -0.0170598 0.9985656 -0.001190185 0.02294987 0.9997254 0.001434326 -0.01318395 0.9999085 -0.06189149 0.00238043 0.9980773 0.004181027 0.01962339 0.9997864 -0.06018245 0.02059996 0.9979553 0.005340695 0.01199376 0.9999085 -0.03823965 0.01709032 0.999115 -0.003204405 0.02059996 0.9997559 0.008301019 -0.01040679 0.9999085 7.77522e-4 0.02237451 0.9997494 0.0054304 0.0179547 0.9998241 -0.005567669 -0.01875126 0.9998087 0.006703615 0.01490658 0.9998664 -0.0106936 -0.01845932 0.9997724 -0.002074718 0.02365994 0.9997179 0.002650856 0.02063024 0.9997838 -0.004997491 -0.01834934 0.9998191 -0.008890688 -0.01945352 0.9997712 -0.007580518 -0.01354479 0.9998795 2.90097e-4 0.02136743 0.9997716 0.00334239 0.02031761 0.9997881 0.009073436 0.01598668 0.999831 -0.01043295 -0.02045434 0.9997363 -0.004135966 0.02149838 0.9997603 0.00248301 0.0212838 0.9997704 -0.00170046 -0.01536846 0.9998805 0.006793618 0.01753813 0.9998231 -0.009503602 -0.02083247 0.9997378 -0.05462813 0.8321482 0.5518052 -0.6923734 0.05325478 0.7195044 -0.7096469 0.05435341 0.7024446 0.6769616 -0.02963346 0.7354046 0.2223883 0.8747521 0.430433 0.3182775 -0.8049257 0.5007477 0.6622211 -0.4900662 0.5667898 -0.7178869 -0.02740561 0.6955779 0.6986297 0.07968378 0.7110202 0.7525864 0.2977996 0.5872677 -0.02063047 -0.8158513 0.5778375 0.04300057 -0.8519852 0.5217444 -0.8001038 0.3394269 0.4945524 -0.800409 0.1110568 0.5890378 0.6374706 -0.01498454 0.7702872 0.6535234 0.006591975 0.7568285 -0.08197271 -0.8522599 0.5165868 -0.402356 0.8102664 0.4260689 -0.6504105 0.620716 0.4377575 -0.758507 -0.1611377 0.6313669 -0.6795557 -0.4831385 0.5519883 0.6338695 -0.01660203 0.773217 -0.1702933 0.8515275 0.4958342 -0.7340007 -0.007385432 0.6790674 0.661916 0.01211583 0.7494431 0.02157658 0.8643453 0.5023652 -0.6919462 -9.46074e-4 0.7219154 0.7066256 -0.1496933 0.6915494 0.5930967 0.662923 0.4568316 -0.7479171 0.01107817 0.6636555 -0.3582568 -0.7859432 0.5038606 0.6469314 0.009002923 0.7624439</float_array>
          <technique_common>
            <accessor source="#Circle-mesh-normals-array" count="277" stride="3">
              <param name="X" type="float"/>
              <param name="Y" type="float"/>
              <param name="Z" type="float"/>
            </accessor>
          </technique_common>
        </source>
        <source id="Circle-mesh-map">
          <float_array id="Circle-mesh-map-array" count="3072">0.2054869 0.7482381 0.3165854 0.7523293 0.3154307 0.7862961 0.5127876 0.5625426 0.5631369 0.5626506 0.5373701 0.6298238 0.623622 0.9535661 0.5743111 0.8869647 0.6075275 0.8777173 0.218955 0.9047049 0.2021789 0.8649243 0.3202984 0.8169321 0.7429327 0.9259473 0.6354436 0.8625762 0.6556552 0.8366488 0.4106248 0.5596954 0.4448459 0.6295232 0.4086446 0.6287807 0.3117683 0.9426981 0.256583 0.9318495 0.3586454 0.8664452 0.7826587 0.7634919 0.7825884 0.8308593 0.667496 0.8031424 0.3009157 0.5623371 0.3756729 0.6389572 0.348275 0.6499927 0.4263715 0.9487458 0.3718756 0.9503102 0.4210364 0.8855484 0.7734531 0.6393169 0.7820956 0.6979323 0.6687703 0.7256329 0.2286509 0.5990502 0.3275611 0.6652816 0.3187295 0.6904063 0.6919947 0.5734537 0.7460281 0.5988154 0.6429272 0.6687142 0.4789954 0.9531956 0.4874141 0.8979475 0.515195 0.8973599 0.2054869 0.7482381 0.207544 0.6915295 0.3175002 0.7197279 0.5631369 0.5626506 0.6234856 0.5658409 0.5720534 0.6359342 0.5719242 0.9533138 0.5418108 0.8965379 0.5743111 0.8869647 0.2006095 0.8104878 0.3154307 0.7862961 0.3202984 0.8169321 0.5127876 0.5625426 0.5078161 0.6239585 0.4785197 0.6281572 0.6843644 0.9434951 0.6075275 0.8777173 0.6354436 0.8625762 0.4635732 0.5668725 0.4785197 0.6281572 0.4448459 0.6295232 0.256583 0.9318495 0.218955 0.9047049 0.3356412 0.8431301 0.7737247 0.8845859 0.6556552 0.8366488 0.667496 0.8031424 0.354618 0.5614085 0.4086446 0.6287807 0.3756729 0.6389572 0.3718756 0.9503102 0.3117683 0.9426981 0.3872126 0.8814849 0.7826587 0.7634919 0.6717188 0.7642022 0.6687703 0.7256329 0.2584515 0.5763705 0.348275 0.6499927 0.3275611 0.6652816 0.4789954 0.9531956 0.4263715 0.9487458 0.4563567 0.8966754 0.7460281 0.5988154 0.7734531 0.6393169 0.6603288 0.6932171 0.207544 0.6915295 0.2125809 0.6420683 0.3187295 0.6904063 0.6234856 0.5658409 0.6919947 0.5734537 0.6119098 0.6494809 0.5245224 0.9539632 0.515195 0.8973599 0.5418108 0.8965379 0.3175002 0.7197279 0.3187295 0.6904063 0.4952356 0.7600052 0.5720534 0.6359342 0.6119098 0.6494809 0.4952356 0.7600052 0.5418108 0.8965379 0.515195 0.8973599 0.4952356 0.7600052 0.3154307 0.7862961 0.3165854 0.7523293 0.4952356 0.7600052 0.5078161 0.6239585 0.5373701 0.6298238 0.4952356 0.7600052 0.6075275 0.8777173 0.5743111 0.8869647 0.4952356 0.7600052 0.3356412 0.8431301 0.3202984 0.8169321 0.4952356 0.7600052 0.6556552 0.8366488 0.6354436 0.8625762 0.4952356 0.7600052 0.4086446 0.6287807 0.4448459 0.6295232 0.4952356 0.7600052 0.3872126 0.8814849 0.3586454 0.8664452 0.4952356 0.7600052 0.6717188 0.7642022 0.667496 0.8031424 0.4952356 0.7600052 0.348275 0.6499927 0.3756729 0.6389572 0.4952356 0.7600052 0.4563567 0.8966754 0.4210364 0.8855484 0.4952356 0.7600052 0.6603288 0.6932171 0.6687703 0.7256329 0.4952356 0.7600052 0.3187295 0.6904063 0.3275611 0.6652816 0.4952356 0.7600052 0.6119098 0.6494809 0.6429272 0.6687142 0.4952356 0.7600052 0.515195 0.8973599 0.4874141 0.8979475 0.4952356 0.7600052 0.3165854 0.7523293 0.3175002 0.7197279 0.4952356 0.7600052 0.5373701 0.6298238 0.5720534 0.6359342 0.4952356 0.7600052 0.5743111 0.8869647 0.5418108 0.8965379 0.4952356 0.7600052 0.3202984 0.8169321 0.3154307 0.7862961 0.4952356 0.7600052 0.4785197 0.6281572 0.5078161 0.6239585 0.4952356 0.7600052 0.6354436 0.8625762 0.6075275 0.8777173 0.4952356 0.7600052 0.4448459 0.6295232 0.4785197 0.6281572 0.4952356 0.7600052 0.3586454 0.8664452 0.3356412 0.8431301 0.4952356 0.7600052 0.667496 0.8031424 0.6556552 0.8366488 0.4952356 0.7600052 0.3756729 0.6389572 0.4086446 0.6287807 0.4952356 0.7600052 0.4210364 0.8855484 0.3872126 0.8814849 0.4952356 0.7600052 0.6687703 0.7256329 0.6717188 0.7642022 0.4952356 0.7600052 0.3275611 0.6652816 0.348275 0.6499927 0.4952356 0.7600052 0.4874141 0.8979475 0.4563567 0.8966754 0.4952356 0.7600052 0.6429272 0.6687142 0.6603288 0.6932171 0.4952356 0.7600052 0.9480458 0.4310091 0.9434403 0.4273968 0.9753332 0.3754756 0.1352418 0.4372785 0.09068202 0.383504 0.09555166 0.3809639 0.6673798 -0.01039463 0.7511647 -0.006686568 0.7496731 -0.001253008 0.8252826 0.4864013 0.8228873 0.4813111 0.8912963 0.4623064 0.06963258 0.3139239 0.0644955 0.2374395 0.07020431 0.2375571 0.8208551 0.002391874 0.8782433 0.02109563 0.8749272 0.02584964 0.6415613 0.4971283 0.6411898 0.4915193 0.7338457 0.489143 0.07180601 0.1645108 0.09477955 0.09605199 0.09955137 0.0988664 0.9257503 0.05378878 0.9631173 0.1036185 0.9580895 0.1062743 0.2124539 0.008577585 0.2153292 0.01330965 0.1431499 0.04762816 0.5500866 0.4968865 0.4674394 0.4961455 0.4679442 0.4902803 0.9876123 0.1675566 0.9979196 0.2355175 0.9921347 0.2356735 0.3927492 -0.01326453 0.3939675 -0.007794916 0.2998239 -0.003244459 0.3799645 0.4944482 0.292092 0.4886977 0.2941468 0.4834635 0.9961155 0.308209 0.9806089 0.3776627 0.9753332 0.3754756 0.5762099 -0.01108866 0.5760424 -0.005305528 0.4879063 -0.007131695 0.209773 0.4722639 0.1352418 0.4372785 0.1392612 0.4334787 0.5762099 -0.01108866 0.6673798 -0.01039463 0.6666927 -0.004847228 0.894869 0.4669211 0.8912963 0.4623064 0.9434403 0.4273968 0.06963258 0.3139239 0.07523167 0.3129354 0.09555166 0.3809639 0.7511647 -0.006686568 0.8208551 0.002391874 0.8186073 0.007590055 0.7350672 0.4945756 0.7338457 0.489143 0.8228873 0.4813111 0.0644955 0.2374395 0.07180601 0.1645108 0.0772432 0.1658582 0.8782433 0.02109563 0.9257503 0.05378878 0.9214686 0.05771362 0.5500866 0.4968865 0.5502101 0.4909992 0.6411898 0.4915193 0.1393463 0.04363554 0.1431499 0.04762816 0.09955137 0.0988664 0.9631173 0.1036185 0.9876123 0.1675566 0.9820325 0.1687281 0.2976219 -0.008368968 0.2998239 -0.003244459 0.2153292 0.01330965 0.4674394 0.4961455 0.3799645 0.4944482 0.3809573 0.4888591 0.9961155 0.308209 0.9903637 0.3075116 0.9921347 0.2356735 0.4875565 -0.01283699 0.4879063 -0.007131695 0.3939675 -0.007794916 0.292092 0.4886977 0.209773 0.4722639 0.2128983 0.4676186 0.1408514 0.2353338 0.1584737 0.2403517 0.1520712 0.3091878 0.5241454 0.4503097 0.6092682 0.4431474 0.5936261 0.4809588 0.6224471 0.4798797 0.6071084 0.4561364 0.6761506 0.4551374 0.1393437 0.3754522 0.15155 0.3690192 0.165353 0.4143008 0.7584012 0.4519283 0.7453102 0.4363471 0.7764287 0.3908724 0.3622927 0.4449547 0.3704887 0.4834824 0.2904987 0.4762933 0.3282873 0.4436386 0.2737214 0.4330719 0.2817869 0.417683 0.818799 0.2406972 0.8200312 0.3118082 0.8062872 0.3140517 0.2055677 0.4367958 0.212721 0.4697725 0.1532254 0.4840788 0.4490376 0.4451661 0.3901939 0.4445347 0.400498 0.4241535 0.7942594 0.1725097 0.7790761 0.1807886 0.7721953 0.1182047 0.2396515 0.1157641 0.2598072 0.07421773 0.2664859 0.09136617 0.6955326 0.0309149 0.7557525 0.05003273 0.7435239 0.0741645 0.4502332 0.4718701 0.450055 0.4523443 0.4992466 0.4539194 0.1458134 0.1697655 0.1616398 0.1774312 0.1584737 0.2403517 0.6092682 0.4431474 0.7035773 0.4374455 0.6838471 0.4747062 0.5617582 0.4776534 0.5525462 0.456406 0.6071084 0.4561364 0.1375954 0.3096891 0.1520712 0.3091878 0.15155 0.3690192 0.4451564 0.4537406 0.5241454 0.4503097 0.5186281 0.4882861 0.6899946 0.4758965 0.6761506 0.4551374 0.7453102 0.4363471 0.4451564 0.4537406 0.4458142 0.4914782 0.3704887 0.4834824 0.2737214 0.4330719 0.2371912 0.4023022 0.246097 0.3911608 0.8200312 0.3118082 0.8144873 0.374204 0.802185 0.3698406 0.2803406 0.439473 0.2904987 0.4762933 0.212721 0.4697725 0.3901939 0.4445347 0.3282873 0.4436386 0.3396064 0.4240882 0.7946856 0.2489589 0.7779926 0.2538334 0.7790761 0.1807886 0.2598072 0.07421773 0.288221 0.04849749 0.2928346 0.06926667 0.5053423 0.4435497 0.4490376 0.4451661 0.4528524 0.4262942 0.7833694 0.05967146 0.8107331 0.1071588 0.7983326 0.1217089 0.1458134 0.1697655 0.1582701 0.111672 0.1694451 0.1257799 0.7035773 0.4374455 0.8010048 0.4439503 0.7859708 0.4786046 0.5031936 0.4737486 0.4992466 0.4539194 0.5525462 0.456406 0.9921347 0.2356735 0.9903637 0.3075116 0.5285258 0.2792056 0.3939675 -0.007794916 0.4879063 -0.007131695 0.5285258 0.2792056 0.2941468 0.4834635 0.2128983 0.4676186 0.5285258 0.2792056 0.9753332 0.3754756 0.9434403 0.4273968 0.5285258 0.2792056 0.1392612 0.4334787 0.09555166 0.3809639 0.5285258 0.2792056 0.6666927 -0.004847228 0.7496731 -0.001253008 0.5285258 0.2792056 0.8912963 0.4623064 0.8228873 0.4813111 0.5285258 0.2792056 0.07523167 0.3129354 0.07020431 0.2375571 0.5285258 0.2792056 0.8186073 0.007590055 0.8749272 0.02584964 0.5285258 0.2792056 0.7338457 0.489143 0.6411898 0.4915193 0.5285258 0.2792056 0.0772432 0.1658582 0.09955137 0.0988664 0.5285258 0.2792056 0.9214686 0.05771362 0.9580895 0.1062743 0.5285258 0.2792056 0.1431499 0.04762816 0.2153292 0.01330965 0.5285258 0.2792056 0.5502101 0.4909992 0.4679442 0.4902803 0.5285258 0.2792056 0.9820325 0.1687281 0.9921347 0.2356735 0.5285258 0.2792056 0.2998239 -0.003244459 0.3939675 -0.007794916 0.5285258 0.2792056 0.3809573 0.4888591 0.2941468 0.4834635 0.5285258 0.2792056 0.9903637 0.3075116 0.9753332 0.3754756 0.5285258 0.2792056 0.4879063 -0.007131695 0.5760424 -0.005305528 0.5285258 0.2792056 0.2128983 0.4676186 0.1392612 0.4334787 0.5285258 0.2792056 0.5760424 -0.005305528 0.6666927 -0.004847228 0.5285258 0.2792056 0.9434403 0.4273968 0.8912963 0.4623064 0.5285258 0.2792056 0.09555166 0.3809639 0.07523167 0.3129354 0.5285258 0.2792056 0.7496731 -0.001253008 0.8186073 0.007590055 0.5285258 0.2792056 0.8228873 0.4813111 0.7338457 0.489143 0.5285258 0.2792056 0.07020431 0.2375571 0.0772432 0.1658582 0.5285258 0.2792056 0.8749272 0.02584964 0.9214686 0.05771362 0.5285258 0.2792056 0.6411898 0.4915193 0.5502101 0.4909992 0.5285258 0.2792056 0.09955137 0.0988664 0.1431499 0.04762816 0.5285258 0.2792056 0.9580895 0.1062743 0.9820325 0.1687281 0.5285258 0.2792056 0.2153292 0.01330965 0.2998239 -0.003244459 0.5285258 0.2792056 0.4679442 0.4902803 0.3809573 0.4888591 0.5285258 0.2792056 0.5354562 1.016218 0.5327488 1.001254 0.5986732 1.0022 0.6838471 0.4747062 0.7859708 0.4786046 0.7625805 0.5024102 0.07871979 0.6421671 0.08927935 0.57229 0.1195486 0.5906046 0.8659305 0.5024612 0.9047192 0.5620416 0.8722868 0.5814171 0.4689066 1.014087 0.3911141 1.01485 0.399862 0.9984931 0.1532254 0.4840788 0.1792178 0.5086228 0.1421921 0.539024 0.912562 0.745529 0.8802946 0.7508448 0.8814616 0.6602931 0.3132821 1.011668 0.2227579 1.011571 0.2448053 0.9934243 0.2904987 0.4762933 0.3063628 0.4958551 0.234627 0.4916703 0.9165446 0.847986 0.9104462 0.9309242 0.8769971 0.921737 0.1368015 1.002048 0.08374333 0.9626197 0.1168831 0.9528813 0.4458142 0.4914782 0.4502413 0.5104643 0.3804936 0.5033243 0.7747835 1.017866 0.7523031 0.9984729 0.8373698 0.9749384 0.5186281 0.4882861 0.5171769 0.5068772 0.4502413 0.5104643 0.06577473 0.8204159 0.09930098 0.8222729 0.09872925 0.8961051 0.6075634 1.019582 0.5986732 1.0022 0.6669822 1.001996 0.5936261 0.4809588 0.6838471 0.4747062 0.6687611 0.4964699 0.07443654 0.7272901 0.07871979 0.6421671 0.1106441 0.6569995 0.4689066 1.014087 0.4714338 0.99943 0.5327488 1.001254 0.7859708 0.4786046 0.8659305 0.5024612 0.8365595 0.5305187 0.1140543 0.5169329 0.1421921 0.539024 0.1195486 0.5906046 0.9140276 0.6467092 0.8814616 0.6602931 0.8722868 0.5814171 0.3911141 1.01485 0.3132821 1.011668 0.3276799 0.9923296 0.212721 0.4697725 0.234627 0.4916703 0.1792178 0.5086228 0.912562 0.745529 0.9165446 0.847986 0.8835437 0.8455811 0.2227579 1.011571 0.1368015 1.002048 0.1663862 0.9850077 0.3704887 0.4834824 0.3804936 0.5033243 0.3063628 0.4958551 0.8683471 0.9924454 0.8373698 0.9749384 0.8769971 0.921737 0.08374333 0.9626197 0.06506973 0.9013597 0.09872925 0.8961051 0.6813786 1.019217 0.6669822 1.001996 0.7523031 0.9984729 0.5186281 0.4882861 0.5936261 0.4809588 0.5859344 0.4997209 0.07443654 0.7272901 0.1071766 0.7356218 0.09930098 0.8222729 0.5327488 1.001254 0.5245224 0.9539632 0.5719242 0.9533138 0.6687611 0.4964699 0.7625805 0.5024102 0.6919947 0.5734537 0.1106441 0.6569995 0.1195486 0.5906046 0.2125809 0.6420683 0.8365595 0.5305187 0.8722868 0.5814171 0.7734531 0.6393169 0.4714338 0.99943 0.399862 0.9984931 0.4263715 0.9487458 0.1792178 0.5086228 0.2584515 0.5763705 0.2286509 0.5990502 0.8802946 0.7508448 0.7826587 0.7634919 0.7820956 0.6979323 0.3276799 0.9923296 0.2448053 0.9934243 0.3117683 0.9426981 0.3063628 0.4958551 0.354618 0.5614085 0.3009157 0.5623371 0.8835437 0.8455811 0.8769971 0.921737 0.7737247 0.8845859 0.1663862 0.9850077 0.1168831 0.9528813 0.218955 0.9047049 0.4502413 0.5104643 0.4635732 0.5668725 0.4106248 0.5596954 0.7523031 0.9984729 0.6843644 0.9434951 0.7429327 0.9259473 0.5171769 0.5068772 0.5127876 0.5625426 0.4635732 0.5668725 0.09930098 0.8222729 0.2006095 0.8104878 0.2021789 0.8649243 0.5986732 1.0022 0.5719242 0.9533138 0.623622 0.9535661 0.5859344 0.4997209 0.6687611 0.4964699 0.6234856 0.5658409 0.1071766 0.7356218 0.1106441 0.6569995 0.207544 0.6915295 0.4714338 0.99943 0.4789954 0.9531956 0.5245224 0.9539632 0.7625805 0.5024102 0.8365595 0.5305187 0.7460281 0.5988154 0.1421921 0.539024 0.2286509 0.5990502 0.2125809 0.6420683 0.8814616 0.6602931 0.7820956 0.6979323 0.7734531 0.6393169 0.399862 0.9984931 0.3276799 0.9923296 0.3718756 0.9503102 0.234627 0.4916703 0.3009157 0.5623371 0.2584515 0.5763705 0.8802946 0.7508448 0.8835437 0.8455811 0.7825884 0.8308593 0.2448053 0.9934243 0.1663862 0.9850077 0.256583 0.9318495 0.3804936 0.5033243 0.4106248 0.5596954 0.354618 0.5614085 0.8373698 0.9749384 0.7429327 0.9259473 0.7737247 0.8845859 0.1168831 0.9528813 0.09872925 0.8961051 0.2021789 0.8649243 0.6669822 1.001996 0.623622 0.9535661 0.6843644 0.9434951 0.5171769 0.5068772 0.5859344 0.4997209 0.5631369 0.5626506 0.1071766 0.7356218 0.2054869 0.7482381 0.2006095 0.8104878 0.2006095 0.8104878 0.2054869 0.7482381 0.3154307 0.7862961 0.5078161 0.6239585 0.5127876 0.5625426 0.5373701 0.6298238 0.6843644 0.9434951 0.623622 0.9535661 0.6075275 0.8777173 0.3356412 0.8431301 0.218955 0.9047049 0.3202984 0.8169321 0.7737247 0.8845859 0.7429327 0.9259473 0.6556552 0.8366488 0.354618 0.5614085 0.4106248 0.5596954 0.4086446 0.6287807 0.3872126 0.8814849 0.3117683 0.9426981 0.3586454 0.8664452 0.6717188 0.7642022 0.7826587 0.7634919 0.667496 0.8031424 0.2584515 0.5763705 0.3009157 0.5623371 0.348275 0.6499927 0.4563567 0.8966754 0.4263715 0.9487458 0.4210364 0.8855484 0.6603288 0.6932171 0.7734531 0.6393169 0.6687703 0.7256329 0.2125809 0.6420683 0.2286509 0.5990502 0.3187295 0.6904063 0.6119098 0.6494809 0.6919947 0.5734537 0.6429272 0.6687142 0.5245224 0.9539632 0.4789954 0.9531956 0.515195 0.8973599 0.3165854 0.7523293 0.2054869 0.7482381 0.3175002 0.7197279 0.5373701 0.6298238 0.5631369 0.5626506 0.5720534 0.6359342 0.623622 0.9535661 0.5719242 0.9533138 0.5743111 0.8869647 0.2021789 0.8649243 0.2006095 0.8104878 0.3202984 0.8169321 0.4635732 0.5668725 0.5127876 0.5625426 0.4785197 0.6281572 0.7429327 0.9259473 0.6843644 0.9434951 0.6354436 0.8625762 0.4106248 0.5596954 0.4635732 0.5668725 0.4448459 0.6295232 0.3586454 0.8664452 0.256583 0.9318495 0.3356412 0.8431301 0.7825884 0.8308593 0.7737247 0.8845859 0.667496 0.8031424 0.3009157 0.5623371 0.354618 0.5614085 0.3756729 0.6389572 0.4210364 0.8855484 0.3718756 0.9503102 0.3872126 0.8814849 0.7820956 0.6979323 0.7826587 0.7634919 0.6687703 0.7256329 0.2286509 0.5990502 0.2584515 0.5763705 0.3275611 0.6652816 0.4874141 0.8979475 0.4789954 0.9531956 0.4563567 0.8966754 0.6429272 0.6687142 0.7460281 0.5988154 0.6603288 0.6932171 0.3175002 0.7197279 0.207544 0.6915295 0.3187295 0.6904063 0.5720534 0.6359342 0.6234856 0.5658409 0.6119098 0.6494809 0.5719242 0.9533138 0.5245224 0.9539632 0.5418108 0.8965379 0.9806089 0.3776627 0.9480458 0.4310091 0.9753332 0.3754756 0.1392612 0.4334787 0.1352418 0.4372785 0.09555166 0.3809639 0.6666927 -0.004847228 0.6673798 -0.01039463 0.7496731 -0.001253008 0.894869 0.4669211 0.8252826 0.4864013 0.8912963 0.4623064 0.07523167 0.3129354 0.06963258 0.3139239 0.07020431 0.2375571 0.8186073 0.007590055 0.8208551 0.002391874 0.8749272 0.02584964 0.7350672 0.4945756 0.6415613 0.4971283 0.7338457 0.489143 0.0772432 0.1658582 0.07180601 0.1645108 0.09955137 0.0988664 0.9214686 0.05771362 0.9257503 0.05378878 0.9580895 0.1062743 0.1393463 0.04363554 0.2124539 0.008577585 0.1431499 0.04762816 0.5502101 0.4909992 0.5500866 0.4968865 0.4679442 0.4902803 0.9820325 0.1687281 0.9876123 0.1675566 0.9921347 0.2356735 0.2976219 -0.008368968 0.3927492 -0.01326453 0.2998239 -0.003244459 0.3809573 0.4888591 0.3799645 0.4944482 0.2941468 0.4834635 0.9903637 0.3075116 0.9961155 0.308209 0.9753332 0.3754756 0.4875565 -0.01283699 0.5762099 -0.01108866 0.4879063 -0.007131695 0.2128983 0.4676186 0.209773 0.4722639 0.1392612 0.4334787 0.5760424 -0.005305528 0.5762099 -0.01108866 0.6666927 -0.004847228 0.9480458 0.4310091 0.894869 0.4669211 0.9434403 0.4273968 0.09068202 0.383504 0.06963258 0.3139239 0.09555166 0.3809639 0.7496731 -0.001253008 0.7511647 -0.006686568 0.8186073 0.007590055 0.8252826 0.4864013 0.7350672 0.4945756 0.8228873 0.4813111 0.07020431 0.2375571 0.0644955 0.2374395 0.0772432 0.1658582 0.8749272 0.02584964 0.8782433 0.02109563 0.9214686 0.05771362 0.6415613 0.4971283 0.5500866 0.4968865 0.6411898 0.4915193 0.09477955 0.09605199 0.1393463 0.04363554 0.09955137 0.0988664 0.9580895 0.1062743 0.9631173 0.1036185 0.9820325 0.1687281 0.2124539 0.008577585 0.2976219 -0.008368968 0.2153292 0.01330965 0.4679442 0.4902803 0.4674394 0.4961455 0.3809573 0.4888591 0.9979196 0.2355175 0.9961155 0.308209 0.9921347 0.2356735 0.3927492 -0.01326453 0.4875565 -0.01283699 0.3939675 -0.007794916 0.2941468 0.4834635 0.292092 0.4886977 0.2128983 0.4676186 0.2208371 0.2959626 0.2238 0.2282982 0.2340103 0.2955064 0.5186281 0.4882861 0.5241454 0.4503097 0.5936261 0.4809588 0.7235287 0.4472138 0.6620594 0.4508386 0.7109305 0.4283228 0.2371912 0.4023023 0.222428 0.355808 0.246097 0.3911608 0.8144873 0.374204 0.7857798 0.4254024 0.802185 0.3698406 0.2803406 0.439473 0.3622927 0.4449547 0.2904987 0.4762933 0.2681088 0.4504842 0.2556706 0.4719678 0.2045722 0.4434456 0.7779926 0.2538334 0.7946856 0.2489589 0.7809365 0.3295668 0.2116424 0.03775393 0.2554022 0.02562654 0.2167122 0.06057679 0.3925529 0.4529082 0.388361 0.4736463 0.3350217 0.4505559 0.8107331 0.1071588 0.8184112 0.1711274 0.7983326 0.1217089 0.1694451 0.1257799 0.1582701 0.111672 0.187758 0.08486151 0.7859708 0.4786046 0.8010048 0.4439503 0.8659305 0.5024612 0.553537 0.4452592 0.5053423 0.4435497 0.5499452 0.4272145 0.2238 0.2282982 0.2283156 0.1686301 0.2398368 0.2328646 0.5936261 0.4809588 0.6092682 0.4431474 0.6838471 0.4747062 0.6620594 0.4508386 0.6068317 0.4488126 0.648101 0.4292318 0.222428 0.355808 0.2208371 0.2959626 0.2335361 0.3499538 0.4458142 0.4914782 0.4451564 0.4537406 0.5186281 0.4882861 0.7857798 0.4254024 0.7235287 0.4472138 0.7738667 0.4112234 0.3622927 0.4449547 0.4451564 0.4537406 0.3704887 0.4834824 0.2045722 0.4434456 0.1957089 0.460356 0.165353 0.4143008 0.7809365 0.3295668 0.7960395 0.3271016 0.7764287 0.3908724 0.2055677 0.4367958 0.2803406 0.439473 0.212721 0.4697725 0.3350217 0.4505559 0.3236988 0.4729525 0.2681088 0.4504842 0.8184112 0.1711274 0.818799 0.2406972 0.8045943 0.1786612 0.187758 0.08486151 0.1804189 0.0660175 0.2167122 0.06057679 0.450055 0.4523443 0.4502332 0.4718701 0.3925529 0.4529082 0.7435239 0.0741645 0.7557525 0.05003273 0.7721953 0.1182047 0.1616398 0.1774312 0.1458134 0.1697655 0.1694451 0.1257799 0.6838471 0.4747062 0.7035773 0.4374455 0.7859708 0.4786046 0.6068317 0.4488126 0.553537 0.4452592 0.5984485 0.4294772 0.6075634 1.019582 0.5354562 1.016218 0.5986732 1.0022 0.6687611 0.4964699 0.6838471 0.4747062 0.7625805 0.5024102 0.1106441 0.6569995 0.07871979 0.6421671 0.1195486 0.5906046 0.8365595 0.5305187 0.8659305 0.5024612 0.8722868 0.5814171 0.4714338 0.99943 0.4689066 1.014087 0.399862 0.9984931 0.1140543 0.5169329 0.1532254 0.4840788 0.1421921 0.539024 0.9140276 0.6467092 0.912562 0.745529 0.8814616 0.6602931 0.3276799 0.9923296 0.3132821 1.011668 0.2448053 0.9934243 0.212721 0.4697725 0.2904987 0.4762933 0.234627 0.4916703 0.8835437 0.8455811 0.9165446 0.847986 0.8769971 0.921737 0.1663862 0.9850077 0.1368015 1.002048 0.1168831 0.9528813 0.3704887 0.4834824 0.4458142 0.4914782 0.3804936 0.5033243 0.8683471 0.9924454 0.7747835 1.017866 0.8373698 0.9749384 0.4458142 0.4914782 0.5186281 0.4882861 0.4502413 0.5104643 0.06506973 0.9013597 0.06577473 0.8204159 0.09872925 0.8961051 0.6813786 1.019217 0.6075634 1.019582 0.6669822 1.001996 0.5859344 0.4997209 0.5936261 0.4809588 0.6687611 0.4964699 0.1071766 0.7356218 0.07443654 0.7272901 0.1106441 0.6569995 0.5354562 1.016218 0.4689066 1.014087 0.5327488 1.001254 0.7625805 0.5024102 0.7859708 0.4786046 0.8365595 0.5305187 0.08927935 0.57229 0.1140543 0.5169329 0.1195486 0.5906046 0.9047192 0.5620416 0.9140276 0.6467092 0.8722868 0.5814171 0.399862 0.9984931 0.3911141 1.01485 0.3276799 0.9923296 0.1532254 0.4840788 0.212721 0.4697725 0.1792178 0.5086228 0.8802946 0.7508448 0.912562 0.745529 0.8835437 0.8455811 0.2448053 0.9934243 0.2227579 1.011571 0.1663862 0.9850077 0.2904987 0.4762933 0.3704887 0.4834824 0.3063628 0.4958551 0.9104462 0.9309242 0.8683471 0.9924454 0.8769971 0.921737 0.1168831 0.9528813 0.08374333 0.9626197 0.09872925 0.8961051 0.7747835 1.017866 0.6813786 1.019217 0.7523031 0.9984729 0.5171769 0.5068772 0.5186281 0.4882861 0.5859344 0.4997209 0.06577473 0.8204159 0.07443654 0.7272901 0.09930098 0.8222729 0.5986732 1.0022 0.5327488 1.001254 0.5719242 0.9533138 0.6234856 0.5658409 0.6687611 0.4964699 0.6919947 0.5734537 0.207544 0.6915295 0.1106441 0.6569995 0.2125809 0.6420683 0.7460281 0.5988154 0.8365595 0.5305187 0.7734531 0.6393169 0.4789954 0.9531956 0.4714338 0.99943 0.4263715 0.9487458 0.1421921 0.539024 0.1792178 0.5086228 0.2286509 0.5990502 0.8814616 0.6602931 0.8802946 0.7508448 0.7820956 0.6979323 0.3718756 0.9503102 0.3276799 0.9923296 0.3117683 0.9426981 0.234627 0.4916703 0.3063628 0.4958551 0.3009157 0.5623371 0.7825884 0.8308593 0.8835437 0.8455811 0.7737247 0.8845859 0.256583 0.9318495 0.1663862 0.9850077 0.218955 0.9047049 0.3804936 0.5033243 0.4502413 0.5104643 0.4106248 0.5596954 0.8373698 0.9749384 0.7523031 0.9984729 0.7429327 0.9259473 0.4502413 0.5104643 0.5171769 0.5068772 0.4635732 0.5668725 0.09872925 0.8961051 0.09930098 0.8222729 0.2021789 0.8649243 0.6669822 1.001996 0.5986732 1.0022 0.623622 0.9535661 0.5631369 0.5626506 0.5859344 0.4997209 0.6234856 0.5658409 0.2054869 0.7482381 0.1071766 0.7356218 0.207544 0.6915295 0.5327488 1.001254 0.4714338 0.99943 0.5245224 0.9539632 0.6919947 0.5734537 0.7625805 0.5024102 0.7460281 0.5988154 0.1195486 0.5906046 0.1421921 0.539024 0.2125809 0.6420683 0.8722868 0.5814171 0.8814616 0.6602931 0.7734531 0.6393169 0.4263715 0.9487458 0.399862 0.9984931 0.3718756 0.9503102 0.1792178 0.5086228 0.234627 0.4916703 0.2584515 0.5763705 0.7826587 0.7634919 0.8802946 0.7508448 0.7825884 0.8308593 0.3117683 0.9426981 0.2448053 0.9934243 0.256583 0.9318495 0.3063628 0.4958551 0.3804936 0.5033243 0.354618 0.5614085 0.8769971 0.921737 0.8373698 0.9749384 0.7737247 0.8845859 0.218955 0.9047049 0.1168831 0.9528813 0.2021789 0.8649243 0.7523031 0.9984729 0.6669822 1.001996 0.6843644 0.9434951 0.5127876 0.5625426 0.5171769 0.5068772 0.5631369 0.5626506 0.09930098 0.8222729 0.1071766 0.7356218 0.2006095 0.8104878 0.2149267 0.2284257 0.2238 0.2282982 0.2208371 0.2959626 0.5459493 0.02622264 0.6071394 0.02180987 0.5995952 0.04173386 0.6711189 0.4642173 0.6620594 0.4508386 0.7235287 0.4472138 0.2175064 0.3606511 0.222428 0.355808 0.2371912 0.4023023 0.8202509 0.3775523 0.7905644 0.4341278 0.7857798 0.4254024 0.3702241 0.01023459 0.3712489 0.03165733 0.3106723 0.02760541 0.3228724 0.4557943 0.2720164 0.4427691 0.2737214 0.4330719 0.8276795 0.2381585 0.8270996 0.310541 0.8200312 0.3118082 0.2891859 0.03485977 0.328786 0.02197843 0.3280432 0.0374614 0.4477961 0.4589629 0.3859006 0.4579881 0.3901939 0.4445347 0.8259956 0.1672452 0.8184112 0.1711274 0.8107331 0.1071588 0.2350499 0.1066533 0.2583105 0.06188815 0.2598072 0.07421773 0.7335622 0.02607953 0.7882647 0.04628336 0.7833694 0.05967146 0.5061566 0.4567462 0.5053423 0.4435497 0.553537 0.4452592 0.2205916 0.1643062 0.2283156 0.1686301 0.2238 0.2282982 0.6071394 0.02180987 0.6722543 0.0191279 0.6630333 0.03789842 0.6120992 0.4619168 0.6068317 0.4488126 0.6620594 0.4508386 0.2139624 0.2968966 0.2208371 0.2959626 0.222428 0.355808 0.4909648 0.0290327 0.5459493 0.02622264 0.542337 0.04655158 0.7306573 0.4585548 0.7235287 0.4472138 0.7857798 0.4254024 0.434434 0.01636445 0.4324995 0.03815162 0.3712489 0.03165733 0.2344973 0.4106954 0.2371912 0.4023022 0.2737214 0.4330719 0.8270996 0.310541 0.8202509 0.3775523 0.8144873 0.374204 0.328786 0.02197843 0.3769906 0.02134245 0.3783397 0.03926223 0.3859006 0.4579881 0.3228724 0.4557943 0.3282873 0.4436386 0.8259956 0.1672452 0.8276795 0.2381585 0.818799 0.2406972 0.2583105 0.06188815 0.2891859 0.03485977 0.288221 0.04849749 0.5061566 0.4567462 0.4477961 0.4589629 0.4490376 0.4451661 0.8172549 0.0976966 0.8107331 0.1071588 0.7833694 0.05967146 0.2205916 0.1643062 0.2350499 0.1066533 0.2396515 0.1157641 0.6722543 0.0191279 0.7335622 0.02607953 0.7285684 0.04227387 0.5563272 0.4582625 0.553537 0.4452592 0.6068317 0.4488126 0.6686689 -0.02104353 0.7532052 -0.01689845 0.7511647 -0.006686568 0.8273725 0.4964628 0.8252826 0.4864013 0.894869 0.4669211 0.0600118 0.3157858 0.0545637 0.2373791 0.0644955 0.2374395 0.8258292 -0.006730854 0.8861239 0.01400989 0.8782433 0.02109563 0.6417703 0.5083114 0.6415613 0.4971283 0.7350672 0.4945756 0.0858848 0.09230196 0.09477955 0.09605199 0.07180601 0.1645108 0.9348971 0.04886525 0.9727162 0.1005651 0.9631173 0.1036185 0.2088034 -6.23211e-4 0.2124539 0.008577585 0.1393463 0.04363554 0.4682847 0.5075163 0.4674394 0.4961455 0.5500866 0.4968865 1.008 0.2348901 0.9979196 0.2355175 0.9876123 0.1675566 0.2979257 -0.01852899 0.3945712 -0.02380061 0.3927492 -0.01326453 0.2925013 0.4990225 0.292092 0.4886977 0.3799645 0.4944482 0.9904409 0.3804422 0.9806089 0.3776627 0.9961155 0.308209 0.4892955 -0.02384555 0.5779346 -0.02221792 0.5762099 -0.01108866 0.2069762 0.4818854 0.1283622 0.4441958 0.1352418 0.4372785 0.5779346 -0.02221792 0.6686689 -0.02104353 0.6673798 -0.01039463 0.901319 0.4751232 0.894869 0.4669211 0.9480458 0.4310091 0.08174401 0.3875933 0.0600118 0.3157858 0.06963258 0.3139239 0.7532052 -0.01689845 0.8258292 -0.006730854 0.8208551 0.002391874 0.8273725 0.4964628 0.7357035 0.5050278 0.7350672 0.4945756 0.0545637 0.2373791 0.06228566 0.1626315 0.07180601 0.1645108 0.8861239 0.01400989 0.9348971 0.04886525 0.9257503 0.05378878 0.5504575 0.5084835 0.5500866 0.4968865 0.6415613 0.4971283 0.1324378 0.03695213 0.1393463 0.04363554 0.09477955 0.09605199 0.9727162 0.1005651 0.9972802 0.1655134 0.9876123 0.1675566 0.2088034 -6.23211e-4 0.2979257 -0.01852899 0.2976219 -0.008368968 0.3809584 0.5052008 0.3799645 0.4944482 0.4674394 0.4961455 1.006072 0.3092908 0.9961155 0.308209 0.9979196 0.2355175 0.3945712 -0.02380061 0.4892955 -0.02384555 0.4875565 -0.01283699 0.2069762 0.4818854 0.209773 0.4722639 0.292092 0.4886977 0.9569287 0.4366173 0.9480458 0.4310091 0.9806089 0.3776627 0.1283622 0.4441958 0.08174401 0.3875933 0.09068202 0.383504 0.2139624 0.2968967 0.2149267 0.2284257 0.2208371 0.2959626 0.4908859 0.03561556 0.4948556 0.01327645 0.5538062 0.03032147 0.7306573 0.4585548 0.6711189 0.4642173 0.7235287 0.4472138 0.2344973 0.4106954 0.2175064 0.3606511 0.2371912 0.4023023 0.8144873 0.374204 0.8202509 0.3775523 0.7857798 0.4254024 0.3769906 0.02134245 0.4325327 0.02345454 0.3783397 0.03926223 0.3282873 0.4436386 0.3228724 0.4557943 0.2737214 0.4330719 0.818799 0.2406972 0.8276795 0.2381585 0.8200312 0.3118082 0.288221 0.04849749 0.2891859 0.03485977 0.3280432 0.0374614 0.4490376 0.4451661 0.4477961 0.4589629 0.3901939 0.4445347 0.8172549 0.0976966 0.8259956 0.1672452 0.8107331 0.1071588 0.2396515 0.1157641 0.2350499 0.1066533 0.2598072 0.07421773 0.7285684 0.04227387 0.7335622 0.02607953 0.7833694 0.05967146 0.5563272 0.4582625 0.5061566 0.4567462 0.553537 0.4452592 0.2149267 0.2284257 0.2205916 0.1643062 0.2238 0.2282982 0.5538062 0.03032147 0.5620963 0.008427262 0.623517 0.02610671 0.6711189 0.4642173 0.6120992 0.4619168 0.6620594 0.4508386 0.2175064 0.3606511 0.2139624 0.2968966 0.222428 0.355808 0.4324995 0.03815162 0.434434 0.01636445 0.4908859 0.03561556 0.7905644 0.4341278 0.7306573 0.4585548 0.7857798 0.4254024 0.4325327 0.02345454 0.4909648 0.0290327 0.4334653 0.04294949 0.2720164 0.4427691 0.2344973 0.4106954 0.2737214 0.4330719 0.8200312 0.3118082 0.8270996 0.310541 0.8144873 0.374204 0.2554022 0.02562654 0.2562187 0.008612513 0.3106723 0.02760541 0.3901939 0.4445347 0.3859006 0.4579881 0.3282873 0.4436386 0.8184112 0.1711274 0.8259956 0.1672452 0.818799 0.2406972 0.2598072 0.07421773 0.2583105 0.06188815 0.288221 0.04849749 0.5053423 0.4435497 0.5061566 0.4567462 0.4490376 0.4451661 0.7882647 0.04628336 0.8172549 0.0976966 0.7833694 0.05967146 0.2283156 0.1686301 0.2205916 0.1643062 0.2396515 0.1157641 0.623517 0.02610671 0.6336499 0.00548017 0.6955326 0.0309149 0.6120992 0.4619168 0.5563272 0.4582625 0.6068317 0.4488126 0.6673798 -0.01039463 0.6686689 -0.02104353 0.7511647 -0.006686568 0.901319 0.4751232 0.8273725 0.4964628 0.894869 0.4669211 0.06963258 0.3139239 0.0600118 0.3157858 0.0644955 0.2374395 0.8208551 0.002391874 0.8258292 -0.006730854 0.8782433 0.02109563 0.7357035 0.5050278 0.6417703 0.5083114 0.7350672 0.4945756 0.06228566 0.1626315 0.0858848 0.09230196 0.07180601 0.1645108 0.9257503 0.05378878 0.9348971 0.04886525 0.9631173 0.1036185 0.1324378 0.03695213 0.2088034 -6.23211e-4 0.1393463 0.04363554 0.5504575 0.5084835 0.4682847 0.5075163 0.5500866 0.4968865 0.9972802 0.1655134 1.008 0.2348901 0.9876123 0.1675566 0.2976219 -0.008368968 0.2979257 -0.01852899 0.3927492 -0.01326453 0.3809584 0.5052008 0.2925013 0.4990225 0.3799645 0.4944482 1.006072 0.3092908 0.9904409 0.3804422 0.9961155 0.308209 0.4875565 -0.01283699 0.4892955 -0.02384555 0.5762099 -0.01108866 0.209773 0.4722639 0.2069762 0.4818854 0.1352418 0.4372785 0.5762099 -0.01108866 0.5779346 -0.02221792 0.6673798 -0.01039463 0.9569287 0.4366173 0.901319 0.4751232 0.9480458 0.4310091 0.09068202 0.383504 0.08174401 0.3875933 0.06963258 0.3139239 0.7511647 -0.006686568 0.7532052 -0.01689845 0.8208551 0.002391874 0.8252826 0.4864013 0.8273725 0.4964628 0.7350672 0.4945756 0.0644955 0.2374395 0.0545637 0.2373791 0.07180601 0.1645108 0.8782433 0.02109563 0.8861239 0.01400989 0.9257503 0.05378878 0.6417703 0.5083114 0.5504575 0.5084835 0.6415613 0.4971283 0.0858848 0.09230196 0.1324378 0.03695213 0.09477955 0.09605199 0.9631173 0.1036185 0.9727162 0.1005651 0.9876123 0.1675566 0.2124539 0.008577585 0.2088034 -6.23211e-4 0.2976219 -0.008368968 0.4682847 0.5075163 0.3809584 0.5052008 0.4674394 0.4961455 1.008 0.2348901 1.006072 0.3092908 0.9979196 0.2355175 0.3927492 -0.01326453 0.3945712 -0.02380061 0.4875565 -0.01283699 0.2925013 0.4990225 0.2069762 0.4818854 0.292092 0.4886977 0.9904409 0.3804422 0.9569287 0.4366173 0.9806089 0.3776627 0.1352418 0.4372785 0.1283622 0.4441958 0.09068202 0.383504</float_array>
          <technique_common>
            <accessor source="#Circle-mesh-map-array" count="1536" stride="2">
              <param name="S" type="float"/>
              <param name="T" type="float"/>
            </accessor>
          </technique_common>
        </source>
        <vertices id="Circle-mesh-vertices">
          <input semantic="POSITION" source="#Circle-mesh-positions"/>
        </vertices>
        <polylist material="Material_001-material" count="512">
          <input semantic="VERTEX" source="#Circle-mesh-vertices" offset="0"/>
          <input semantic="NORMAL" source="#Circle-mesh-normals" offset="1"/>
          <input semantic="TEXCOORD" source="#Circle-mesh-map" offset="2" set="0"/>
          <vcount>3 3 3 3 3 3 3 3 3 3 3 3 3 3 3 3 3 3 3 3 3 3 3 3 3 3 3 3 3 3 3 3 3 3 3 3 3 3 3 3 3 3 3 3 3 3 3 3 3 3 3 3 3 3 3 3 3 3 3 3 3 3 3 3 3 3 3 3 3 3 3 3 3 3 3 3 3 3 3 3 3 3 3 3 3 3 3 3 3 3 3 3 3 3 3 3 3 3 3 3 3 3 3 3 3 3 3 3 3 3 3 3 3 3 3 3 3 3 3 3 3 3 3 3 3 3 3 3 3 3 3 3 3 3 3 3 3 3 3 3 3 3 3 3 3 3 3 3 3 3 3 3 3 3 3 3 3 3 3 3 3 3 3 3 3 3 3 3 3 3 3 3 3 3 3 3 3 3 3 3 3 3 3 3 3 3 3 3 3 3 3 3 3 3 3 3 3 3 3 3 3 3 3 3 3 3 3 3 3 3 3 3 3 3 3 3 3 3 3 3 3 3 3 3 3 3 3 3 3 3 3 3 3 3 3 3 3 3 3 3 3 3 3 3 3 3 3 3 3 3 3 3 3 3 3 3 3 3 3 3 3 3 3 3 3 3 3 3 3 3 3 3 3 3 3 3 3 3 3 3 3 3 3 3 3 3 3 3 3 3 3 3 3 3 3 3 3 3 3 3 3 3 3 3 3 3 3 3 3 3 3 3 3 3 3 3 3 3 3 3 3 3 3 3 3 3 3 3 3 3 3 3 3 3 3 3 3 3 3 3 3 3 3 3 3 3 3 3 3 3 3 3 3 3 3 3 3 3 3 3 3 3 3 3 3 3 3 3 3 3 3 3 3 3 3 3 3 3 3 3 3 3 3 3 3 3 3 3 3 3 3 3 3 3 3 3 3 3 3 3 3 3 3 3 3 3 3 3 3 3 3 3 3 3 3 3 3 3 3 3 3 3 3 3 3 3 3 3 3 3 3 3 3 3 3 3 3 3 3 3 3 3 3 3 3 3 3 3 3 3 3 3 3 3 3 3 3 3 3 3 3 3 3 3 3 3 3 3 3 3 3 3 3 3 3 3 3 3 3 3 3 3 3 3 3 3 3 3 3 3 3 3 3 3 3 3 3 3 3 3 3 3 3 3 3 3 3 3 3 3 3 3 </vcount>
          <p>226 0 0 56 1 1 55 2 2 244 3 3 227 4 4 34 5 5 228 6 6 45 7 7 44 8 8 246 9 9 229 10 10 54 11 11 230 12 12 43 13 13 42 14 14 231 15 15 63 16 16 62 17 17 249 18 18 232 19 19 52 20 20 250 21 21 233 22 22 41 23 23 234 24 24 61 25 25 60 26 26 252 27 27 235 28 28 50 29 29 253 30 30 236 31 31 39 32 32 237 33 33 59 34 34 58 35 35 255 36 36 238 37 37 37 38 38 239 39 39 48 40 40 47 41 41 226 0 42 240 42 43 57 43 44 227 4 45 241 44 46 35 45 47 242 46 48 46 47 49 45 7 50 243 48 51 55 2 52 54 11 53 244 3 54 33 49 55 32 50 56 245 51 57 44 8 58 43 13 59 257 52 60 32 50 61 63 16 62 232 19 63 246 9 64 53 53 65 247 54 66 42 14 67 41 23 68 248 55 69 62 17 70 61 25 71 235 28 72 249 18 73 51 56 74 250 21 75 40 57 76 39 32 77 251 58 78 60 26 79 59 34 80 239 39 81 252 27 82 49 59 83 238 37 84 253 30 85 38 60 86 240 42 87 254 61 88 58 35 89 241 44 90 255 36 91 36 62 92 256 63 93 47 41 94 46 47 95 57 43 96 58 35 97 64 64 98 35 45 99 36 62 100 64 64 101 46 47 102 47 41 103 64 64 104 55 2 105 56 1 106 64 64 107 33 49 108 34 5 109 64 64 110 44 8 111 45 7 112 64 64 113 53 53 114 54 11 115 64 64 116 42 14 117 43 13 118 64 64 119 62 17 120 63 16 121 64 64 122 51 56 123 52 20 124 64 64 125 40 57 126 41 23 127 64 64 128 60 26 129 61 25 130 64 64 131 49 59 132 50 29 133 64 64 134 38 60 135 39 32 136 64 64 137 58 35 138 59 34 139 64 64 140 36 62 141 37 38 142 64 64 143 47 41 144 48 40 145 64 64 146 56 1 147 57 43 148 64 64 149 34 5 150 35 45 151 64 64 152 45 7 153 46 47 154 64 64 155 54 11 156 55 2 157 64 64 158 32 50 159 33 49 160 64 64 161 43 13 162 44 8 163 64 64 164 63 16 165 32 50 166 64 64 167 52 20 168 53 53 169 64 64 170 41 23 171 42 14 172 64 64 173 61 25 174 62 17 175 64 64 176 50 29 177 51 56 178 64 64 179 39 32 180 40 57 181 64 64 182 59 34 183 60 26 184 64 64 185 48 40 186 49 59 187 64 64 188 37 38 189 38 60 190 64 64 191 118 65 192 150 66 193 151 67 194 108 68 195 107 69 196 139 70 197 128 71 198 127 72 199 159 73 200 116 74 201 148 75 202 149 76 203 106 77 204 105 78 205 137 79 206 126 80 207 125 81 208 157 82 209 114 83 210 146 84 211 147 85 212 104 86 213 103 87 214 135 88 215 124 89 216 123 90 217 155 91 218 101 92 219 133 93 220 134 94 221 113 95 222 112 96 223 144 97 224 122 98 225 121 99 226 153 100 227 99 101 228 131 102 229 132 103 230 111 104 231 110 105 232 142 106 233 120 107 234 119 108 235 151 67 236 97 109 237 129 110 238 130 111 239 109 112 240 108 68 241 140 113 242 97 109 243 128 71 244 160 114 245 117 115 246 149 76 247 150 66 248 106 77 249 138 116 250 139 70 251 127 72 252 126 80 253 158 117 254 115 118 255 147 85 256 148 75 257 105 78 258 104 86 259 136 119 260 125 81 261 124 89 262 156 120 263 113 95 264 145 121 265 146 84 266 102 122 267 134 94 268 135 88 269 123 90 270 122 98 271 154 123 272 100 124 273 132 103 274 133 93 275 112 96 276 111 104 277 143 125 278 120 107 279 152 126 280 153 100 281 98 127 282 130 111 283 131 102 284 110 105 285 109 112 286 141 128 287 94 129 288 192 130 289 193 131 290 93 132 291 92 133 292 191 134 293 90 135 294 190 136 295 163 137 296 88 138 297 189 139 298 164 140 299 86 141 300 188 142 301 165 143 302 84 144 303 187 145 304 166 146 305 83 147 306 82 148 307 186 149 308 81 150 309 80 151 310 185 152 311 78 153 312 184 154 313 169 155 314 77 156 315 76 157 316 183 158 317 74 159 318 182 160 319 171 161 320 73 162 321 72 163 322 181 164 323 71 165 324 70 166 325 180 167 326 68 168 327 179 169 328 174 170 329 67 171 330 178 172 331 192 130 332 92 133 333 66 173 334 177 174 335 65 175 336 176 176 337 190 136 338 95 177 339 193 131 340 189 139 341 96 178 342 93 132 343 162 179 344 91 180 345 163 137 346 188 142 347 96 178 348 175 181 349 187 145 350 82 148 351 89 182 352 164 140 353 80 151 354 87 183 355 165 143 356 85 184 357 166 146 358 184 154 359 76 157 360 83 147 361 167 185 362 81 150 363 168 186 364 182 160 365 72 163 366 79 187 367 169 155 368 68 168 369 77 156 370 170 188 371 70 166 372 75 189 373 171 161 374 67 171 375 73 162 376 172 190 377 66 173 378 71 165 379 173 191 380 69 192 381 174 170 382 176 176 383 153 100 384 152 126 385 161 193 386 131 102 387 130 111 388 161 193 389 142 106 390 141 128 391 161 193 392 151 67 393 150 66 394 161 193 395 140 113 396 139 70 397 161 193 398 160 114 399 159 73 400 161 193 401 149 76 402 148 75 403 161 193 404 138 116 405 137 79 406 161 193 407 158 117 408 157 82 409 161 193 410 147 85 411 146 84 412 161 193 413 136 119 414 135 88 415 161 193 416 156 120 417 155 91 418 161 193 419 134 94 420 133 93 421 161 193 422 145 121 423 144 97 424 161 193 425 154 123 426 153 100 427 161 193 428 132 103 429 131 102 430 161 193 431 143 125 432 142 106 433 161 193 434 152 126 435 151 67 436 161 193 437 130 111 438 129 110 439 161 193 440 141 128 441 140 113 442 161 193 443 129 110 444 160 114 445 161 193 446 150 66 447 149 76 448 161 193 449 139 70 450 138 116 451 161 193 452 159 73 453 158 117 454 161 193 455 148 75 456 147 85 457 161 193 458 137 79 459 136 119 460 161 193 461 157 82 462 156 120 463 161 193 464 146 84 465 145 121 466 161 193 467 135 88 468 134 94 469 161 193 470 155 91 471 154 123 472 161 193 473 133 93 474 132 103 475 161 193 476 144 97 477 143 125 478 161 193 479 174 170 480 224 194 481 210 195 482 177 174 483 173 191 484 223 196 485 178 172 486 172 190 487 222 197 488 180 167 489 171 161 490 221 198 491 179 169 492 170 188 493 220 199 494 169 155 495 219 200 496 205 201 497 168 186 498 218 202 499 204 203 500 183 158 501 167 185 502 217 204 503 166 146 504 216 205 505 202 206 506 185 152 507 165 143 508 215 207 509 186 149 510 164 140 511 214 208 512 175 181 513 225 209 514 199 210 515 163 137 516 213 211 517 198 212 518 162 179 519 212 213 520 225 209 521 193 131 522 211 214 523 197 215 524 176 176 525 210 195 526 196 216 527 191 134 528 177 174 529 209 217 530 192 130 531 178 172 532 208 218 533 179 169 534 207 219 535 224 194 536 173 191 537 180 167 538 206 220 539 181 164 540 205 201 541 222 197 542 182 160 543 204 203 544 221 198 545 170 188 546 183 158 547 203 221 548 184 154 549 202 206 550 219 200 551 168 186 552 185 152 553 201 222 554 167 185 555 186 149 556 200 223 557 187 145 558 199 210 559 216 205 560 188 142 561 198 212 562 215 207 563 164 140 564 189 139 565 197 215 566 190 136 567 196 216 568 213 211 569 162 179 570 191 134 571 195 224 572 192 130 573 194 225 574 211 214 575 224 194 576 256 63 577 242 46 578 209 226 579 223 226 580 255 226 581 208 218 582 222 197 583 254 61 584 206 227 585 221 227 586 253 227 587 207 219 588 220 199 589 252 27 590 219 228 591 251 228 592 237 228 593 218 229 594 250 229 595 236 229 596 203 221 597 217 204 598 249 18 599 216 230 600 248 230 601 234 230 602 201 222 603 215 207 604 247 54 605 200 223 606 214 208 607 246 9 608 225 209 609 257 52 610 231 15 611 213 211 612 245 51 613 230 12 614 212 213 615 244 3 616 257 52 617 211 214 618 243 48 619 229 10 620 210 195 621 242 46 622 228 6 623 195 231 624 209 231 625 241 231 626 194 225 627 208 218 628 240 42 629 207 219 630 239 39 631 256 63 632 223 232 633 206 232 634 238 232 635 205 233 636 237 233 637 254 233 638 204 203 639 236 31 640 253 30 641 220 199 642 203 221 643 235 28 644 202 234 645 234 234 646 251 234 647 218 202 648 201 222 649 233 22 650 217 204 651 200 223 652 232 19 653 199 235 654 231 235 655 248 235 656 198 212 657 230 12 658 247 54 659 214 208 660 197 215 661 229 10 662 196 216 663 228 6 664 245 51 665 212 213 666 195 224 667 227 4 668 194 225 669 226 0 670 243 48 671 243 48 672 226 0 673 55 2 674 33 49 675 244 3 676 34 5 677 245 51 678 228 6 679 44 8 680 53 53 681 246 9 682 54 11 683 247 54 684 230 12 685 42 14 686 248 55 687 231 15 688 62 17 689 51 56 690 249 18 691 52 20 692 40 57 693 250 21 694 41 23 695 251 58 696 234 24 697 60 26 698 49 59 699 252 27 700 50 29 701 38 60 702 253 30 703 39 32 704 254 61 705 237 33 706 58 35 707 36 62 708 255 36 709 37 38 710 256 63 711 239 39 712 47 41 713 56 1 714 226 0 715 57 43 716 34 5 717 227 4 718 35 45 719 228 6 720 242 46 721 45 7 722 229 10 723 243 48 724 54 11 725 257 52 726 244 3 727 32 50 728 230 12 729 245 51 730 43 13 731 231 15 732 257 52 733 63 16 734 52 20 735 232 19 736 53 53 737 233 22 738 247 54 739 41 23 740 234 24 741 248 55 742 61 25 743 50 29 744 235 28 745 51 56 746 236 31 747 250 21 748 39 32 749 237 33 750 251 58 751 59 34 752 48 40 753 239 39 754 49 59 755 37 38 756 238 37 757 38 60 758 57 43 759 240 42 760 58 35 761 35 45 762 241 44 763 36 62 764 242 46 765 256 63 766 46 47 767 119 108 768 118 65 769 151 67 770 140 113 771 108 68 772 139 70 773 160 114 774 128 71 775 159 73 776 117 115 777 116 74 778 149 76 779 138 116 780 106 77 781 137 79 782 158 117 783 126 80 784 157 82 785 115 118 786 114 83 787 147 85 788 136 119 789 104 86 790 135 88 791 156 120 792 124 89 793 155 91 794 102 122 795 101 92 796 134 94 797 145 121 798 113 95 799 144 97 800 154 123 801 122 98 802 153 100 803 100 124 804 99 101 805 132 103 806 143 125 807 111 104 808 142 106 809 152 126 810 120 107 811 151 67 812 98 127 813 97 109 814 130 111 815 141 128 816 109 112 817 140 113 818 129 110 819 97 109 820 160 114 821 118 65 822 117 115 823 150 66 824 107 69 825 106 77 826 139 70 827 159 73 828 127 72 829 158 117 830 116 74 831 115 118 832 148 75 833 137 79 834 105 78 835 136 119 836 157 82 837 125 81 838 156 120 839 114 83 840 113 95 841 146 84 842 103 87 843 102 122 844 135 88 845 155 91 846 123 90 847 154 123 848 101 92 849 100 124 850 133 93 851 144 97 852 112 96 853 143 125 854 121 99 855 120 107 856 153 100 857 99 101 858 98 127 859 131 102 860 142 106 861 110 105 862 141 128 863 95 177 864 94 129 865 193 131 866 162 179 867 93 132 868 191 134 869 91 180 870 90 135 871 163 137 872 89 182 873 88 138 874 164 140 875 87 183 876 86 141 877 165 143 878 85 184 879 84 144 880 166 146 881 167 185 882 83 147 883 186 149 884 168 186 885 81 150 886 185 152 887 79 187 888 78 153 889 169 155 890 170 188 891 77 156 892 183 158 893 75 189 894 74 159 895 171 161 896 172 190 897 73 162 898 181 164 899 173 191 900 71 165 901 180 167 902 69 192 903 68 168 904 174 170 905 94 129 906 67 171 907 192 130 908 191 134 909 92 133 910 177 174 911 90 135 912 65 175 913 190 136 914 88 138 915 95 177 916 189 139 917 175 181 918 96 178 919 162 179 920 86 141 921 91 180 922 188 142 923 84 144 924 96 178 925 187 145 926 186 149 927 82 148 928 164 140 929 185 152 930 80 151 931 165 143 932 78 153 933 85 184 934 184 154 935 183 158 936 76 157 937 167 185 938 74 159 939 81 150 940 182 160 941 181 164 942 72 163 943 169 155 944 179 169 945 68 168 946 170 188 947 180 167 948 70 166 949 171 161 950 178 172 951 67 171 952 172 190 953 177 174 954 66 173 955 173 191 956 65 175 957 69 192 958 176 176 959 176 176 960 174 170 961 210 195 962 209 217 963 177 174 964 223 196 965 208 218 966 178 172 967 222 197 968 206 220 969 180 167 970 221 198 971 207 219 972 179 169 973 220 199 974 181 164 975 169 155 976 205 201 977 182 160 978 168 186 979 204 203 980 203 221 981 183 158 982 217 204 983 184 154 984 166 146 985 202 206 986 201 222 987 185 152 988 215 207 989 200 223 990 186 149 991 214 208 992 187 145 993 175 181 994 199 210 995 188 142 996 163 137 997 198 212 998 175 181 999 162 179 1000 225 209 1001 189 139 1002 193 131 1003 197 215 1004 190 136 1005 176 176 1006 196 216 1007 195 224 1008 191 134 1009 209 217 1010 194 225 1011 192 130 1012 208 218 1013 174 170 1014 179 169 1015 224 194 1016 223 196 1017 173 191 1018 206 220 1019 172 190 1020 181 164 1021 222 197 1022 171 161 1023 182 160 1024 221 198 1025 220 199 1026 170 188 1027 203 221 1028 169 155 1029 184 154 1030 219 200 1031 218 202 1032 168 186 1033 201 222 1034 217 204 1035 167 185 1036 200 223 1037 166 146 1038 187 145 1039 216 205 1040 165 143 1041 188 142 1042 215 207 1043 214 208 1044 164 140 1045 197 215 1046 163 137 1047 190 136 1048 213 211 1049 212 213 1050 162 179 1051 195 224 1052 193 131 1053 192 130 1054 211 214 1055 210 195 1056 224 194 1057 242 46 1058 241 236 1059 209 236 1060 255 236 1061 240 42 1062 208 218 1063 254 61 1064 238 237 1065 206 237 1066 253 237 1067 239 39 1068 207 219 1069 252 27 1070 205 201 1071 219 200 1072 237 33 1073 204 238 1074 218 238 1075 236 238 1076 235 28 1077 203 221 1078 249 18 1079 202 239 1080 216 239 1081 234 239 1082 233 22 1083 201 222 1084 247 54 1085 232 19 1086 200 223 1087 246 9 1088 199 210 1089 225 209 1090 231 15 1091 198 212 1092 213 211 1093 230 12 1094 225 209 1095 212 213 1096 257 52 1097 197 215 1098 211 214 1099 229 10 1100 196 216 1101 210 195 1102 228 6 1103 227 240 1104 195 240 1105 241 240 1106 226 0 1107 194 225 1108 240 42 1109 224 194 1110 207 219 1111 256 63 1112 255 241 1113 223 241 1114 238 241 1115 222 242 1116 205 242 1117 254 242 1118 221 243 1119 204 243 1120 253 243 1121 252 27 1122 220 199 1123 235 28 1124 219 244 1125 202 244 1126 251 244 1127 250 21 1128 218 202 1129 233 22 1130 249 18 1131 217 204 1132 232 19 1133 216 205 1134 199 210 1135 248 55 1136 215 207 1137 198 212 1138 247 54 1139 246 9 1140 214 208 1141 229 10 1142 213 211 1143 196 216 1144 245 51 1145 244 3 1146 212 213 1147 227 4 1148 211 214 1149 194 225 1150 243 48 1151 24 245 1152 94 129 1153 95 177 1154 1 246 1155 2 247 1156 92 133 1157 13 248 1158 90 135 1159 91 180 1160 22 249 1161 88 138 1162 89 182 1163 10 250 1164 11 251 1165 86 141 1166 31 252 1167 84 144 1168 85 184 1169 19 253 1170 20 254 1171 82 148 1172 8 255 1173 9 256 1174 80 151 1175 28 257 1176 29 258 1177 78 153 1178 17 259 1179 18 260 1180 76 157 1181 7 261 1182 74 159 1183 75 189 1184 26 262 1185 27 263 1186 72 163 1187 4 264 1188 5 265 1189 70 166 1190 16 266 1191 68 168 1192 69 192 1193 25 267 1194 67 171 1195 94 129 1196 2 247 1197 3 268 1198 66 173 1199 14 269 1200 65 175 1201 90 135 1202 23 270 1203 95 177 1204 88 138 1205 0 271 1206 1 246 1207 93 132 1208 12 272 1209 91 180 1210 86 141 1211 0 271 1212 96 178 1213 84 144 1214 21 273 1215 89 182 1216 82 148 1217 9 256 1218 10 250 1219 87 183 1220 29 258 1221 30 274 1222 85 184 1223 18 260 1224 19 253 1225 83 147 1226 7 261 1227 8 255 1228 81 150 1229 27 263 1230 28 257 1231 79 187 1232 16 266 1233 17 259 1234 77 156 1235 6 275 1236 75 189 1237 70 166 1238 25 267 1239 26 262 1240 73 162 1241 3 268 1242 4 264 1243 71 165 1244 15 276 1245 69 192 1246 65 175 1247 31 252 1248 30 274 1249 127 72 1250 19 253 1251 116 74 1252 117 115 1253 9 256 1254 8 255 1255 105 78 1256 29 258 1257 28 257 1258 125 81 1259 17 259 1260 114 83 1261 115 118 1262 6 275 1263 103 87 1264 104 86 1265 27 263 1266 26 262 1267 123 90 1268 4 264 1269 101 92 1270 102 122 1271 15 276 1272 112 96 1273 113 95 1274 24 245 1275 121 99 1276 122 98 1277 3 268 1278 2 247 1279 99 101 1280 13 248 1281 110 105 1282 111 104 1283 22 249 1284 119 108 1285 120 107 1286 1 246 1287 0 271 1288 97 109 1289 12 272 1290 11 251 1291 108 68 1292 0 271 1293 31 252 1294 128 71 1295 20 254 1296 117 115 1297 118 65 1298 10 250 1299 9 256 1300 106 77 1301 30 274 1302 29 258 1303 126 80 1304 19 253 1305 18 260 1306 115 118 1307 8 255 1308 7 261 1309 104 86 1310 28 257 1311 27 263 1312 124 89 1313 16 266 1314 113 95 1315 114 83 1316 5 265 1317 102 122 1318 103 87 1319 26 262 1320 25 267 1321 122 98 1322 4 264 1323 3 268 1324 100 124 1325 14 269 1326 111 104 1327 112 96 1328 23 270 1329 120 107 1330 121 99 1331 2 247 1332 1 246 1333 98 127 1334 12 272 1335 109 112 1336 110 105 1337 21 273 1338 118 65 1339 119 108 1340 11 251 1341 10 250 1342 107 69 1343 23 270 1344 24 245 1345 95 177 1346 93 132 1347 1 246 1348 92 133 1349 12 272 1350 13 248 1351 91 180 1352 21 273 1353 22 249 1354 89 182 1355 87 183 1356 10 250 1357 86 141 1358 30 274 1359 31 252 1360 85 184 1361 83 147 1362 19 253 1363 82 148 1364 81 150 1365 8 255 1366 80 151 1367 79 187 1368 28 257 1369 78 153 1370 77 156 1371 17 259 1372 76 157 1373 6 275 1374 7 261 1375 75 189 1376 73 162 1377 26 262 1378 72 163 1379 71 165 1380 4 264 1381 70 166 1382 15 276 1383 16 266 1384 69 192 1385 24 245 1386 25 267 1387 94 129 1388 92 133 1389 2 247 1390 66 173 1391 13 248 1392 14 269 1393 90 135 1394 22 249 1395 23 270 1396 88 138 1397 96 178 1398 0 271 1399 93 132 1400 11 251 1401 12 272 1402 86 141 1403 31 252 1404 0 271 1405 84 144 1406 20 254 1407 21 273 1408 82 148 1409 80 151 1410 9 256 1411 87 183 1412 78 153 1413 29 258 1414 85 184 1415 76 157 1416 18 260 1417 83 147 1418 74 159 1419 7 261 1420 81 150 1421 72 163 1422 27 263 1423 79 187 1424 68 168 1425 16 266 1426 77 156 1427 5 265 1428 6 275 1429 70 166 1430 67 171 1431 25 267 1432 73 162 1433 66 173 1434 3 268 1435 71 165 1436 14 269 1437 15 276 1438 65 175 1439 128 71 1440 31 252 1441 127 72 1442 20 254 1443 19 253 1444 117 115 1445 106 77 1446 9 256 1447 105 78 1448 126 80 1449 29 258 1450 125 81 1451 18 260 1452 17 259 1453 115 118 1454 7 261 1455 6 275 1456 104 86 1457 124 89 1458 27 263 1459 123 90 1460 5 265 1461 4 264 1462 102 122 1463 16 266 1464 15 276 1465 113 95 1466 25 267 1467 24 245 1468 122 98 1469 100 124 1470 3 268 1471 99 101 1472 14 269 1473 13 248 1474 111 104 1475 23 270 1476 22 249 1477 120 107 1478 98 127 1479 1 246 1480 97 109 1481 109 112 1482 12 272 1483 108 68 1484 97 109 1485 0 271 1486 128 71 1487 21 273 1488 20 254 1489 118 65 1490 107 69 1491 10 250 1492 106 77 1493 127 72 1494 30 274 1495 126 80 1496 116 74 1497 19 253 1498 115 118 1499 105 78 1500 8 255 1501 104 86 1502 125 81 1503 28 257 1504 124 89 1505 17 259 1506 16 266 1507 114 83 1508 6 275 1509 5 265 1510 103 87 1511 123 90 1512 26 262 1513 122 98 1514 101 92 1515 4 264 1516 100 124 1517 15 276 1518 14 269 1519 112 96 1520 24 245 1521 23 270 1522 121 99 1523 99 101 1524 2 247 1525 98 127 1526 13 248 1527 12 272 1528 110 105 1529 22 249 1530 21 273 1531 119 108 1532 108 68 1533 11 251 1534 107 69 1535</p>
        </polylist>
      </mesh>
    </geometry>
  </library_geometries>
  <library_controllers/>
  <library_visual_scenes>
    <visual_scene id="Scene" name="Scene">
      <node id="Circle" name="Circle" type="NODE">
        <matrix sid="transform">1 0 0 0 0 1 0 0 0 0 1 0 0 0 0 1</matrix>
        <instance_geometry url="#Circle-mesh">
          <bind_material>
            <technique_common>
              <instance_material symbol="Material_001-material" target="#Material_001-material">
                <bind_vertex_input semantic="Circle-mesh-map-0" input_semantic="TEXCOORD" input_set="0"/>
              </instance_material>
            </technique_common>
          </bind_material>
        </instance_geometry>
      </node>
    </visual_scene>
  </library_visual_scenes>
  <scene>
    <instance_visual_scene url="#Scene"/>
  </scene>
</COLLADA>