<?xml version="1.0" encoding="utf-8"?>
<COLLADA xmlns="http://www.collada.org/2005/11/COLLADASchema" version="1.4.1">
  <asset>
    <contributor>
      <author>Blender User</author>
      <authoring_tool>Blender 2.75.0 commit date:2015-07-01, commit time:12:00, hash:c6b042b</authoring_tool>
    </contributor>
    <created>2015-09-24T16:02:36</created>
    <modified>2015-09-24T16:02:36</modified>
    <unit name="meter" meter="1"/>
    <up_axis>Z_UP</up_axis>
  </asset>
  <library_images/>
  <library_geometries>
    <geometry id="Cylinder_001-mesh" name="Cylinder.001">
      <mesh>
        <source id="Cylinder_001-mesh-positions">
          <float_array id="Cylinder_001-mesh-positions-array" count="480">0 1 0.006152808 0 1 1.294074 0.1950902 0.9807853 0.006152808 0.1950902 0.9807853 1.294074 0.3826835 0.9238795 0.006152808 0.3826835 0.9238795 1.294074 0.5555703 0.8314696 0.006152808 0.5555703 0.8314696 1.294074 0.7071068 0.7071068 0.006152808 0.7071068 0.7071068 1.294074 0.8314697 0.5555702 0.006152808 0.8314697 0.5555702 1.294074 0.9238795 0.3826834 0.006152808 0.9238795 0.3826834 1.294074 0.9807853 0.1950902 0.006152808 0.9807853 0.1950902 1.294074 1 0 0.006152808 1 0 1.294074 0.9807853 -0.1950902 0.006152808 0.9807853 -0.1950902 1.294074 0.9238796 -0.3826833 0.006152808 0.9238796 -0.3826833 1.294074 0.8314697 -0.5555702 0.006152808 0.8314697 -0.5555702 1.294074 0.7071068 -0.7071068 0.006152808 0.7071068 -0.7071068 1.294074 0.5555702 -0.8314697 0.006152808 0.5555702 -0.8314697 1.294074 0.3826833 -0.9238796 0.006152808 0.3826833 -0.9238796 1.294074 0.1950901 -0.9807853 0.006152808 0.1950901 -0.9807853 1.294074 -3.25841e-7 -1 0.006152808 -3.25841e-7 -1 1.294074 -0.1950907 -0.9807852 0.006152808 -0.1950907 -0.9807852 1.294074 -0.3826839 -0.9238793 0.006152808 -0.3826839 -0.9238793 1.294074 -0.5555707 -0.8314693 0.006152808 -0.5555707 -0.8314693 1.294074 -0.7071073 -0.7071064 0.006152808 -0.7071073 -0.7071064 1.294074 -0.83147 -0.5555697 0.006152808 -0.83147 -0.5555697 1.294074 -0.9238799 -0.3826827 0.006152808 -0.9238799 -0.3826827 1.294074 -0.9807854 -0.1950893 0.006152808 -0.9807854 -0.1950893 1.294074 -1 9.71208e-7 0.006152808 -1 9.71208e-7 1.294074 -0.9807851 0.1950913 0.006152808 -0.9807851 0.1950913 1.294074 -0.9238791 0.3826845 0.006152808 -0.9238791 0.3826845 1.294074 -0.8314689 0.5555713 0.006152808 -0.8314689 0.5555713 1.294074 -0.7071059 0.7071077 0.006152808 -0.7071059 0.7071077 1.294074 -0.5555691 0.8314704 0.006152808 -0.5555691 0.8314704 1.294074 -0.3826821 0.9238801 0.006152808 -0.3826821 0.9238801 1.294074 -0.1950888 0.9807856 0.006152808 -0.1950888 0.9807856 1.294074 0 1.190782 1.27364 0.2323099 1.167902 1.27364 0.4556927 1.100139 1.27364 0.6615633 0.9900992 1.27364 0.8420104 0.8420103 1.27364 0.9900996 0.6615632 1.27364 1.100139 0.4556926 1.27364 1.167902 0.2323099 1.27364 1.190782 0 1.27364 1.167902 -0.23231 1.27364 1.10014 -0.4556925 1.27364 0.9900996 -0.6615633 1.27364 0.8420104 -0.8420104 1.27364 0.6615632 -0.9900996 1.27364 0.4556925 -1.10014 1.27364 0.2323098 -1.167902 1.27364 -4.08239e-7 -1.190782 1.27364 -0.2323105 -1.167902 1.27364 -0.4556933 -1.100139 1.27364 -0.6615638 -0.9900991 1.27364 -0.8420109 -0.84201 1.27364 -0.9900998 -0.6615627 1.27364 -1.10014 -0.4556919 1.27364 -1.167902 -0.2323089 1.27364 -1.190782 1.10634e-6 1.27364 -1.167902 0.2323112 1.27364 -1.100139 0.4556939 1.27364 -0.9900985 0.6615644 1.27364 -0.8420093 0.8420113 1.27364 -0.661562 0.9901001 1.27364 -0.4556911 1.10014 1.27364 -0.2323083 1.167902 1.27364 0 1.529701 1.27364 0.2984296 1.500308 1.27364 0.5853913 1.413259 1.27364 0.8498564 1.2719 1.27364 1.081662 1.081662 1.27364 1.2719 0.8498562 1.27364 1.413259 0.5853911 1.27364 1.500308 0.2984296 1.27364 1.529701 -1.43226e-7 1.27364 1.500308 -0.2984299 1.27364 1.413259 -0.5853912 1.27364 1.2719 -0.8498564 1.27364 1.081662 -1.081662 1.27364 0.8498563 -1.2719 1.27364 0.5853911 -1.41326 1.27364 0.2984294 -1.500309 1.27364 -5.70123e-7 -1.529701 1.27364 -0.2984305 -1.500308 1.27364 -0.5853921 -1.413259 1.27364 -0.8498572 -1.2719 1.27364 -1.081663 -1.081662 1.27364 -1.271901 -0.8498558 1.27364 -1.41326 -0.5853903 1.27364 -1.500309 -0.2984284 1.27364 -1.529701 1.33385e-6 1.27364 -1.500308 0.2984312 1.27364 -1.413259 0.5853927 1.27364 -1.271899 0.8498579 1.27364 -1.08166 1.081663 1.27364 -0.8498547 1.271901 1.27364 -0.5853893 1.41326 1.27364 -0.2984277 1.500308 1.27364 0 1.529701 1.65627 0.2984296 1.500308 1.65627 0.5853913 1.413259 1.65627 0.8498564 1.2719 1.65627 1.081662 1.081662 1.65627 1.2719 0.8498562 1.65627 1.413259 0.5853911 1.65627 1.500308 0.2984296 1.65627 1.529701 -1.43226e-7 1.65627 1.500308 -0.2984299 1.65627 1.413259 -0.5853912 1.65627 1.2719 -0.8498564 1.65627 1.081662 -1.081662 1.65627 0.8498563 -1.2719 1.65627 0.5853911 -1.41326 1.65627 0.2984294 -1.500309 1.65627 -5.70123e-7 -1.529701 1.65627 -0.2984305 -1.500308 1.65627 -0.5853921 -1.413259 1.65627 -0.8498572 -1.2719 1.65627 -1.081663 -1.081662 1.65627 -1.271901 -0.8498558 1.65627 -1.41326 -0.5853903 1.65627 -1.500309 -0.2984284 1.65627 -1.529701 1.33385e-6 1.65627 -1.500308 0.2984312 1.65627 -1.413259 0.5853927 1.65627 -1.271899 0.8498579 1.65627 -1.08166 1.081663 1.65627 -0.8498547 1.271901 1.65627 -0.5853893 1.41326 1.65627 -0.2984277 1.500308 1.65627</float_array>
          <technique_common>
            <accessor source="#Cylinder_001-mesh-positions-array" count="160" stride="3">
              <param name="X" type="float"/>
              <param name="Y" type="float"/>
              <param name="Z" type="float"/>
            </accessor>
          </technique_common>
        </source>
        <source id="Cylinder_001-mesh-normals">
          <float_array id="Cylinder_001-mesh-normals-array" count="390">0 0.6410546 -0.7674954 0.1250383 0.6287317 -0.7675037 0.1420046 0.7138987 -0.6856992 0.2453137 0.5922566 -0.7674981 0.2785453 0.6724823 -0.6856969 0.3561576 0.5330156 -0.7674936 0.4043767 0.6052222 -0.6857008 0.453298 0.453298 -0.7674906 0.5146825 0.5146825 -0.6857143 0.5330156 0.3561576 -0.7674936 0.6052222 0.4043767 -0.6857008 0.5922566 0.2453137 -0.7674981 0.6724823 0.2785453 -0.6856969 0.6287317 0.1250383 -0.7675037 0.7138987 0.1420046 -0.6856992 0.6410546 0 -0.7674954 0.727881 0 -0.6857035 0.6287317 -0.1250383 -0.7675037 0.7138987 -0.1420046 -0.6856992 0.5922566 -0.2453137 -0.7674981 0.6724823 -0.2785453 -0.6856969 0.5330156 -0.3561576 -0.7674936 0.6052222 -0.4043767 -0.6857008 0.453298 -0.453298 -0.7674906 0.5146825 -0.5146825 -0.6857143 0.3561576 -0.5330156 -0.7674936 0.4043767 -0.6052222 -0.6857008 0.2453137 -0.5922566 -0.7674981 0.2785453 -0.6724823 -0.6856969 0.1250383 -0.6287317 -0.7675037 0.1420046 -0.7138987 -0.6856992 0 -0.6410546 -0.7674954 0 -0.727881 -0.6857035 -0.1250383 -0.6287317 -0.7675037 -0.1420046 -0.7138987 -0.6856992 -0.2453137 -0.5922566 -0.7674981 -0.2785453 -0.6724823 -0.6856969 -0.3561576 -0.5330156 -0.7674936 -0.4043767 -0.6052222 -0.6857008 -0.453298 -0.453298 -0.7674906 -0.5147049 -0.5146744 -0.6857035 -0.5330156 -0.3561576 -0.7674936 -0.6052222 -0.4043767 -0.6857008 -0.5922566 -0.2453137 -0.7674981 -0.6724823 -0.2785453 -0.6856969 -0.6287317 -0.1250383 -0.7675037 -0.7138987 -0.1420046 -0.6856992 -0.6410546 0 -0.7674954 -0.727881 0 -0.6857035 -0.6287293 0.1250683 -0.7675008 -0.7138987 0.1420046 -0.6856992 -0.5922566 0.2453137 -0.7674981 -0.6724823 0.2785453 -0.6856969 -0.5330156 0.3561576 -0.7674936 -0.6052222 0.4043767 -0.6857008 -0.453298 0.453298 -0.7674906 -0.5146744 0.5147049 -0.6857035 -0.3561576 0.5330156 -0.7674936 -0.4043767 0.6052222 -0.6857008 -0.2453137 0.5922566 -0.7674981 -0.2785453 0.6724823 -0.6856969 -0.1250383 0.6287317 -0.7675037 0 0.727881 -0.6857035 -0.1420046 0.7138987 -0.6856992 -0.04901278 0.009735405 -0.9987508 0.04156625 -0.02777183 -0.9987498 0.03534048 -0.03534048 -0.9987503 -0.04617458 -0.01910459 -0.9987508 -0.04156625 -0.02777183 -0.9987498 0.03534048 0.03534048 -0.9987503 0.04156625 0.02777183 -0.9987498 0.04998934 0 -0.9987498 0.04901278 -0.009735405 -0.9987508 0.009735405 0.04901278 -0.9987508 -0.02777183 0.04156625 -0.9987498 -0.04156625 0.02777183 -0.9987498 -0.03534048 0.03534048 -0.9987503 0.04617458 -0.01910459 -0.9987508 0.01910459 0.04617458 -0.9987508 0.02777183 0.04156625 -0.9987498 -0.009735405 -0.04901278 -0.9987508 0.01910459 -0.04617458 -0.9987508 0.009735405 -0.04901278 -0.9987508 -0.01910459 0.04617458 -0.9987508 -0.009735405 0.04901278 -0.9987508 0.02777183 -0.04156625 -0.9987498 -0.02777183 -0.04156625 -0.9987498 0 0.04998934 -0.9987498 -0.03534048 -0.03534048 -0.9987503 -0.01910459 -0.04617458 -0.9987508 0.04901278 0.009735405 -0.9987508 -0.04998934 0 -0.9987498 -0.04617458 0.01910459 -0.9987508 0 -0.04998934 -0.9987498 -0.04901278 -0.009735405 -0.9987508 0.04617458 0.01910459 -0.9987508 -0.7139018 -0.1419746 -0.6857022 -0.5146825 -0.5146825 -0.6857143 0.6052222 -0.4043767 0.6857008 0.5147049 -0.5146744 0.6857035 -0.2785453 0.6724823 0.6856969 -0.1420046 0.7138987 0.6856992 -0.2785453 -0.6724823 0.6856969 -0.4043767 -0.6052222 0.6857008 -0.5146744 0.5147049 0.6857035 -0.4043767 0.6052222 0.6857008 0.5146825 0.5146825 0.6857143 0.6052222 0.4043767 0.6857008 0.6724823 0.2785453 0.6856969 0.1420046 -0.7138987 0.6856992 0 -0.727881 0.6857035 -0.727881 0 0.6857035 -0.7138987 0.1420046 0.6856992 0.4043767 -0.6052222 0.6857008 -0.5146825 -0.5146825 0.6857143 -0.6052222 -0.4043767 0.6857008 -0.6724823 -0.2785453 0.6856969 -0.7139018 -0.1419746 0.6857022 0 0.727881 0.6857035 0.1420046 0.7138987 0.6856992 0.2785453 -0.6724823 0.6856969 -0.6724823 0.2785453 0.6856969 -0.6052222 0.4043767 0.6857008 0.2785453 0.6724823 0.6856969 -0.1420046 -0.7138987 0.6856992 0.727881 0 0.6857035 0.7138987 -0.1420046 0.6856992 0.7138987 0.1420046 0.6856992 0.4043767 0.6052222 0.6857008 0.6724823 -0.2785453 0.6856969</float_array>
          <technique_common>
            <accessor source="#Cylinder_001-mesh-normals-array" count="130" stride="3">
              <param name="X" type="float"/>
              <param name="Y" type="float"/>
              <param name="Z" type="float"/>
            </accessor>
          </technique_common>
        </source>
        <vertices id="Cylinder_001-mesh-vertices">
          <input semantic="POSITION" source="#Cylinder_001-mesh-positions"/>
        </vertices>
        <polylist count="316">
          <input semantic="VERTEX" source="#Cylinder_001-mesh-vertices" offset="0"/>
          <input semantic="NORMAL" source="#Cylinder_001-mesh-normals" offset="1"/>
          <vcount>3 3 3 3 3 3 3 3 3 3 3 3 3 3 3 3 3 3 3 3 3 3 3 3 3 3 3 3 3 3 3 3 3 3 3 3 3 3 3 3 3 3 3 3 3 3 3 3 3 3 3 3 3 3 3 3 3 3 3 3 3 3 3 3 3 3 3 3 3 3 3 3 3 3 3 3 3 3 3 3 3 3 3 3 3 3 3 3 3 3 3 3 3 3 3 3 3 3 3 3 3 3 3 3 3 3 3 3 3 3 3 3 3 3 3 3 3 3 3 3 3 3 3 3 3 3 3 3 3 3 3 3 3 3 3 3 3 3 3 3 3 3 3 3 3 3 3 3 3 3 3 3 3 3 3 3 3 3 3 3 3 3 3 3 3 3 3 3 3 3 3 3 3 3 3 3 3 3 3 3 3 3 3 3 3 3 3 3 3 3 3 3 3 3 3 3 3 3 3 3 3 3 3 3 3 3 3 3 3 3 3 3 3 3 3 3 3 3 3 3 3 3 3 3 3 3 3 3 3 3 3 3 3 3 3 3 3 3 3 3 3 3 3 3 3 3 3 3 3 3 3 3 3 3 3 3 3 3 3 3 3 3 3 3 3 3 3 3 3 3 3 3 3 3 3 3 3 3 3 3 3 3 3 3 3 3 3 3 3 3 3 3 3 3 3 3 3 3 3 3 3 3 3 3 3 3 3 3 3 3 3 3 3 3 3 3 </vcount>
          <p>1 0 3 1 2 2 3 1 5 3 4 4 5 3 7 5 6 6 7 5 9 7 8 8 9 7 11 9 10 10 11 9 13 11 12 12 13 11 15 13 14 14 15 13 17 15 16 16 17 15 19 17 18 18 19 17 21 19 20 20 21 19 23 21 22 22 23 21 25 23 24 24 25 23 27 25 26 26 27 25 29 27 28 28 29 27 31 29 30 30 31 29 33 31 32 32 33 31 35 33 34 34 35 33 37 35 36 36 37 35 39 37 38 38 39 37 41 39 40 40 41 39 43 41 42 42 43 41 45 43 44 44 45 43 47 45 46 46 47 45 49 47 48 48 49 47 51 49 50 50 51 49 53 51 52 52 53 51 55 53 54 54 55 53 57 55 56 56 57 55 59 57 58 58 59 57 61 59 60 60 63 61 1 0 0 62 61 59 63 61 62 63 0 62 16 16 32 32 0 62 1 0 2 2 2 2 3 1 4 4 4 4 5 3 6 6 6 6 7 5 8 8 8 8 9 7 10 10 10 10 11 9 12 12 12 12 13 11 14 14 14 14 15 13 16 16 16 16 17 15 18 18 18 18 19 17 20 20 20 20 21 19 22 22 22 22 23 21 24 24 24 24 25 23 26 26 26 26 27 25 28 28 28 28 29 27 30 30 30 30 31 29 32 32 32 32 33 31 34 34 34 34 35 33 36 36 36 36 37 35 38 38 38 38 39 37 40 40 40 40 41 39 42 42 42 42 43 41 44 44 44 44 45 43 46 46 46 46 47 45 48 48 48 48 49 47 50 50 50 50 51 49 52 52 52 52 53 51 54 54 54 54 55 53 56 56 56 56 57 55 58 58 58 58 59 57 60 60 62 63 63 61 0 62 60 60 61 59 62 63 56 56 62 63 0 62 56 56 58 58 60 60 52 52 54 54 56 56 48 48 50 50 52 52 40 40 46 46 48 48 40 40 42 42 44 44 36 36 38 38 40 40 32 32 34 34 36 36 24 24 30 30 32 32 24 24 26 26 28 28 20 20 22 22 24 24 16 16 18 18 20 20 12 12 14 14 16 16 8 8 10 10 12 12 4 4 6 6 8 8 0 62 2 2 4 4 56 56 60 60 62 63 48 48 52 52 56 56 40 40 44 44 46 46 48 48 36 36 40 40 24 24 28 28 30 30 32 32 20 20 24 24 0 62 12 12 16 16 0 62 4 4 8 8 32 32 56 56 0 62 32 32 36 36 48 48 16 16 20 20 32 32 0 62 8 8 12 12 32 32 48 48 56 56 21 19 19 17 73 64 55 53 91 65 92 66 15 13 13 11 70 67 11 9 69 68 70 67 41 39 84 69 85 70 49 47 88 71 89 72 37 35 35 33 81 73 29 27 27 25 77 74 23 21 75 75 76 76 53 51 90 77 91 65 37 35 82 78 83 79 5 3 3 1 65 80 61 59 94 81 95 82 39 37 83 79 84 69 1 0 63 61 95 82 29 27 78 83 79 84 59 57 93 85 94 81 9 7 7 5 67 86 33 31 80 87 81 73 11 9 9 7 68 88 7 5 5 3 66 89 49 47 47 45 87 90 33 31 31 29 79 84 19 17 17 15 72 91 57 55 92 66 93 85 23 21 21 19 74 92 1 0 64 93 65 80 17 15 15 13 71 94 27 25 25 23 76 76 45 43 43 41 85 70 45 43 86 95 87 90 51 49 89 72 90 77 87 90 119 96 120 48 79 84 111 30 112 32 73 64 72 91 104 16 92 66 124 56 125 58 75 75 74 92 106 20 64 93 96 62 97 2 72 91 71 94 103 14 77 74 76 76 108 24 86 95 85 70 117 42 86 95 118 44 119 96 89 72 121 50 122 52 74 92 73 64 105 18 91 65 123 54 124 56 70 67 102 12 103 14 69 68 101 10 102 12 84 69 116 97 117 42 89 72 88 71 120 48 82 78 81 73 113 34 78 83 77 74 109 26 76 76 75 75 107 22 90 77 122 52 123 54 82 78 114 36 115 38 66 89 65 80 97 2 94 81 126 60 127 63 84 69 83 79 115 38 64 93 95 82 127 63 78 83 110 28 111 30 93 85 125 58 126 60 68 88 67 86 99 6 81 73 80 87 112 32 107 22 139 98 140 99 126 60 158 100 159 101 114 36 146 102 147 103 124 56 156 104 157 105 100 8 132 106 133 107 101 10 133 107 134 108 111 30 143 109 144 110 120 48 152 111 153 112 108 24 140 99 141 113 115 38 147 103 148 114 125 58 157 105 158 100 117 42 149 115 150 116 118 44 150 116 151 117 96 62 128 118 129 119 109 26 141 113 142 120 121 50 153 112 154 121 116 97 148 114 149 115 122 52 154 121 155 122 110 28 142 120 143 109 97 2 129 119 130 123 112 32 144 110 145 124 104 16 136 125 137 126 103 14 135 127 136 125 98 4 130 123 131 128 105 18 137 126 138 129 123 54 155 122 156 104 127 63 159 101 128 118 113 34 145 124 146 102 119 96 151 117 152 111 99 6 131 128 132 106 67 86 66 89 98 4 69 68 68 88 100 8 137 126 153 112 145 124 131 128 130 123 129 119 129 119 132 106 131 128 137 126 134 108 133 107 137 126 136 125 135 127 139 98 138 129 137 126 141 113 140 99 139 98 143 109 142 120 141 113 145 124 144 110 143 109 147 103 146 102 145 124 149 115 148 114 147 103 151 117 150 116 149 115 153 112 152 111 151 117 155 122 154 121 153 112 153 112 156 104 155 122 159 101 158 100 157 105 129 119 128 118 159 101 133 107 132 106 129 119 137 126 135 127 134 108 145 124 139 98 137 126 145 124 143 109 141 113 153 112 147 103 145 124 153 112 151 117 149 115 157 105 156 104 153 112 129 119 159 101 157 105 137 126 133 107 129 119 145 124 141 113 139 98 153 112 149 115 147 103 129 119 157 105 153 112 153 112 137 126 129 119 106 20 138 129 139 98 102 12 134 108 135 127 74 92 21 19 73 64 57 55 55 53 92 66 71 94 15 13 70 67 13 11 11 9 70 67 43 41 41 39 85 70 51 49 49 47 89 72 82 78 37 35 81 73 78 83 29 27 77 74 25 23 23 21 76 76 55 53 53 51 91 65 39 37 37 35 83 79 66 89 5 3 65 80 63 61 61 59 95 82 41 39 39 37 84 69 64 93 1 0 95 82 31 29 29 27 79 84 61 59 59 57 94 81 68 88 9 7 67 86 35 33 33 31 81 73 69 68 11 9 68 88 67 86 7 5 66 89 88 71 49 47 87 90 80 87 33 31 79 84 73 64 19 17 72 91 59 57 57 55 93 85 75 75 23 21 74 92 3 1 1 0 65 80 72 91 17 15 71 94 77 74 27 25 76 76 86 95 45 43 85 70 47 45 45 43 87 90 53 51 51 49 90 77 88 71 87 90 120 48 80 87 79 84 112 32 105 18 73 64 104 16 93 85 92 66 125 58 107 22 75 75 106 20 65 80 64 93 97 2 104 16 72 91 103 14 109 26 77 74 108 24 118 44 86 95 117 42 87 90 86 95 119 96 90 77 89 72 122 52 106 20 74 92 105 18 92 66 91 65 124 56 71 94 70 67 103 14 70 67 69 68 102 12 85 70 84 69 117 42 121 50 89 72 120 48 114 36 82 78 113 34 110 28 78 83 109 26 108 24 76 76 107 22 91 65 90 77 123 54 83 79 82 78 115 38 98 4 66 89 97 2 95 82 94 81 127 63 116 97 84 69 115 38 96 62 64 93 127 63 79 84 78 83 111 30 94 81 93 85 126 60 100 8 68 88 99 6 113 34 81 73 112 32 108 24 107 22 140 99 127 63 126 60 159 101 115 38 114 36 147 103 125 58 124 56 157 105 101 10 100 8 133 107 102 12 101 10 134 108 112 32 111 30 144 110 121 50 120 48 153 112 109 26 108 24 141 113 116 97 115 38 148 114 126 60 125 58 158 100 118 44 117 42 150 116 119 96 118 44 151 117 97 2 96 62 129 119 110 28 109 26 142 120 122 52 121 50 154 121 117 42 116 97 149 115 123 54 122 52 155 122 111 30 110 28 143 109 98 4 97 2 130 123 113 34 112 32 145 124 105 18 104 16 137 126 104 16 103 14 136 125 99 6 98 4 131 128 106 20 105 18 138 129 124 56 123 54 156 104 96 62 127 63 128 118 114 36 113 34 146 102 120 48 119 96 152 111 100 8 99 6 132 106 99 6 67 86 98 4 101 10 69 68 100 8 107 22 106 20 139 98 103 14 102 12 135 127</p>
        </polylist>
      </mesh>
    </geometry>
  </library_geometries>
  <library_controllers/>
  <library_visual_scenes>
    <visual_scene id="Scene" name="Scene">
      <node id="Cylinder_001" name="Cylinder_001" type="NODE">
        <matrix sid="transform">0.0261489 0 0 0 0 0.0261489 0 0 0 0 0.0242407 0 0 0 0 1</matrix>
        <instance_geometry url="#Cylinder_001-mesh" name="Cylinder_001"/>
      </node>
    </visual_scene>
  </library_visual_scenes>
  <scene>
    <instance_visual_scene url="#Scene"/>
  </scene>
</COLLADA>