<?xml version="1.0" encoding="utf-8"?>
<COLLADA xmlns="http://www.collada.org/2005/11/COLLADASchema" version="1.4.1">
  <asset>
    <contributor>
      <author>Blender User</author>
      <authoring_tool>Blender 2.73.0 commit date:2015-01-20, commit time:18:16, hash:bbf09d9</authoring_tool>
    </contributor>
    <created>2015-05-01T16:14:56</created>
    <modified>2015-05-01T16:14:56</modified>
    <unit name="meter" meter="1"/>
    <up_axis>Z_UP</up_axis>
  </asset>
  <library_images>
    <image id="champignon_png" name="champignon_png">
      <init_from>champignon.png</init_from>
    </image>
  </library_images>
  <library_effects>
    <effect id="Material-effect">
      <profile_COMMON>
        <newparam sid="champignon_png-surface">
          <surface type="2D">
            <init_from>champignon_png</init_from>
          </surface>
        </newparam>
        <newparam sid="champignon_png-sampler">
          <sampler2D>
            <source>champignon_png-surface</source>
          </sampler2D>
        </newparam>
        <technique sid="common">
          <phong>
            <emission>
              <color sid="emission">1 1 1 1</color>
            </emission>
            <ambient>
              <color sid="ambient">1 1 1 1</color>
            </ambient>
            <diffuse>
              <texture texture="champignon_png-sampler" texcoord="Sphere_005-mesh-map"/>
            </diffuse>
            <specular>
              <color sid="specular">0.5 0.5 0.5 1</color>
            </specular>
            <shininess>
              <float sid="shininess">50</float>
            </shininess>
            <index_of_refraction>
              <float sid="index_of_refraction">1</float>
            </index_of_refraction>
          </phong>
        </technique>
      </profile_COMMON>
    </effect>
  </library_effects>
  <library_materials>
    <material id="Material-material" name="Material">
      <instance_effect url="#Material-effect"/>
    </material>
  </library_materials>
  <library_geometries>
    <geometry id="Sphere_005-mesh" name="Sphere.005">
      <mesh>
        <source id="Sphere_005-mesh-positions">
          <float_array id="Sphere_005-mesh-positions-array" count="678">-0.02663379 -0.002713203 0.007380247 4.43812e-4 -0.002713203 0.007380247 -0.02611351 0.002569377 0.007380247 -0.02457273 0.007649004 0.007380247 -0.0220704 0.01233035 0.007380247 -0.01870304 0.01643365 0.007380247 -0.01459974 0.01980108 0.007380247 -0.009918391 0.02230334 0.007380247 -0.004838764 0.02384424 0.007380247 4.43812e-4 0.02436453 0.007380247 0.005726397 0.02384424 0.007380247 0.01080602 0.02230334 0.007380247 0.01548737 0.01980108 0.007380247 0.01959067 0.01643365 0.007380247 0.02295804 0.01233035 0.007380247 0.02546036 0.007648885 0.007380247 0.02700126 0.002569377 0.007380247 0.02752155 -0.002713203 0.007380247 0.02700126 -0.007995784 0.007380247 0.02546036 -0.01307541 0.007380247 0.02295804 -0.01775676 0.007380247 0.01959067 -0.02186006 0.007380247 0.01548737 -0.02522742 0.007380247 0.01080596 -0.02772969 0.007380247 0.005726397 -0.02927052 0.007380247 4.43812e-4 -0.02979081 0.007380247 -0.004838764 -0.02927052 0.007380247 -0.009918391 -0.02772969 0.007380247 -0.01459974 -0.02522742 0.007380247 -0.01870304 -0.02186006 0.007380247 -0.02207034 -0.01775676 0.007380247 -0.02457273 -0.01307541 0.007380247 -0.02611351 -0.007995784 0.007380247 -0.007278144 -0.01426988 0.007380247 -0.01869726 -0.03135985 0.007380247 -0.0273447 -0.04430156 0.008747279 -0.03492414 -0.05564522 0.0156064 -0.04114454 -0.06495475 0.02396428 -5.62884e-4 5.52166e-5 0.04191207 -0.004875183 -0.01555436 0.007380247 -0.01274079 -0.03454363 0.007380247 -0.01869726 -0.04892385 0.008747279 -0.02391815 -0.06152808 0.0156064 -0.02820283 -0.07187229 0.02396428 -0.002267718 -0.01634544 0.007380247 -0.006277561 -0.03650408 0.007380247 -0.009314179 -0.05177015 0.008747279 -0.01197582 -0.06515091 0.0156064 -0.01415997 -0.07613211 0.02396428 4.43812e-4 -0.01661247 0.007380247 4.43805e-4 -0.03716611 0.007380247 4.43809e-4 -0.05273127 0.008747279 4.43801e-4 -0.06637412 0.0156064 4.43798e-4 -0.07757055 0.02396428 0.00315541 -0.01634544 0.007380247 0.007165253 -0.03650408 0.007380247 0.01020181 -0.05177021 0.008747279 0.01286327 -0.06515091 0.0156064 0.0150476 -0.07613211 0.02396428 0.005762815 -0.01555436 0.007380247 0.01362836 -0.03454363 0.007380247 0.01958489 -0.04892385 0.008747279 0.02480578 -0.06152826 0.0156064 0.02909046 -0.07187235 0.02396428 0.008165836 -0.01426988 0.007380247 0.01958489 -0.03135985 0.007380247 0.02823233 -0.04430156 0.008747279 0.0358119 -0.05564522 0.0156064 0.0420323 -0.06495481 0.02396428 0.01027196 -0.01254147 0.007380247 0.02480578 -0.02707517 0.007380247 0.0358119 -0.03808116 0.008747279 0.04545885 -0.0477283 0.0156064 0.05337584 -0.05564522 0.02396428 0.01200062 -0.01043522 0.007380247 0.02909046 -0.02185428 0.007380247 0.0420323 -0.03050172 0.008747279 0.05337584 -0.03808116 0.0156064 0.06268537 -0.04430156 0.02396428 0.01328504 -0.008032202 0.007380247 0.03227412 -0.01589781 0.007380247 0.04665446 -0.02185428 0.008747279 0.05925869 -0.02707517 0.0156064 0.06960296 -0.03135985 0.02396428 0.01407599 -0.005424797 0.007380247 0.03423482 -0.00943464 0.007380247 0.04950076 -0.01247113 0.008747279 0.06288152 -0.01513284 0.0156064 0.07386279 -0.01731711 0.02396428 0.01434308 -0.002713203 0.007380247 0.03489685 -0.002713203 0.007380247 0.05046176 -0.002713203 0.008747279 0.06410473 -0.002713203 0.0156064 0.07530111 -0.002713203 0.02396428 0.01407599 -1.58947e-6 0.007380247 0.03423482 0.004008233 0.007380247 0.04950076 0.007044792 0.008747279 0.06288152 0.009706377 0.0156064 0.07386279 0.01189059 0.02396428 0.0132851 0.002605736 0.007380247 0.03227412 0.0104714 0.007380247 0.04665446 0.01642787 0.008747279 0.05925869 0.02164876 0.0156064 0.06960296 0.02593344 0.02396428 0.01200062 0.005008757 0.007380247 0.02909046 0.01642787 0.007380247 0.0420323 0.02507531 0.008747279 0.05337584 0.03265488 0.0156064 0.06268543 0.03887528 0.02396428 0.01027196 0.007115066 0.007380247 0.02480578 0.02164876 0.007380247 0.0358119 0.03265488 0.008747279 0.04545891 0.04230183 0.0156064 0.05337584 0.05021888 0.02396428 0.008165836 0.0088436 0.007380247 0.01958489 0.02593344 0.007380247 0.02823233 0.03887528 0.008747279 0.0358119 0.05021888 0.0156064 0.0420323 0.05952841 0.02396428 0.005762815 0.01012802 0.007380247 0.01362842 0.0291171 0.007380247 0.01958489 0.04349744 0.008747279 0.02480578 0.05610173 0.0156064 0.02909046 0.066446 0.02396428 0.00315541 0.01091897 0.007380247 0.007165253 0.0310778 0.007380247 0.01020181 0.0463438 0.008747279 0.01286327 0.05972445 0.0156064 0.0150476 0.07070577 0.02396428 4.43812e-4 0.01118606 0.007380247 4.43812e-4 0.03173983 0.007380247 4.43816e-4 0.04730474 0.008747279 4.43812e-4 0.06094759 0.0156064 4.43812e-4 0.07214415 0.02396428 -0.002267718 0.01091897 0.007380247 -0.006277561 0.0310778 0.007380247 -0.009314179 0.0463438 0.008747279 -0.01197582 0.05972445 0.0156064 -0.01415997 0.07070577 0.02396428 -0.004875183 0.01012802 0.007380247 -0.01274079 0.0291171 0.007380247 -0.01869726 0.04349744 0.008747279 -0.02391815 0.05610173 0.0156064 -0.02820283 0.066446 0.02396428 -0.007278144 0.0088436 0.007380247 -0.01869726 0.02593344 0.007380247 -0.0273447 0.03887528 0.008747279 -0.03492414 0.05021888 0.0156064 -0.04114454 0.05952841 0.02396428 -0.009384453 0.007115066 0.007380247 -0.02391815 0.02164876 0.007380247 -0.03492414 0.03265488 0.008747279 -0.04457128 0.04230183 0.0156064 -0.0524882 0.05021888 0.02396428 -0.01111286 0.005008757 0.007380247 -0.02820283 0.01642787 0.007380247 -0.04114454 0.02507531 0.008747279 -0.0524882 0.03265488 0.0156064 -0.06179767 0.03887528 0.02396428 -0.01239734 0.002605736 0.007380247 -0.03138667 0.0104714 0.007380247 -0.04576683 0.01642787 0.008747279 -0.05837112 0.02164876 0.0156064 -0.06871539 0.02593344 0.02396428 -0.01318842 -1.58947e-6 0.007380247 -0.03334707 0.004008233 0.007380247 -0.04861319 0.007044792 0.008747279 -0.06199377 0.009706377 0.0156064 -0.07297521 0.01189059 0.02396428 -0.01345545 -0.002713203 0.007380247 -0.03400909 -0.002713203 0.007380247 -0.04957413 -0.002713203 0.008747279 -0.06321716 -0.002713203 0.0156064 -0.07441353 -0.002713203 0.02396428 -0.05248814 -0.05564516 0.02396428 -0.04457128 -0.04772824 0.0156064 -0.03492414 -0.03808116 0.008747279 -0.02391815 -0.02707517 0.007380247 -0.009384453 -0.01254147 0.007380247 -0.06179761 -0.04430156 0.02396428 -0.0524882 -0.03808116 0.0156064 -0.04114454 -0.03050172 0.008747279 -0.02820283 -0.02185428 0.007380247 -0.01111286 -0.01043522 0.007380247 -0.06871533 -0.03135985 0.02396428 -0.05837106 -0.02707517 0.0156064 -0.04576683 -0.02185428 0.008747279 -0.03138661 -0.01589781 0.007380247 -0.01239734 -0.008032202 0.007380247 -0.07297515 -0.01731711 0.02396428 -0.06199377 -0.01513278 0.0156064 -0.04861313 -0.01247107 0.008747279 -0.03334707 -0.00943464 0.007380247 -0.01318842 -0.005424797 0.007380247 -0.08717811 -0.01717346 0.04463219 -0.0821526 -0.03374034 0.04463219 -0.07399171 -0.04900825 0.04463219 -0.06300896 -0.06239086 0.04463219 -0.04962641 -0.07337361 0.04463219 -0.03435844 -0.08153456 0.04463219 -0.01779156 -0.08656001 0.04463219 -5.62887e-4 -0.08825689 0.04463219 0.01666593 -0.08656001 0.04463219 0.03323256 -0.08153456 0.04463219 0.04850053 -0.07337361 0.04463219 0.06188321 -0.06239086 0.04463219 0.07286596 -0.04900825 0.04463219 0.08102691 -0.03374034 0.04463219 0.08605235 -0.01717352 0.04463219 0.08774924 5.52107e-5 0.04463219 0.08605235 0.01728403 0.04463219 0.08102691 0.03385066 0.04463219 0.07286596 0.04911869 0.04463219 0.06188321 0.06250131 0.04463219 0.04850059 0.07348406 0.04463219 0.03323256 0.08164501 0.04463219 0.01666593 0.08667045 0.04463219 -5.62887e-4 0.08836734 0.04463219 -0.01779156 0.08667045 0.04463219 -0.04962641 0.07348406 0.04463219 -0.03435844 0.08164501 0.04463219 -0.07399177 0.04911869 0.04463219 -0.06300902 0.06250131 0.04463219 -0.08717817 0.01728403 0.04463219 -0.08215266 0.03385066 0.04463219 -0.08887505 5.51986e-5 0.04463219</float_array>
          <technique_common>
            <accessor source="#Sphere_005-mesh-positions-array" count="226" stride="3">
              <param name="X" type="float"/>
              <param name="Y" type="float"/>
              <param name="Z" type="float"/>
            </accessor>
          </technique_common>
        </source>
        <source id="Sphere_005-mesh-normals">
          <float_array id="Sphere_005-mesh-normals-array" count="771">0 0 -1 0 0 -1 0 0 -1 0 0 -1 0 0 -1 0 0 -1 0 0 -1 0 0 -1 0 0 -1 0 0 -1 0 0 -1 0 0 -1 0 0 -1 0 0 -1 0 0 -1 0 0 -1 0 0 -1 0 0 -1 0 0 -1 0 0 -1 0 0 -1 0 0 -1 0 0 -1 0 0 -1 0 0 -1 0 0 -1 0 0 -1 0 0 -1 0 0 -1 0 0 -1 0 0 -1 0 0 -1 -0.04559463 -0.009063959 -0.9989013 -0.04651015 0 -0.9989013 0 0 -1 -0.7147435 -0.1455733 -0.6840419 -0.7228309 -0.003112852 -0.6909696 -0.5296182 0 -0.8482009 -0.6788843 -0.2849513 -0.6766564 -0.5194556 -0.1033051 -0.8482009 -0.4893032 -0.2026734 -0.8482009 -0.2785424 -0.05539107 -0.9588 -0.6159551 -0.4157537 -0.6691184 0 0 -0.9999695 -0.04297006 -0.01779228 -0.9989013 -0.4403821 -0.2942289 -0.8482009 -0.2623676 -0.1086764 -0.9588 -0.2361217 -0.1577807 -0.9588 -0.5277871 -0.532487 -0.6617023 -0.0386669 -0.02581864 -0.9989013 -0.2008118 -0.2008118 -0.9588 -0.03286838 -0.03286838 -0.9989013 0 0 -1 -0.02581864 -0.0386669 -0.9989013 -0.1577807 -0.2361217 -0.9588 -0.3744926 -0.3744926 -0.8482009 -0.4174016 -0.6300852 -0.6547746 -0.2888577 -0.7040925 -0.6486404 -0.2942289 -0.4403821 -0.8482009 0 0 -1 -0.01779228 -0.04297006 -0.9989013 -0.1086764 -0.2623676 -0.9588 -0.1473433 -0.75103 -0.6436049 -0.2026734 -0.4893032 -0.8482009 -0.05539107 -0.2785424 -0.9588 -0.1033051 -0.5194556 -0.8482009 0 -0.2840052 -0.9588 -0.009063959 -0.04559463 -0.9989013 0 0 -1 0 -0.5296182 -0.8482009 0.001312255 -0.7684255 -0.6399121 0 -0.04651015 -0.9989013 0 0 -1 0 0 -1 0.009063959 -0.04559463 -0.9989013 0.05539107 -0.2785424 -0.9588 0.1033051 -0.5194556 -0.8482009 0.2026734 -0.4893032 -0.8482009 0.2947173 -0.7119969 -0.637318 0.1508225 -0.7552721 -0.6377758 0.1086764 -0.2623676 -0.9588 0.4267708 -0.6404004 -0.6385388 0.01779228 -0.04297006 -0.9989013 0.1577807 -0.2361217 -0.9588 0.2942289 -0.4403821 -0.8482009 0.02581864 -0.0386669 -0.9989013 0.5413373 -0.5436567 -0.641377 0 0 -1 0.03286838 -0.03286838 -0.9989013 0.2008118 -0.2008118 -0.9588 0 0 -1 0.0386669 -0.02581864 -0.9989013 0.2361217 -0.1577807 -0.9588 0.3744926 -0.3744926 -0.8482009 0.6336253 -0.4260994 -0.6456801 0.700003 -0.2929472 -0.651265 0.4403821 -0.2942289 -0.8482009 0 0 -1 0.04297006 -0.01779228 -0.9989013 0.2623676 -0.1086764 -0.9588 0.7380902 -0.150029 -0.657796 0.4893032 -0.2026734 -0.8482009 0.04559463 -0.009063959 -0.9989013 0.2785424 -0.05539107 -0.9588 0.5194556 -0.1033051 -0.8482009 0.2840052 0 -0.9588 0 0 -1 0.5296182 0 -0.8482009 0.7468184 -0.00338751 -0.6649678 0.04651015 0 -0.9989013 0 0 -1 0.04559463 0.009063959 -0.9989013 0.2785424 0.05539107 -0.9588 0.5194556 0.1033051 -0.8482009 0.6787011 0.2773827 -0.6799829 0.7265236 0.1409345 -0.6724753 0.2623676 0.1086764 -0.9588 0.4893032 0.2026734 -0.8482009 0.6057924 0.4008606 -0.6872158 0.04297006 0.01779228 -0.9989013 0.2361217 0.1577807 -0.9588 0.4403821 0.2942289 -0.8482009 0.0386669 0.02581864 -0.9989013 0.3744926 0.3744926 -0.8482009 0.5112461 0.5070345 -0.6938993 0 0 -1 0.03286838 0.03286838 -0.9989013 0.2008118 0.2008118 -0.9588 0 0 -1 0.1577807 0.2361217 -0.9588 0.2942289 0.4403821 -0.8482009 0.398999 0.5924863 -0.6997894 0.2734153 0.654561 -0.7047945 0.02581864 0.0386669 -0.9989013 0.1086764 0.2623676 -0.9588 0.1391949 0.6915799 -0.7087008 0.2026734 0.4893032 -0.8482009 0.009063959 0.04559463 -0.9989013 0.05539107 0.2785424 -0.9588 0.1033051 0.5194556 -0.8482009 0 0.2840052 -0.9588 0 0 -1 0.01779228 0.04297006 -0.9989013 0 0.5296182 -0.8482009 0.001037597 0.7026582 -0.7115085 0 0.04651015 -0.9989013 0 0 -1 -0.009063959 0.04559463 -0.9989013 -0.05539107 0.2785424 -0.9588 -0.1033051 0.5194556 -0.8482009 -0.2026734 0.4893032 -0.8482009 -0.2682577 0.6473281 -0.7134312 -0.1362956 0.6876736 -0.713065 -0.1086764 0.2623676 -0.9588 -0.3903928 0.5829645 -0.7125157 -0.01779228 0.04297006 -0.9989013 -0.2008118 0.2008118 -0.9588 -0.1577807 0.2361217 -0.9588 -0.02581864 0.0386669 -0.9989013 -0.3744926 0.3744926 -0.8482009 -0.2942289 0.4403821 -0.8482009 -0.4985198 0.4967193 -0.7104099 -0.03286838 0.03286838 -0.9989013 0 0 -0.9999695 -0.0386669 0.02581864 -0.9989013 -0.2361217 0.1577807 -0.9588 -0.4403821 0.2942289 -0.8482009 -0.5889462 0.3913083 -0.7070834 0 0 -1 -0.2623676 0.1086764 -0.9588 -0.4893032 0.2026734 -0.8482009 -0.6582232 0.2700888 -0.7026887 -0.04297006 0.01779228 -0.9989013 -0.04559463 0.009063959 -0.9989013 -0.2785424 0.05539107 -0.9588 -0.5194556 0.1033051 -0.8482009 -0.7035432 0.1371197 -0.6972564 0 0 -1 -0.2840052 0 -0.9588 0 0 -1 0 0 -1 0 0 -1 0 0 -1 0 0 -1 0 0 -1 0 0 -1 0 0 -1 0 0 -1 0 0 -1 0 0 -1 0 0 -1 0 0 -1 0 0 -1 0 0 -1 0 0 -1 0 0 -1 0 0 -1 0 0 -1 0 0 -1 0 0 -1 0 0 -1 0 0 -1 0 0 -1 0 0 -1 0 0 -1 0 0 -1 0 0 -1 0 0 -1 0 0 -1 0 0 -1 0 0 -1 0 0 -1 -0.871456 -0.1668447 0.4611957 -0.8912931 0.005981624 0.4533219 -0.8181707 -0.3318583 0.4694967 -0.7338481 -0.4827113 0.4779198 -0.4875332 -0.7200232 0.4937895 -0.6221199 -0.6136662 0.4861294 -0.3354595 -0.7980591 0.5005341 -0.1716666 -0.8452407 0.5060274 -0.002288877 -0.8601031 0.5100558 0.166509 -0.8424329 0.5123752 0.3287759 -0.7929624 0.5128941 0.4786828 -0.7135227 0.5115513 0.7204505 -0.4766076 0.5037385 0.6108585 -0.6068301 0.5084689 0.8032166 -0.327372 0.4976348 0.8558 -0.1644337 0.490463 0.8758507 0.006164729 0.4824976 0.8622394 0.1780755 0.4741356 0.8150578 0.3445845 0.465743 0.7358013 0.4991302 0.4575945 0.493759 0.7481002 0.4432508 0.6273385 0.6354869 0.4500259 0.3401593 0.8323313 0.4375439 0.1726737 0.8846706 0.4329966 -0.002105772 0.9029206 0.4297922 -0.177221 0.886227 0.4279611 -0.3456832 0.8352611 0.4275338 -0.6361584 0.6398816 0.4310434 -0.5007172 0.7520371 0.4286019 -0.7466353 0.5033418 0.4348887 -0.8278451 0.347911 0.4399243 -0.8766442 0.179876 0.4461806 0 0 -1 0 0 -1 0 0 -1 0 0 -1 0 0 -1 0 0 -1 0 0 -1 0 0 -1 0 0 -1 0 0 -1 0 0 -1 0 0 -1 0 0 1</float_array>
          <technique_common>
            <accessor source="#Sphere_005-mesh-normals-array" count="257" stride="3">
              <param name="X" type="float"/>
              <param name="Y" type="float"/>
              <param name="Z" type="float"/>
            </accessor>
          </technique_common>
        </source>
        <source id="Sphere_005-mesh-map">
          <float_array id="Sphere_005-mesh-map-array" count="2496">0 0 0 0 0 0 0 0 0 0 0 0 0 0 0 0 0 0 0 0 0 0 0 0 0 0 0 0 0 0 0 0 0 0 0 0 0 0 0 0 0 0 0 0 0 0 0 0 0 0 0 0 0 0 0 0 0 0 0 0 0 0 0 0 0 0 0 0 0 0 0 0 0 0 0 0 0 0 0 0 0 0 0 0 0 0 0 0 0 0 0 0 0 0 0 0 0 0 0 0 0 0 0 0 0 0 0 0 0 0 0 0 0 0 0 0 0 0 0 0 0 0 0 0 0 0 0 0 0 0 0 0 0 0 0 0 0 0 0 0 0 0 0 0 0 0 0 0 0 0 0 0 0 0 0 0 0 0 0 0 0 0 0 0 0 0 0 0 0 0 0 0 0 0 0 0 0 0 0 0 0 0 0 0 0 0 0 0 0 0 0 0 0 0 0 0 0 0 0 0 0 0 0 0 0 0 0 0 0 0 0 0 0 0 0 0 0 0 0 0 0 0 0 0 0 0 0 0 0 0 0 0 0 0 0 0 0 0 0 0 0 0 0 0 0 0 0 0 0 0 0 0 0 0 0 0 0 0 0 0 0 0 0 0 0 0 0 0 0 0 0 0 0 0 0 0 0 0 0 0 0 0 0 0 0 0 0 0 0 0 0 0 0 0 0 0 0 0 0 0 0 0 0 0 0 0 0 0 0 0 0 0 0 0 0 0 0 0 0 0 0 0 0 0 0 0 0 0 0 0 0 0 0 0 0 0 0 0 0 0 0 0 0 0 0 0 0 0 0 0 0 0 0 0 0 0 0 0 0 0 0 0 0 0 0 0 0 0 0 0 0 0 0 0 0 0 0 0 0 0 0 0 0 0 0 0 0 0 0 0 0 0 0 0 0 0 0 0 0 0 0 0 0 0 0 0 0 0 0 0 0 0 0 0 0 0 0 0 0 0 0 0 0 0 0 0 0 0 0 0 0 0 0 0 0 0 0 0 0 0 0 0 0 0 0 0 0 0 0 0 0 0 0 0 0 0 0 0 0 0 0 0 0 0 0 0 0 0 0 0 0 0 0 0 0 0 0 0 0 0 0 0 0 0 0 0 0 0 0 0 0 0 0 0 0 0 0 0 0 0 0 0 0 0 0 0 0 0 0 0 0 0 0 0 0 0 0 0 0 0 0 0 0 0 0 0 0 0 0 0 0 0 0 0 0 0 0 0 0 0 0 0 0 0 0 0 0 0 0 0 0 0 0 0 0 0 0 0 0 0 0 0 0 0 0 0 0 0 0 0 0 0 0 0 0 0 0 0 0 0 0 0 0 0 0 0 0 0 0 0 0 0 0 0 0 0 0 0 0 0 0 0 0 0 0 0 0 0 0 0 0 0 0 0 0 0 0 0 0 0 0 0 0 0 0 0 0 0 0 0 0 0 0 0 0 0 0 0 0 0 0 0 0 0 0 0 0 0 0 0 0 0 0 0 0 0 0 0 0 0 0 0 0 0 0 0 0 0 0 0 0 0 0 0 0 0 0 0 0 0 0 0 0 0 0 0 0 0 0 0 0 0 0 0 0 0 0 0 0 0 0 0 0 0 0 0 0 0 0 0 0 0 0 0 0 0 0 0 0 0 0 0 0 0 0 0 0 0 0 0 0 0 0 0 0 0 0 0 0 0 0 0 0 0 0 0 0 0 0 0 0 0 0 0 0 0 0 0 0 0 0 0 0 0 0 0 0 0 0 0 0 0 0 0 0.4944435 0.5025044 0.4858986 0.5082139 0.4880409 0.5108244 0.4771166 0.5082139 0.4794277 0.5125377 0.4858986 0.5082139 0 0 0 0 0 0 0 0 0 0 0 0 0.4843066 0.5052357 0.4858986 0.5082139 0.4944435 0.5025044 0.4833264 0.5020041 0.4756934 0.5035224 0.4771166 0.5082139 0 0 0 0 0 0 0 0 0 0 0 0 0.4833264 0.5020041 0.4843066 0.5052357 0.4938013 0.5013028 0 0 0 0 0 0 0 0 0 0 0 0 0 0 0 0 0 0 0 0 0 0 0 0 0 0 0 0 0 0 0 0 0 0 0 0 0 0 0 0 0 0 0 0 0 0 0 0 0 0 0 0 0 0 0 0 0 0 0 0 0 0 0 0 0 0 0 0 0 0 0 0 0 0 0 0 0 0 0 0 0 0 0 0 0 0 0 0 0 0 0 0 0 0 0 0 0 0 0 0 0 0 0 0 0 0 0 0 0 0 0 0 0 0 0 0 0 0 0 0 0 0 0 0 0 0 0 0 0 0 0 0 0 0 0 0 0 0 0 0 0 0 0 0 0 0 0 0 0 0 0 0 0 0 0 0 0 0 0 0 0 0 0 0 0 0 0 0 0 0 0 0 0 0 0 0 0 0 0 0 0 0 0 0 0 0 0 0 0 0 0 0 0 0 0 0 0 0 0 0 0 0 0 0 0 0 0 0 0 0 0 0 0 0 0 0 0 0 0 0 0 0 0 0 0 0 0 0 0 0 0 0 0 0 0 0 0 0 0 0 0 0 0 0 0 0 0 0 0 0 0 0 0 0 0 0 0 0 0 0 0 0 0 0 0 0 0 0 0 0 0 0 0 0 0 0 0 0 0 0 0 0 0 0 0 0 0 0 0 0 0 0 0 0 0 0 0 0 0 0 0 0 0 0 0 0 0 0 0 0 0 0 0 0 0 0 0 0 0 0 0 0 0 0 0 0 0 0 0 0 0 0 0 0 0 0 0 0 0 0 0 0 0 0 0 0 0 0 0 0 0 0 0 0 0 0 0 0 0 0 0 0 0 0 0 0 0 0 0 0 0 0 0 0 0 0 0 0 0 0 0 0 0 0 0 0 0 0 0 0 0 0 0 0 0 0 0 0 0 0 0 0 0 0 0 0 0 0 0 0 0 0 0 0 0 0 0 0 0 0 0 0 0 0 0 0 0 0 0 0 0 0 0 0 0 0 0 0 0 0 0 0 0 0 0 0 0 0 0 0 0 0 0 0 0 0 0 0 0 0 0 0 0 0 0 0 0 0 0 0 0 0 0 0 0 0 0 0 0 0 0 0 0 0 0 0 0 0 0 0 0 0 0 0 0 0 0 0 0 0 0 0 0 0 0 0 0 0 0 0 0 0 0 0 0 0 0 0 0 0 0 0 0 0 0 0 0 0 0 0 0 0 0 0 0 0 0 0 0 0 0 0 0 0 0 0 0 0 0 0 0 0 0 0 0 0 0 0 0 0 0 0 0 0 0 0 0 0 0 0 0 0 0 0 0 0 0 0 0 0 0 0 0 0 0 0 0 0 0 0 0 0 0 0 0 0 0 0 0 0 0 0 0 0 0 0 0 0 0 0 0 0 0 0 0 0 0 0 0 0 0 0 0 0 0 0 0 0 0 0 0 0 0 0 0 0 0 0 0 0 0 0 0 0 0 0 0 0 0 0 0 0 0 0 0 0 0 0 0 0 0 0 0 0 0 0 0 0 0 0 0 0 0 0 0 0 0 0 0 0 0 0 0 0 0 0 0 0 0 0 0 0 0 0 0 0 0 0 0 0 0 0 0 0 0 0 0 0 0 0 0 0 0 0 0 0 0 0 0 0 0 0 0 0 0 0 0 0 0 0 0 0 0 0 0 0 0 0 0 0 0 0 0 0 0 0 0 0 0 0 0 0 0 0 0 0 0 0 0 0 0 0 0 0 0 0 0 0 0 0 0 0 0 0 0 0 0 0 0 0 0 0 0 0 0 0 0 0 0 0 0 0 0 0 0 0 0 0 0 0 0 0 0 0 0 0 0 0 0 0 0 0 0 0 0 0 0 0 0 0 0 0 0 0 0 0 0 0 0 0 0 0 0 0 0 0 0 0 0 0 0 0 0 0 0 0 0 0 0 0 0 0 0 0 0 0 0 0 0 0 0 0 0 0 0 0 0 0 0 0 0 0 0 0 0 0 0 0 0 0 0 0 0 0 0 0 0 0 0 0 0 0 0 0 0 0 0 0 0 0 0 0 0 0 0 0 0 0 0 0 0 0 0 0 0 0 0 0 0 0 0 0 0 0 0 0 0 0 0 0 0 0 0 0 0 0 0 0 0 0 0 0 0 0 0 0 0 0 0 0 0 0 0 0 0 0 0 0 0 0 0 0 0 0 0 0 0 0 0 0 0 0 0 0 0 0 0 0 0 0 0 0 0 0 0 0 0 0 0 0 0 0 0 0 0 0 0 0 0 0 0 0 0 0 0 0 0 0 0 0 0 0 0 0 0 0 0 0 0 0 0 0 0 0 0 0 0 0 0 0 0 0 0 0 0 0 0 0 0 0 0 0 0 0 0 0 0 0 0 0 0 0 0 0 0 0 0 0 0 0 0 0 0 0 0 0 0 0 0 0 0 0 0 0 0 0 0 0 0 0 0 0 0 0 0 0 0 0 0 0 0 0 0 0 0 0 0 0 0.4953078 0.5035576 0.4944435 0.5025044 0.4880409 0.5108244 0.4843066 0.5052357 0.4771166 0.5082139 0.4858986 0.5082139 0 0 0 0 0 0 0 0 0 0 0 0 0.4938013 0.5013028 0.4843066 0.5052357 0.4944435 0.5025044 0.4843066 0.5052357 0.4833264 0.5020041 0.4771166 0.5082139 0 0 0 0 0 0 0 0 0 0 0 0 0.4934058 0.4999992 0.4833264 0.5020041 0.4938013 0.5013028 0 0 0 0 0 0 0 0 0 0 0 0 0 0 0 0 0 0 0 0 0 0 0 0 0 0 0 0 0 0 0 0 0 0 0 0 0 0 0 0 0 0 0 0 0 0 0 0 0 0 0 0 0 0 0 0 0 0 0 0 0 0 0 0 0 0 0 0 0 0 0 0 0 0 0 0 0 0 0 0 0 0 0 0 0 0 0 0 0 0 0 0 0 0 0 0 0 0 0 0 0 0 0 0 0 0 0 0 0 0 0 0 0 0 0 0 0 0 0 0 0 0 0 0 0 0 0 0 0 0 0 0 0 0 0 0 0 0 0 0 0 0 0 0 0 0 0 0 0 0 0 0 0 0 0 0 0 0 0 0 0 0 0 0 0 0 0 0 0 0 0 0 0 0 0 0 0 0 0 0 0 0 0 0 0 0 0 0 0 0 0 0 0 0 0 0 0 0 0 0 0 0 0 0 0 0 0 0 0 0 0 0 0 0 0 0 0 0 0 0 0 0 0 0 0 0 0 0 0 0 0 0 0 0 0 0 0 0 0 0 0 0 0 0 0 0 0 0 0 0 0 0 0 0 0 0 0 0 0 0 0 0 0 0 0 0 0 0 0 0 0 0 0 0 0 0 0 0 0 0 0 0 0 0 0 0 0 0 0 0 0 0 0 0 0 0 0 0 0 0 0 0 0 0 0 0 0 0 0 0 0 0 0 0 0 0 0 0 0 0 0 0 0 0 1.19238 -1.172207 1.505306 -1.004943 0.4997186 0.5000283 -0.7801545 -0.7798448 0.4997186 0.5000283 -1.005253 -0.5055608 -0.7801545 1.7799 0.4997186 0.5000283 -0.5058681 2.004999 1.77959 1.7799 0.4997186 0.5000283 2.004689 1.505616 2.309732 0.5000283 0.4997186 0.5000283 2.274954 0.146912 2.171953 -0.1926314 2.274954 0.146912 0.4997186 0.5000283 2.171953 -0.1926314 0.4997186 0.5000283 2.00469 -0.5055608 2.00469 -0.5055608 0.4997186 0.5000283 1.779592 -0.7798448 1.779592 -0.7798448 0.4997186 0.5000283 1.505306 -1.004943 1.19238 -1.172207 0.4997186 0.5000283 0.8528322 -1.275205 0.4997186 -1.309985 0.8528322 -1.275205 0.4997186 0.5000283 0.4997186 -1.309985 0.4997186 0.5000283 0.1466023 -1.275205 -0.1929413 -1.172207 0.1466023 -1.275205 0.4997186 0.5000283 -0.5058705 -1.004943 -0.1929413 -1.172207 0.4997186 0.5000283 -0.5058705 -1.004943 0.4997186 0.5000283 -0.7801545 -0.7798448 -1.005253 -0.5055608 0.4997186 0.5000283 -1.172517 -0.1926314 -1.172517 -0.1926314 0.4997186 0.5000283 -1.275515 0.146912 -1.310296 0.5000283 -1.275515 0.146912 0.4997186 0.5000283 -1.275515 0.8531432 -1.310296 0.5000283 0.4997186 0.5000283 -1.172517 1.192689 -1.275515 0.8531432 0.4997186 0.5000283 -1.005253 1.505616 -1.172517 1.192689 0.4997186 0.5000283 -0.7801545 1.7799 -1.005253 1.505616 0.4997186 0.5000283 -0.1929413 2.172263 -0.5058681 2.004999 0.4997186 0.5000283 -0.1929413 2.172263 0.4997186 0.5000283 0.1466023 2.275262 0.4997186 2.310041 0.1466023 2.275262 0.4997186 0.5000283 0.4997186 2.310041 0.4997186 0.5000283 0.8528322 2.275262 0.8528322 2.275262 0.4997186 0.5000283 1.19238 2.172263 1.19238 2.172263 0.4997186 0.5000283 1.505306 2.004999 1.77959 1.7799 1.505306 2.004999 0.4997186 0.5000283 2.004689 1.505616 0.4997186 0.5000283 2.171952 1.192689 2.171952 1.192689 0.4997186 0.5000283 2.274952 0.8531421 2.309732 0.5000283 2.274952 0.8531421 0.4997186 0.5000283</float_array>
          <technique_common>
            <accessor source="#Sphere_005-mesh-map-array" count="1248" stride="2">
              <param name="S" type="float"/>
              <param name="T" type="float"/>
            </accessor>
          </technique_common>
        </source>
        <vertices id="Sphere_005-mesh-vertices">
          <input semantic="POSITION" source="#Sphere_005-mesh-positions"/>
        </vertices>
        <polylist material="Material-material" count="416">
          <input semantic="VERTEX" source="#Sphere_005-mesh-vertices" offset="0"/>
          <input semantic="NORMAL" source="#Sphere_005-mesh-normals" offset="1"/>
          <input semantic="TEXCOORD" source="#Sphere_005-mesh-map" offset="2" set="0"/>
          <vcount>3 3 3 3 3 3 3 3 3 3 3 3 3 3 3 3 3 3 3 3 3 3 3 3 3 3 3 3 3 3 3 3 3 3 3 3 3 3 3 3 3 3 3 3 3 3 3 3 3 3 3 3 3 3 3 3 3 3 3 3 3 3 3 3 3 3 3 3 3 3 3 3 3 3 3 3 3 3 3 3 3 3 3 3 3 3 3 3 3 3 3 3 3 3 3 3 3 3 3 3 3 3 3 3 3 3 3 3 3 3 3 3 3 3 3 3 3 3 3 3 3 3 3 3 3 3 3 3 3 3 3 3 3 3 3 3 3 3 3 3 3 3 3 3 3 3 3 3 3 3 3 3 3 3 3 3 3 3 3 3 3 3 3 3 3 3 3 3 3 3 3 3 3 3 3 3 3 3 3 3 3 3 3 3 3 3 3 3 3 3 3 3 3 3 3 3 3 3 3 3 3 3 3 3 3 3 3 3 3 3 3 3 3 3 3 3 3 3 3 3 3 3 3 3 3 3 3 3 3 3 3 3 3 3 3 3 3 3 3 3 3 3 3 3 3 3 3 3 3 3 3 3 3 3 3 3 3 3 3 3 3 3 3 3 3 3 3 3 3 3 3 3 3 3 3 3 3 3 3 3 3 3 3 3 3 3 3 3 3 3 3 3 3 3 3 3 3 3 3 3 3 3 3 3 3 3 3 3 3 3 3 3 3 3 3 3 3 3 3 3 3 3 3 3 3 3 3 3 3 3 3 3 3 3 3 3 3 3 3 3 3 3 3 3 3 3 3 3 3 3 3 3 3 3 3 3 3 3 3 3 3 3 3 3 3 3 3 3 3 3 3 3 3 3 3 3 3 3 3 3 3 3 3 3 3 3 3 3 3 3 3 3 3 3 3 3 3 3 3 3 3 3 3 3 3 3 3 3 3 3 3 3 3 3 3 3 </vcount>
          <p>1 0 0 0 0 1 2 0 2 1 1 3 2 1 4 3 1 5 1 2 6 3 2 7 4 2 8 1 3 9 4 3 10 5 3 11 1 4 12 5 4 13 6 4 14 1 5 15 6 5 16 7 5 17 1 6 18 7 6 19 8 6 20 1 7 21 8 7 22 9 7 23 1 8 24 9 8 25 10 8 26 1 9 27 10 9 28 11 9 29 1 10 30 11 10 31 12 10 32 1 11 33 12 11 34 13 11 35 1 12 36 13 12 37 14 12 38 1 13 39 14 13 40 15 13 41 1 14 42 15 14 43 16 14 44 1 15 45 16 15 46 17 15 47 1 16 48 17 16 49 18 16 50 1 17 51 18 17 52 19 17 53 1 18 54 19 18 55 20 18 56 1 19 57 20 19 58 21 19 59 1 20 60 21 20 61 22 20 62 1 21 63 22 21 64 23 21 65 1 22 66 23 22 67 24 22 68 1 23 69 24 23 70 25 23 71 1 24 72 25 24 73 26 24 74 1 25 75 26 25 76 27 25 77 1 26 78 27 26 79 28 26 80 1 27 81 28 27 82 29 27 83 1 28 84 29 28 85 30 28 86 1 29 87 30 29 88 31 29 89 1 30 90 31 30 91 32 30 92 1 31 93 32 31 94 0 31 95 192 32 96 170 33 97 169 34 98 189 35 99 173 36 100 172 37 101 184 38 102 189 35 103 190 39 104 185 40 105 190 39 106 191 41 107 179 42 108 184 38 109 185 40 110 188 43 111 187 44 112 192 32 113 180 45 114 185 40 115 186 46 116 181 47 117 186 46 118 187 44 119 174 48 120 179 42 121 180 45 122 182 49 123 187 44 124 188 43 125 176 50 126 181 47 127 182 49 128 177 51 129 182 49 130 183 52 131 34 53 132 35 54 133 176 50 134 175 55 135 180 45 136 181 47 137 37 56 138 174 48 139 175 55 140 43 57 141 37 56 142 36 58 143 33 59 144 34 53 145 177 51 146 40 60 147 41 61 148 35 54 149 48 62 150 43 57 151 42 63 152 42 63 153 36 58 154 35 54 155 46 64 156 41 61 157 40 60 158 46 64 159 47 65 160 42 63 161 51 66 162 46 64 163 45 67 164 45 67 165 40 60 166 39 68 167 52 69 168 47 65 169 46 64 170 52 69 171 53 70 172 48 62 173 50 71 174 45 67 175 44 72 176 54 73 177 55 74 178 50 71 179 55 74 180 56 75 181 51 66 182 56 75 183 57 76 184 52 69 185 62 77 186 63 78 187 58 79 188 61 80 189 62 77 190 57 76 191 68 81 192 63 78 193 62 77 194 60 82 195 55 74 196 54 73 197 66 83 198 67 84 199 62 77 200 65 85 201 66 83 202 61 80 203 73 86 204 68 81 205 67 84 206 64 87 207 65 85 208 60 82 209 70 88 210 71 89 211 66 83 212 69 90 213 70 88 214 65 85 215 75 91 216 76 92 217 71 89 218 71 89 219 72 93 220 67 84 221 78 94 222 73 86 223 72 93 224 83 95 225 78 94 226 77 96 227 74 97 228 75 91 229 70 88 230 80 98 231 81 99 232 76 92 233 88 100 234 83 95 235 82 101 236 81 99 237 82 101 238 77 96 239 85 102 240 86 103 241 81 99 242 86 103 243 87 104 244 82 101 245 91 105 246 86 103 247 85 102 248 84 106 249 85 102 250 80 98 251 92 107 252 87 104 253 86 103 254 93 108 255 88 100 256 87 104 257 90 109 258 85 102 259 84 106 260 94 110 261 95 111 262 90 109 263 95 111 264 96 112 265 91 105 266 96 112 267 97 113 268 92 107 269 103 114 270 98 115 271 97 113 272 101 116 273 102 117 274 97 113 275 108 118 276 103 114 277 102 117 278 100 119 279 95 111 280 94 110 281 106 120 282 107 121 283 102 117 284 105 122 285 106 120 286 101 116 287 112 123 288 113 124 289 108 118 290 105 122 291 100 119 292 99 125 293 110 126 294 111 127 295 106 120 296 109 128 297 110 126 298 105 122 299 116 129 300 111 127 301 110 126 302 112 123 303 107 121 304 106 120 305 117 130 306 118 131 307 113 124 308 123 132 309 118 131 310 117 130 311 115 133 312 110 126 313 109 128 314 121 134 315 116 129 316 115 133 317 128 135 318 123 132 319 122 136 320 121 134 321 122 136 322 117 130 323 125 137 324 126 138 325 121 134 326 126 138 327 127 139 328 122 136 329 131 140 330 126 138 331 125 137 332 124 141 333 125 137 334 120 142 335 132 143 336 127 139 337 126 138 338 133 144 339 128 135 340 127 139 341 130 145 342 125 137 343 124 141 344 134 146 345 135 147 346 130 145 347 135 147 348 136 148 349 131 140 350 136 148 351 137 149 352 132 143 353 142 150 354 143 151 355 138 152 356 141 153 357 142 150 358 137 149 359 148 154 360 143 151 361 142 150 362 140 155 363 135 147 364 134 146 365 151 156 366 146 157 367 145 158 368 152 159 369 147 160 370 146 157 371 153 161 372 148 154 373 147 160 374 150 162 375 145 158 376 144 163 377 155 164 378 156 165 379 151 156 380 156 165 381 157 166 382 152 159 383 158 167 384 153 161 385 152 159 386 154 168 387 155 164 388 150 162 389 161 169 390 156 165 391 155 164 392 161 169 393 162 170 394 157 166 395 162 170 396 163 171 397 158 167 398 160 172 399 155 164 400 154 168 401 165 173 402 166 174 403 161 169 404 166 174 405 167 175 406 162 170 407 167 175 408 168 176 409 163 171 410 165 173 411 160 172 412 159 177 413 169 34 414 170 33 415 165 173 416 171 178 417 166 174 418 165 173 419 172 37 420 167 175 421 166 174 422 173 36 423 168 176 424 167 175 425 191 41 426 171 178 427 170 33 428 187 44 429 186 46 430 191 41 431 36 58 432 175 55 433 176 50 434 40 60 435 34 53 436 33 59 437 58 79 438 53 70 439 52 69 440 60 82 441 61 80 442 56 75 443 77 96 444 72 93 445 71 89 446 80 98 447 75 91 448 74 97 449 97 113 450 98 115 451 93 108 452 101 116 453 96 112 454 95 111 455 116 129 456 117 130 457 112 123 458 119 179 459 120 142 460 115 133 461 138 152 462 133 144 463 132 143 464 140 155 465 141 153 466 136 148 467 146 157 468 141 153 469 140 155 470 147 160 471 142 150 472 141 153 473 144 163 474 145 158 475 140 155 476 190 39 477 172 37 478 171 178 479 1 180 480 44 180 481 39 180 482 1 181 483 183 181 484 188 181 485 1 182 486 54 182 487 49 182 488 1 183 489 33 183 490 178 183 491 1 184 492 74 184 493 69 184 494 1 185 495 59 185 496 54 185 497 1 186 498 89 186 499 84 186 500 1 187 501 79 187 502 74 187 503 1 188 504 69 188 505 64 188 506 1 189 507 94 189 508 89 189 509 1 190 510 84 190 511 79 190 512 1 191 513 114 191 514 109 191 515 1 192 516 99 192 517 94 192 518 1 193 519 129 193 520 124 193 521 1 194 522 119 194 523 114 194 524 1 195 525 109 195 526 104 195 527 1 196 528 134 196 529 129 196 530 1 197 531 124 197 532 119 197 533 1 198 534 154 198 535 149 198 536 1 199 537 139 199 538 134 199 539 1 200 540 169 200 541 164 200 542 1 201 543 159 201 544 154 201 545 1 202 546 149 202 547 144 202 548 1 203 549 164 203 550 159 203 551 1 204 552 64 204 553 59 204 554 1 205 555 104 205 556 99 205 557 1 206 558 144 206 559 139 206 560 1 207 561 39 207 562 33 207 563 1 208 564 188 208 565 193 208 566 1 209 567 193 209 568 169 209 569 1 210 570 49 210 571 44 210 572 1 211 573 178 211 574 183 211 575 194 212 576 225 213 577 173 36 578 195 214 579 194 212 580 189 35 581 196 215 582 195 214 583 184 38 584 198 216 585 197 217 586 174 48 587 199 218 588 198 216 589 37 56 590 200 219 591 199 218 592 43 57 593 201 220 594 200 219 595 48 62 596 202 221 597 201 220 598 53 70 599 203 222 600 202 221 601 58 79 602 68 81 603 204 223 604 203 222 605 78 94 606 206 224 607 205 225 608 83 95 609 207 226 610 206 224 611 88 100 612 208 227 613 207 226 614 93 108 615 209 228 616 208 227 617 98 115 618 210 229 619 209 228 620 103 114 621 211 230 622 210 229 623 108 118 624 212 231 625 211 230 626 118 131 627 214 232 628 213 233 629 123 132 630 215 234 631 214 232 632 128 135 633 216 235 634 215 234 635 133 144 636 217 236 637 216 235 638 138 152 639 218 237 640 217 236 641 143 151 642 220 238 643 218 237 644 222 239 645 219 240 646 148 154 647 221 241 648 222 239 649 153 161 650 224 242 651 221 241 652 158 167 653 223 243 654 224 242 655 163 171 656 225 213 657 223 243 658 168 176 659 197 217 660 196 215 661 179 42 662 73 86 663 205 225 664 204 223 665 113 124 666 213 233 667 212 231 668 219 240 669 220 238 670 143 151 671 193 244 672 192 32 673 169 34 674 190 39 675 189 35 676 172 37 677 185 40 678 184 38 679 190 39 680 186 46 681 185 40 682 191 41 683 180 45 684 179 42 685 185 40 686 193 244 687 188 43 688 192 32 689 181 47 690 180 45 691 186 46 692 182 49 693 181 47 694 187 44 695 175 55 696 174 48 697 180 45 698 183 52 699 182 49 700 188 43 701 177 51 702 176 50 703 182 49 704 178 245 705 177 51 706 183 52 707 177 51 708 34 53 709 176 50 710 176 50 711 175 55 712 181 47 713 36 58 714 37 56 715 175 55 716 42 63 717 43 57 718 36 58 719 178 245 720 33 59 721 177 51 722 34 53 723 40 60 724 35 54 725 47 65 726 48 62 727 42 63 728 41 61 729 42 63 730 35 54 731 45 67 732 46 64 733 40 60 734 41 61 735 46 64 736 42 63 737 50 71 738 51 66 739 45 67 740 44 72 741 45 67 742 39 68 743 51 66 744 52 69 745 46 64 746 47 65 747 52 69 748 48 62 749 49 246 750 50 71 751 44 72 752 49 246 753 54 73 754 50 71 755 50 71 756 55 74 757 51 66 758 51 66 759 56 75 760 52 69 761 57 76 762 62 77 763 58 79 764 56 75 765 61 80 766 57 76 767 67 84 768 68 81 769 62 77 770 59 247 771 60 82 772 54 73 773 61 80 774 66 83 775 62 77 776 60 82 777 65 85 778 61 80 779 72 93 780 73 86 781 67 84 782 59 247 783 64 87 784 60 82 785 65 85 786 70 88 787 66 83 788 64 87 789 69 90 790 65 85 791 70 88 792 75 91 793 71 89 794 66 83 795 71 89 796 67 84 797 77 96 798 78 94 799 72 93 800 82 101 801 83 95 802 77 96 803 69 90 804 74 97 805 70 88 806 75 91 807 80 98 808 76 92 809 87 104 810 88 100 811 82 101 812 76 92 813 81 99 814 77 96 815 80 98 816 85 102 817 81 99 818 81 99 819 86 103 820 82 101 821 90 109 822 91 105 823 85 102 824 79 248 825 84 106 826 80 98 827 91 105 828 92 107 829 86 103 830 92 107 831 93 108 832 87 104 833 89 249 834 90 109 835 84 106 836 89 249 837 94 110 838 90 109 839 90 109 840 95 111 841 91 105 842 91 105 843 96 112 844 92 107 845 102 117 846 103 114 847 97 113 848 96 112 849 101 116 850 97 113 851 107 121 852 108 118 853 102 117 854 99 125 855 100 119 856 94 110 857 101 116 858 106 120 859 102 117 860 100 119 861 105 122 862 101 116 863 107 121 864 112 123 865 108 118 866 104 250 867 105 122 868 99 125 869 105 122 870 110 126 871 106 120 872 104 250 873 109 128 874 105 122 875 115 133 876 116 129 877 110 126 878 111 127 879 112 123 880 106 120 881 112 123 882 117 130 883 113 124 884 122 136 885 123 132 886 117 130 887 114 251 888 115 133 889 109 128 890 120 142 891 121 134 892 115 133 893 127 139 894 128 135 895 122 136 896 116 129 897 121 134 898 117 130 899 120 142 900 125 137 901 121 134 902 121 134 903 126 138 904 122 136 905 130 145 906 131 140 907 125 137 908 119 179 909 124 141 910 120 142 911 131 140 912 132 143 913 126 138 914 132 143 915 133 144 916 127 139 917 129 252 918 130 145 919 124 141 920 129 252 921 134 146 922 130 145 923 130 145 924 135 147 925 131 140 926 131 140 927 136 148 928 132 143 929 137 149 930 142 150 931 138 152 932 136 148 933 141 153 934 137 149 935 147 160 936 148 154 937 142 150 938 139 253 939 140 155 940 134 146 941 150 162 942 151 156 943 145 158 944 151 156 945 152 159 946 146 157 947 152 159 948 153 161 949 147 160 950 149 254 951 150 162 952 144 163 953 150 162 954 155 164 955 151 156 956 151 156 957 156 165 958 152 159 959 157 166 960 158 167 961 152 159 962 149 254 963 154 168 964 150 162 965 160 172 966 161 169 967 155 164 968 156 165 969 161 169 970 157 166 971 157 166 972 162 170 973 158 167 974 159 177 975 160 172 976 154 168 977 160 172 978 165 173 979 161 169 980 161 169 981 166 174 982 162 170 983 162 170 984 167 175 985 163 171 986 164 255 987 165 173 988 159 177 989 164 255 990 169 34 991 165 173 992 170 33 993 171 178 994 165 173 995 171 178 996 172 37 997 166 174 998 172 37 999 173 36 1000 167 175 1001 192 32 1002 191 41 1003 170 33 1004 192 32 1005 187 44 1006 191 41 1007 35 54 1008 36 58 1009 176 50 1010 39 68 1011 40 60 1012 33 59 1013 57 76 1014 58 79 1015 52 69 1016 55 74 1017 60 82 1018 56 75 1019 76 92 1020 77 96 1021 71 89 1022 79 248 1023 80 98 1024 74 97 1025 92 107 1026 97 113 1027 93 108 1028 100 119 1029 101 116 1030 95 111 1031 111 127 1032 116 129 1033 112 123 1034 114 251 1035 119 179 1036 115 133 1037 137 149 1038 138 152 1039 132 143 1040 135 147 1041 140 155 1042 136 148 1043 145 158 1044 146 157 1045 140 155 1046 146 157 1047 147 160 1048 141 153 1049 139 253 1050 144 163 1051 140 155 1052 191 41 1053 190 39 1054 171 178 1055 189 35 1056 194 212 1057 173 36 1058 184 38 1059 195 214 1060 189 35 1061 179 42 1062 196 215 1063 184 38 1064 37 56 1065 198 216 1066 174 48 1067 43 57 1068 199 218 1069 37 56 1070 48 62 1071 200 219 1072 43 57 1073 53 70 1074 201 220 1075 48 62 1076 58 79 1077 202 221 1078 53 70 1079 63 78 1080 203 222 1081 58 79 1082 63 78 1083 68 81 1084 203 222 1085 73 86 1086 78 94 1087 205 225 1088 78 94 1089 83 95 1090 206 224 1091 83 95 1092 88 100 1093 207 226 1094 88 100 1095 93 108 1096 208 227 1097 93 108 1098 98 115 1099 209 228 1100 98 115 1101 103 114 1102 210 229 1103 103 114 1104 108 118 1105 211 230 1106 113 124 1107 118 131 1108 213 233 1109 118 131 1110 123 132 1111 214 232 1112 123 132 1113 128 135 1114 215 234 1115 128 135 1116 133 144 1117 216 235 1118 133 144 1119 138 152 1120 217 236 1121 138 152 1122 143 151 1123 218 237 1124 153 161 1125 222 239 1126 148 154 1127 158 167 1128 221 241 1129 153 161 1130 163 171 1131 224 242 1132 158 167 1133 168 176 1134 223 243 1135 163 171 1136 173 36 1137 225 213 1138 168 176 1139 174 48 1140 197 217 1141 179 42 1142 68 81 1143 73 86 1144 204 223 1145 108 118 1146 113 124 1147 212 231 1148 148 154 1149 219 240 1150 143 151 1151 220 238 1152 219 240 1153 38 256 1154 213 233 1155 38 256 1156 212 231 1157 205 225 1158 38 256 1159 204 223 1160 197 217 1161 38 256 1162 196 215 1163 225 213 1164 38 256 1165 223 243 1166 224 242 1167 223 243 1168 38 256 1169 224 242 1170 38 256 1171 221 241 1172 221 241 1173 38 256 1174 222 239 1175 222 239 1176 38 256 1177 219 240 1178 220 238 1179 38 256 1180 218 237 1181 217 236 1182 218 237 1183 38 256 1184 217 236 1185 38 256 1186 216 235 1187 215 234 1188 216 235 1189 38 256 1190 214 232 1191 215 234 1192 38 256 1193 214 232 1194 38 256 1195 213 233 1196 212 231 1197 38 256 1198 211 230 1199 211 230 1200 38 256 1201 210 229 1202 209 228 1203 210 229 1204 38 256 1205 208 227 1206 209 228 1207 38 256 1208 207 226 1209 208 227 1210 38 256 1211 206 224 1212 207 226 1213 38 256 1214 205 225 1215 206 224 1216 38 256 1217 203 222 1218 204 223 1219 38 256 1220 203 222 1221 38 256 1222 202 221 1223 201 220 1224 202 221 1225 38 256 1226 201 220 1227 38 256 1228 200 219 1229 200 219 1230 38 256 1231 199 218 1232 199 218 1233 38 256 1234 198 216 1235 197 217 1236 198 216 1237 38 256 1238 196 215 1239 38 256 1240 195 214 1241 195 214 1242 38 256 1243 194 212 1244 225 213 1245 194 212 1246 38 256 1247</p>
        </polylist>
      </mesh>
    </geometry>
  </library_geometries>
  <library_controllers/>
  <library_visual_scenes>
    <visual_scene id="Scene" name="Scene">
      <node id="Bowlnside" name="Bowlnside" type="NODE">
        <matrix sid="transform">1 0 0 0 0 1 0 0 0 0 1 0 0 0 0 1</matrix>
        <instance_geometry url="#Sphere_005-mesh">
          <bind_material>
            <technique_common>
              <instance_material symbol="Material-material" target="#Material-material">
                <bind_vertex_input semantic="Sphere_005-mesh-map" input_semantic="TEXCOORD" input_set="0"/>
              </instance_material>
            </technique_common>
          </bind_material>
        </instance_geometry>
      </node>
    </visual_scene>
  </library_visual_scenes>
  <scene>
    <instance_visual_scene url="#Scene"/>
  </scene>
</COLLADA>
