<?xml version="1.0" encoding="utf-8"?>
<COLLADA xmlns="http://www.collada.org/2005/11/COLLADASchema" version="1.4.1">
  <asset>
    <contributor>
      <author>Blender User</author>
      <authoring_tool>Blender 2.73.0 commit date:2015-01-20, commit time:18:16, hash:bbf09d9</authoring_tool>
    </contributor>
    <created>2015-03-12T15:41:04</created>
    <modified>2015-03-12T15:41:04</modified>
    <unit name="meter" meter="1"/>
    <up_axis>Z_UP</up_axis>
  </asset>
  <library_images/>
  <library_effects>
    <effect id="Bowl_002-effect">
      <profile_COMMON>
        <technique sid="common">
          <phong>
            <emission>
              <color sid="emission">0 0 0 1</color>
            </emission>
            <ambient>
              <color sid="ambient">0 0 0 1</color>
            </ambient>
            <diffuse>
              <color sid="diffuse">0.3447199 0.419489 0.340454 1</color>
            </diffuse>
            <specular>
              <color sid="specular">0.5 0.5 0.5 1</color>
            </specular>
            <shininess>
              <float sid="shininess">50</float>
            </shininess>
            <index_of_refraction>
              <float sid="index_of_refraction">1</float>
            </index_of_refraction>
          </phong>
        </technique>
      </profile_COMMON>
    </effect>
  </library_effects>
  <library_materials>
    <material id="Bowl_002-material" name="Bowl_002">
      <instance_effect url="#Bowl_002-effect"/>
    </material>
  </library_materials>
  <library_geometries>
    <geometry id="Sphere_005-mesh" name="Sphere.005">
      <mesh>
        <source id="Sphere_005-mesh-positions">
          <float_array id="Sphere_005-mesh-positions-array" count="774">-0.02663391 -0.002713203 0.007380247 4.43812e-4 -0.002713203 0.007380247 -0.02611362 0.002569377 0.007380247 -0.02457278 0.007649004 0.007380247 -0.02207052 0.01233035 0.007380247 -0.01870304 0.01643365 0.007380247 -0.01459974 0.01980108 0.007380247 -0.009918391 0.02230334 0.007380247 -0.004838764 0.02384424 0.007380247 4.43812e-4 0.02436453 0.007380247 0.005726397 0.02384424 0.007380247 0.01080602 0.02230334 0.007380247 0.01548737 0.01980108 0.007380247 0.01959067 0.01643365 0.007380247 0.02295809 0.01233035 0.007380247 0.02546036 0.007648944 0.007380247 0.02700126 0.002569377 0.007380247 0.02752155 -0.002713203 0.007380247 0.02700126 -0.007995784 0.007380247 0.02546036 -0.01307541 0.007380247 0.02295809 -0.01775676 0.007380247 0.01959067 -0.02186006 0.007380247 0.01548737 -0.02522754 0.007380247 0.01080596 -0.02772974 0.007380247 0.005726397 -0.02927064 0.007380247 4.43812e-4 -0.02979093 0.007380247 -0.004838764 -0.02927064 0.007380247 -0.009918391 -0.02772974 0.007380247 -0.01459974 -0.02522754 0.007380247 -0.01870304 -0.02186006 0.007380247 -0.02207046 -0.01775676 0.007380247 -0.02457273 -0.01307541 0.007380247 -0.02611362 -0.007995784 0.007380247 -0.007278203 -0.01427 0.007380247 -0.01869726 -0.03135985 0.007380247 -0.0273447 -0.04430168 0.008747279 -0.03492426 -0.05564534 0.0156064 -0.04114466 -0.06495475 0.02396428 4.43805e-4 -0.002713143 0.02912706 -0.004875183 -0.01555448 0.007380247 -0.01274079 -0.03454363 0.007380247 -0.01869726 -0.04892385 0.008747279 -0.02391815 -0.0615282 0.0156064 -0.02820283 -0.07187229 0.02396428 -0.002267777 -0.01634544 0.007380247 -0.00627762 -0.0365042 0.007380247 -0.009314179 -0.05177015 0.008747279 -0.01197582 -0.06515091 0.0156064 -0.01416009 -0.07613211 0.02396428 4.43812e-4 -0.01661247 0.007380247 4.43805e-4 -0.03716623 0.007380247 4.43809e-4 -0.05273127 0.008747279 4.43801e-4 -0.06637412 0.0156064 4.43798e-4 -0.07757055 0.02396428 0.00315541 -0.01634544 0.007380247 0.007165253 -0.0365042 0.007380247 0.01020181 -0.05177021 0.008747279 0.01286339 -0.06515091 0.0156064 0.01504772 -0.07613211 0.02396428 0.005762815 -0.01555448 0.007380247 0.01362836 -0.03454363 0.007380247 0.01958489 -0.04892385 0.008747279 0.02480578 -0.06152826 0.0156064 0.02909046 -0.07187235 0.02396428 0.008165836 -0.01427 0.007380247 0.01958489 -0.03135985 0.007380247 0.02823233 -0.04430168 0.008747279 0.0358119 -0.05564534 0.0156064 0.0420323 -0.06495481 0.02396428 0.01027208 -0.01254147 0.007380247 0.02480578 -0.02707517 0.007380247 0.0358119 -0.03808128 0.008747279 0.04545885 -0.0477283 0.0156064 0.05337589 -0.05564534 0.02396428 0.01200062 -0.01043522 0.007380247 0.02909046 -0.02185428 0.007380247 0.0420323 -0.03050172 0.008747279 0.05337595 -0.03808128 0.0156064 0.06268537 -0.04430168 0.02396428 0.01328504 -0.008032202 0.007380247 0.03227424 -0.01589781 0.007380247 0.04665446 -0.02185428 0.008747279 0.05925881 -0.02707517 0.0156064 0.06960296 -0.03135985 0.02396428 0.01407599 -0.005424797 0.007380247 0.03423482 -0.00943464 0.007380247 0.04950076 -0.01247125 0.008747279 0.06288152 -0.01513284 0.0156064 0.07386279 -0.01731711 0.02396428 0.01434308 -0.002713203 0.007380247 0.03489685 -0.002713203 0.007380247 0.05046188 -0.002713203 0.008747279 0.06410473 -0.002713203 0.0156064 0.07530111 -0.002713203 0.02396428 0.01407599 -1.58947e-6 0.007380247 0.03423482 0.004008233 0.007380247 0.04950076 0.007044792 0.008747279 0.06288152 0.009706377 0.0156064 0.07386279 0.0118907 0.02396428 0.0132851 0.002605795 0.007380247 0.03227424 0.0104714 0.007380247 0.04665446 0.01642787 0.008747279 0.05925881 0.02164876 0.0156064 0.06960296 0.02593344 0.02396428 0.01200062 0.005008816 0.007380247 0.02909046 0.01642787 0.007380247 0.0420323 0.02507531 0.008747279 0.05337595 0.03265488 0.0156064 0.06268543 0.03887528 0.02396428 0.01027208 0.007115066 0.007380247 0.02480578 0.02164876 0.007380247 0.0358119 0.03265488 0.008747279 0.04545891 0.04230183 0.0156064 0.05337595 0.05021893 0.02396428 0.008165836 0.0088436 0.007380247 0.01958489 0.02593344 0.007380247 0.02823233 0.03887528 0.008747279 0.0358119 0.05021893 0.0156064 0.0420323 0.05952841 0.02396428 0.005762815 0.01012802 0.007380247 0.01362842 0.02911722 0.007380247 0.01958489 0.04349744 0.008747279 0.02480578 0.05610185 0.0156064 0.02909046 0.066446 0.02396428 0.00315541 0.01091897 0.007380247 0.007165253 0.0310778 0.007380247 0.01020181 0.0463438 0.008747279 0.01286339 0.0597245 0.0156064 0.01504772 0.07070577 0.02396428 4.43812e-4 0.01118606 0.007380247 4.43812e-4 0.03173983 0.007380247 4.43816e-4 0.04730486 0.008747279 4.43812e-4 0.06094771 0.0156064 4.43812e-4 0.07214415 0.02396428 -0.002267777 0.01091897 0.007380247 -0.00627762 0.0310778 0.007380247 -0.009314179 0.0463438 0.008747279 -0.01197582 0.0597245 0.0156064 -0.01416009 0.07070577 0.02396428 -0.004875183 0.01012802 0.007380247 -0.01274079 0.02911722 0.007380247 -0.01869726 0.04349744 0.008747279 -0.02391815 0.05610185 0.0156064 -0.02820283 0.066446 0.02396428 -0.007278203 0.0088436 0.007380247 -0.01869726 0.02593344 0.007380247 -0.0273447 0.03887528 0.008747279 -0.03492426 0.05021893 0.0156064 -0.04114466 0.05952841 0.02396428 -0.009384453 0.007115066 0.007380247 -0.02391815 0.02164876 0.007380247 -0.03492426 0.03265488 0.008747279 -0.04457128 0.04230183 0.0156064 -0.05248832 0.05021893 0.02396428 -0.01111298 0.005008816 0.007380247 -0.02820283 0.01642787 0.007380247 -0.04114466 0.02507531 0.008747279 -0.05248832 0.03265488 0.0156064 -0.06179779 0.03887528 0.02396428 -0.01239746 0.002605795 0.007380247 -0.03138667 0.0104714 0.007380247 -0.04576683 0.01642787 0.008747279 -0.05837124 0.02164876 0.0156064 -0.06871539 0.02593344 0.02396428 -0.01318842 -1.58947e-6 0.007380247 -0.03334718 0.004008233 0.007380247 -0.04861319 0.007044792 0.008747279 -0.06199389 0.009706377 0.0156064 -0.07297521 0.0118907 0.02396428 -0.01345545 -0.002713203 0.007380247 -0.03400921 -0.002713203 0.007380247 -0.04957425 -0.002713203 0.008747279 -0.06321716 -0.002713203 0.0156064 -0.07441353 -0.002713203 0.02396428 -0.05248826 -0.05564528 0.02396428 -0.04457128 -0.04772824 0.0156064 -0.03492426 -0.03808128 0.008747279 -0.02391815 -0.02707517 0.007380247 -0.009384453 -0.01254147 0.007380247 -0.06179773 -0.04430168 0.02396428 -0.05248832 -0.03808128 0.0156064 -0.04114466 -0.03050172 0.008747279 -0.02820283 -0.02185428 0.007380247 -0.01111298 -0.01043522 0.007380247 -0.06871533 -0.03135985 0.02396428 -0.05837118 -0.02707517 0.0156064 -0.04576683 -0.02185428 0.008747279 -0.03138661 -0.01589781 0.007380247 -0.01239746 -0.008032202 0.007380247 -0.07297515 -0.01731711 0.02396428 -0.06199389 -0.01513278 0.0156064 -0.04861313 -0.01247119 0.008747279 -0.03334718 -0.00943464 0.007380247 -0.01318842 -0.005424797 0.007380247 -0.04831975 -0.01241284 0.03008282 -0.0454905 -0.02173978 0.03008282 -0.04089599 -0.03033554 0.03008282 -0.03471279 -0.03786981 0.03008282 -0.02717852 -0.04405295 0.03008282 -0.01858276 -0.04864752 0.03008282 -0.009255826 -0.05147677 0.03008282 4.43808e-4 -0.05243211 0.03008282 0.01014345 -0.05147677 0.03008282 0.01947039 -0.04864752 0.03008282 0.02806615 -0.04405295 0.03008282 0.03560042 -0.03786981 0.03008282 0.04178357 -0.03033554 0.03008282 0.04637813 -0.02173978 0.03008282 0.04920738 -0.01241284 0.03008282 0.05016273 -0.002713143 0.03008282 0.04920738 0.006986439 0.03008282 0.04637813 0.01631337 0.03008282 0.04178357 0.02490913 0.03008282 0.03560042 0.0324434 0.03008282 0.02806615 0.03862661 0.03008282 0.01947039 0.04322111 0.03008282 0.01014345 0.04605036 0.03008282 4.43808e-4 0.04700571 0.03008282 -0.009255826 0.04605036 0.03008282 -0.02717852 0.03862661 0.03008282 -0.01858282 0.04322111 0.03008282 -0.04089599 0.02490913 0.03008282 -0.03471279 0.0324434 0.03008282 -0.04831981 0.006986439 0.03008282 -0.0454905 0.01631337 0.03008282 -0.04927515 -0.002713203 0.03008282 -0.07895898 -0.01850736 0.03095698 -0.07435202 -0.03369462 0.03095698 -0.06687068 -0.04769128 0.03095698 -0.05680245 -0.05995947 0.03095698 -0.04453426 -0.07002764 0.03095698 -0.0305376 -0.07750904 0.03095698 -0.0153504 -0.082116 0.03095698 4.43809e-4 -0.08367162 0.03095698 0.01623797 -0.082116 0.03095698 0.03142523 -0.07750904 0.03095698 0.04542189 -0.07002764 0.03095698 0.05769008 -0.05995947 0.03095698 0.06775826 -0.04769128 0.03095698 0.07523965 -0.03369462 0.03095698 0.07984662 -0.01850742 0.03095698 0.08140224 -0.002713143 0.03095698 0.07984662 0.01308095 0.03095698 0.07523965 0.02826821 0.03095698 0.06775832 0.04226487 0.03095698 0.05769008 0.05453306 0.03095698 0.04542189 0.0646013 0.03095698 0.03142523 0.07208263 0.03095698 0.01623797 0.07668966 0.03095698 4.43809e-4 0.07824522 0.03095698 -0.0153504 0.07668966 0.03095698 -0.04453426 0.0646013 0.03095698 -0.0305376 0.07208263 0.03095698 -0.06687068 0.04226487 0.03095698 -0.05680245 0.05453306 0.03095698 -0.07895904 0.01308095 0.03095698 -0.07435208 0.02826821 0.03095698 -0.08051466 -0.002713203 0.03095698</float_array>
          <technique_common>
            <accessor source="#Sphere_005-mesh-positions-array" count="258" stride="3">
              <param name="X" type="float"/>
              <param name="Y" type="float"/>
              <param name="Z" type="float"/>
            </accessor>
          </technique_common>
        </source>
        <source id="Sphere_005-mesh-normals">
          <float_array id="Sphere_005-mesh-normals-array" count="774">0 0 -1 0 0 -1 0 0 -1 0 0 -1 0 0 -1 0 0 -1 0 0 -1 0 0 -1 0 0 -1 0 0 -1 0 0 -1 0 0 -1 0 0 -0.9999695 0 0 -1 0 0 -1 0 0 -1 0 0 -1 0 0 -0.9999695 0 0 -1 0 0 -1 0 0 -1 0 0 -0.9999695 0 0 -1 0 0 -0.9999695 0 0 -1 0 0 -1 0 0 -1 0 0 -1 0 0 -1 0 0 -1 0 0 -0.9999695 0 0 -0.9999695 0 0 -1 -0.04559463 -0.009063959 -0.9989013 -0.04651015 0 -0.9989013 0 0 -1 -0.6700644 -0.1332743 -0.7302164 -0.6831874 0 -0.7302164 -0.5296182 0 -0.8482009 -0.6311838 -0.2614216 -0.7302164 -0.5194556 -0.1033051 -0.8482009 -0.4893032 -0.2026734 -0.8482009 -0.2785424 -0.05539107 -0.9588 -0.568041 -0.3795587 -0.7302164 0 0 -1 -0.04297006 -0.01779228 -0.9989013 -0.4403821 -0.2942289 -0.8482009 -0.2623676 -0.1086764 -0.9588 -0.2361217 -0.1577807 -0.9588 -0.4830775 -0.4830775 -0.7302164 -0.0386669 -0.02581864 -0.9989013 -0.2008118 -0.2008118 -0.9588 -0.03286838 -0.03286838 -0.9989013 0 0 -1 -0.02581864 -0.0386669 -0.9989013 -0.1577807 -0.2361217 -0.9588 -0.3744926 -0.3744926 -0.8482009 -0.3795587 -0.568041 -0.7302164 -0.2614216 -0.6311838 -0.7302164 -0.2942289 -0.4403821 -0.8482009 0 0 -1 -0.01779228 -0.04297006 -0.9989013 -0.1086764 -0.2623676 -0.9588 -0.1332743 -0.6700644 -0.7302164 -0.2026734 -0.4893032 -0.8482009 -0.05539107 -0.2785424 -0.9588 -0.1033051 -0.5194556 -0.8482009 0 -0.2840052 -0.9588 -0.009063959 -0.04559463 -0.9989013 0 0 -1 0 -0.5296182 -0.8482009 0 -0.6831874 -0.7302164 0 -0.04651015 -0.9989013 0 0 -1 0 0 -1 0.009063959 -0.04559463 -0.9989013 0.05539107 -0.2785424 -0.9588 0.1033051 -0.5194556 -0.8482009 0.2026734 -0.4893032 -0.8482009 0.2614216 -0.6311838 -0.7302164 0.1332743 -0.6700644 -0.7302164 0.1086764 -0.2623676 -0.9588 0.3795587 -0.568041 -0.7302164 0.01779228 -0.04297006 -0.9989013 0.1577807 -0.2361217 -0.9588 0.2942289 -0.4403821 -0.8482009 0.02581864 -0.0386669 -0.9989013 0.4830775 -0.4830775 -0.7302164 0 0 -1 0.03286838 -0.03286838 -0.9989013 0.2008118 -0.2008118 -0.9588 0 0 -1 0.0386669 -0.02581864 -0.9989013 0.2361217 -0.1577807 -0.9588 0.3744926 -0.3744926 -0.8482009 0.568041 -0.3795587 -0.7302164 0.6311838 -0.2614216 -0.7302164 0.4403821 -0.2942289 -0.8482009 0 0 -1 0.04297006 -0.01779228 -0.9989013 0.2623676 -0.1086764 -0.9588 0.6700644 -0.1332743 -0.7302164 0.4893032 -0.2026734 -0.8482009 0.04559463 -0.009063959 -0.9989013 0.2785424 -0.05539107 -0.9588 0.5194556 -0.1033051 -0.8482009 0.2840052 0 -0.9588 0 0 -1 0.5296182 0 -0.8482009 0.6831874 0 -0.7302164 0.04651015 0 -0.9989013 0 0 -0.9999695 0.04559463 0.009063959 -0.9989013 0.2785424 0.05539107 -0.9588 0.5194556 0.1033051 -0.8482009 0.6311838 0.2614216 -0.7302164 0.6700644 0.1332743 -0.7302164 0.2623676 0.1086764 -0.9588 0.4893032 0.2026734 -0.8482009 0.568041 0.3795587 -0.7302164 0.04297006 0.01779228 -0.9989013 0.2361217 0.1577807 -0.9588 0.4403821 0.2942289 -0.8482009 0.0386669 0.02581864 -0.9989013 0.3744926 0.3744926 -0.8482009 0.4830775 0.4830775 -0.7302164 0 0 -1 0.03286838 0.03286838 -0.9989013 0.2008118 0.2008118 -0.9588 0 0 -1 0.1577807 0.2361217 -0.9588 0.2942289 0.4403821 -0.8482009 0.3795587 0.568041 -0.7302164 0.2614216 0.6311838 -0.7302164 0.02581864 0.0386669 -0.9989013 0.1086764 0.2623676 -0.9588 0.1332743 0.6700644 -0.7302164 0.2026734 0.4893032 -0.8482009 0.009063959 0.04559463 -0.9989013 0.05539107 0.2785424 -0.9588 0.1033051 0.5194556 -0.8482009 0 0.2840052 -0.9588 0 0 -1 0.01779228 0.04297006 -0.9989013 0 0.5296182 -0.8482009 0 0.6831874 -0.7302164 0 0.04651015 -0.9989013 0 0 -1 -0.009063959 0.04559463 -0.9989013 -0.05539107 0.2785424 -0.9588 -0.1033051 0.5194556 -0.8482009 -0.2026734 0.4893032 -0.8482009 -0.2614216 0.6311838 -0.7302164 -0.1332743 0.6700644 -0.7302164 -0.1086764 0.2623676 -0.9588 -0.3795587 0.568041 -0.7302164 -0.01779228 0.04297006 -0.9989013 -0.2008118 0.2008118 -0.9588 -0.1577807 0.2361217 -0.9588 -0.02581864 0.0386669 -0.9989013 -0.3744926 0.3744926 -0.8482009 -0.2942289 0.4403821 -0.8482009 -0.4830775 0.4830775 -0.7302164 -0.03286838 0.03286838 -0.9989013 0 0 -1 -0.0386669 0.02581864 -0.9989013 -0.2361217 0.1577807 -0.9588 -0.4403821 0.2942289 -0.8482009 -0.568041 0.3795587 -0.7302164 0 0 -1 -0.2623676 0.1086764 -0.9588 -0.4893032 0.2026734 -0.8482009 -0.6311838 0.2614216 -0.7302164 -0.04297006 0.01779228 -0.9989013 -0.04559463 0.009063959 -0.9989013 -0.2785424 0.05539107 -0.9588 -0.5194556 0.1033051 -0.8482009 -0.6700644 0.1332743 -0.7302164 0 0 -1 -0.2840052 0 -0.9588 0 0 -1 0 0 -1 0 0 -1 0 0 -1 0 0 -1 0 0 -1 0 0 -1 0 0 -1 0 0 -1 0 0 -1 0 0 -1 0 0 -1 0 0 -1 -0.5077059 0.7598499 0.4059267 0.01324498 -0.01983702 0.9996948 0.009124994 -0.02203434 0.9996948 -0.01684617 -0.01684617 0.9996948 -0.01983702 -0.01324498 0.9996948 0.7598499 0.5077059 0.4059267 -0.01684617 0.01684617 0.9996948 -0.01324498 0.01983702 0.9996948 0.5077059 -0.7598499 0.4059267 0.01684617 0.01684617 0.9996948 0.01983702 0.01324498 0.9996948 -0.7598499 -0.5077059 0.4059267 0.02386546 0 0.9996948 0.02340769 -0.004638791 0.9996948 -0.8963286 0.1782891 0.4059267 0.02203434 -0.009124994 0.9996948 0.01983702 -0.01324498 0.9996948 -0.7598499 0.5077059 0.4059267 0.01684617 -0.01684617 0.9996948 -0.6461989 0.6461989 0.4059267 0.004638791 -0.02340769 0.9996948 -0.1782891 0.8963286 0.4059267 0 -0.02386546 0.9996948 -0.004638791 -0.02340769 0.9996948 0.1782891 0.8963286 0.4059267 -0.009124994 -0.02203434 0.9996948 0.3497116 0.8443251 0.4059267 -0.01324498 -0.01983702 0.9996948 0.6461989 0.6461989 0.4059267 -0.02203434 -0.009124994 0.9996948 0.8443251 0.3497116 0.4059267 -0.02340769 -0.004638791 0.9996948 0.8963286 0.1782891 0.4059267 -0.02386546 0 0.9996948 0.9138768 0 0.4059267 -0.02340769 0.004638791 0.9996948 0.8963286 -0.1782891 0.4059267 -0.02203434 0.009124994 0.9996948 0.8443251 -0.3497116 0.4059267 -0.01983702 0.01324498 0.9996948 0.7598499 -0.5077059 0.4059267 -0.009124994 0.02203434 0.9996948 -0.004638791 0.02340769 0.9996948 0.1782891 -0.8963286 0.4059267 0 0.02386546 0.9996948 0.004638791 0.02340769 0.9996948 -0.1782891 -0.8963286 0.4059267 0.009124994 0.02203434 0.9996948 -0.3497116 -0.8443251 0.4059267 0.01324498 0.01983702 0.9996948 -0.5077059 -0.7598499 0.4059267 0.02203434 0.009124994 0.9996948 -0.8443251 -0.3497116 0.4059267 0.02340769 0.004638791 0.9996948 -0.8963286 -0.1782891 0.4059267 0 0 1 -0.9138768 0 0.4059267 -0.6461989 -0.6461989 0.4059267 0 -0.9138768 0.4059267 0.3497116 -0.8443251 0.4059267 0.6461989 -0.6461989 0.4059267 0.5077059 0.7598499 0.4059267 0 0.9138768 0.4059267 -0.3497116 0.8443251 0.4059267 -0.8443251 0.3497116 0.4059267</float_array>
          <technique_common>
            <accessor source="#Sphere_005-mesh-normals-array" count="258" stride="3">
              <param name="X" type="float"/>
              <param name="Y" type="float"/>
              <param name="Z" type="float"/>
            </accessor>
          </technique_common>
        </source>
        <vertices id="Sphere_005-mesh-vertices">
          <input semantic="POSITION" source="#Sphere_005-mesh-positions"/>
        </vertices>
        <polylist material="Bowl_002-material" count="480">
          <input semantic="VERTEX" source="#Sphere_005-mesh-vertices" offset="0"/>
          <input semantic="NORMAL" source="#Sphere_005-mesh-normals" offset="1"/>
          <vcount>3 3 3 3 3 3 3 3 3 3 3 3 3 3 3 3 3 3 3 3 3 3 3 3 3 3 3 3 3 3 3 3 3 3 3 3 3 3 3 3 3 3 3 3 3 3 3 3 3 3 3 3 3 3 3 3 3 3 3 3 3 3 3 3 3 3 3 3 3 3 3 3 3 3 3 3 3 3 3 3 3 3 3 3 3 3 3 3 3 3 3 3 3 3 3 3 3 3 3 3 3 3 3 3 3 3 3 3 3 3 3 3 3 3 3 3 3 3 3 3 3 3 3 3 3 3 3 3 3 3 3 3 3 3 3 3 3 3 3 3 3 3 3 3 3 3 3 3 3 3 3 3 3 3 3 3 3 3 3 3 3 3 3 3 3 3 3 3 3 3 3 3 3 3 3 3 3 3 3 3 3 3 3 3 3 3 3 3 3 3 3 3 3 3 3 3 3 3 3 3 3 3 3 3 3 3 3 3 3 3 3 3 3 3 3 3 3 3 3 3 3 3 3 3 3 3 3 3 3 3 3 3 3 3 3 3 3 3 3 3 3 3 3 3 3 3 3 3 3 3 3 3 3 3 3 3 3 3 3 3 3 3 3 3 3 3 3 3 3 3 3 3 3 3 3 3 3 3 3 3 3 3 3 3 3 3 3 3 3 3 3 3 3 3 3 3 3 3 3 3 3 3 3 3 3 3 3 3 3 3 3 3 3 3 3 3 3 3 3 3 3 3 3 3 3 3 3 3 3 3 3 3 3 3 3 3 3 3 3 3 3 3 3 3 3 3 3 3 3 3 3 3 3 3 3 3 3 3 3 3 3 3 3 3 3 3 3 3 3 3 3 3 3 3 3 3 3 3 3 3 3 3 3 3 3 3 3 3 3 3 3 3 3 3 3 3 3 3 3 3 3 3 3 3 3 3 3 3 3 3 3 3 3 3 3 3 3 3 3 3 3 3 3 3 3 3 3 3 3 3 3 3 3 3 3 3 3 3 3 3 3 3 3 3 3 3 3 3 3 3 3 3 3 3 3 3 3 3 3 3 3 3 3 3 3 3 3 3 3 3 3 3 3 3 3 3 3 3 3 3 </vcount>
          <p>1 0 0 1 2 2 1 0 2 2 3 3 1 0 3 3 4 4 1 0 4 4 5 5 1 0 5 5 6 6 1 0 6 6 7 7 1 0 7 7 8 8 1 0 8 8 9 9 1 0 9 9 10 10 1 0 10 10 11 11 1 0 11 11 12 12 1 0 12 12 13 13 1 0 13 13 14 14 1 0 14 14 15 15 1 0 15 15 16 16 1 0 16 16 17 17 1 0 17 17 18 18 1 0 18 18 19 19 1 0 19 19 20 20 1 0 20 20 21 21 1 0 21 21 22 22 1 0 22 22 23 23 1 0 23 23 24 24 1 0 24 24 25 25 1 0 25 25 26 26 1 0 26 26 27 27 1 0 27 27 28 28 1 0 28 28 29 29 1 0 29 29 30 30 1 0 30 30 31 31 1 0 31 31 32 32 1 0 32 32 0 1 192 33 170 34 169 35 189 36 173 37 172 38 184 39 189 36 190 40 185 41 190 40 191 42 179 43 184 39 185 41 188 44 187 45 192 33 180 46 185 41 186 47 181 48 186 47 187 45 174 49 179 43 180 46 182 50 187 45 188 44 176 51 181 48 182 50 177 52 182 50 183 53 34 54 35 55 176 51 175 56 180 46 181 48 37 57 174 49 175 56 43 58 37 57 36 59 33 60 34 54 177 52 40 61 41 62 35 55 48 63 43 58 42 64 42 64 36 59 35 55 46 65 41 62 40 61 46 65 47 66 42 64 51 67 46 65 45 68 45 68 40 61 39 69 52 70 47 66 46 65 52 70 53 71 48 63 50 72 45 68 44 73 54 74 55 75 50 72 55 75 56 76 51 67 56 76 57 77 52 70 62 78 63 79 58 80 61 81 62 78 57 77 68 82 63 79 62 78 60 83 55 75 54 74 66 84 67 85 62 78 65 86 66 84 61 81 73 87 68 82 67 85 64 88 65 86 60 83 70 89 71 90 66 84 69 91 70 89 65 86 75 92 76 93 71 90 71 90 72 94 67 85 78 95 73 87 72 94 83 96 78 95 77 97 74 98 75 92 70 89 80 99 81 100 76 93 88 101 83 96 82 102 81 100 82 102 77 97 85 103 86 104 81 100 86 104 87 105 82 102 91 106 86 104 85 103 84 107 85 103 80 99 92 108 87 105 86 104 93 109 88 101 87 105 90 110 85 103 84 107 94 111 95 112 90 110 95 112 96 113 91 106 96 113 97 114 92 108 103 115 98 116 97 114 101 117 102 118 97 114 108 119 103 115 102 118 100 120 95 112 94 111 106 121 107 122 102 118 105 123 106 121 101 117 112 124 113 125 108 119 105 123 100 120 99 126 110 127 111 128 106 121 109 129 110 127 105 123 116 130 111 128 110 127 112 124 107 122 106 121 117 131 118 132 113 125 123 133 118 132 117 131 115 134 110 127 109 129 121 135 116 130 115 134 128 136 123 133 122 137 121 135 122 137 117 131 125 138 126 139 121 135 126 139 127 140 122 137 131 141 126 139 125 138 124 142 125 138 120 143 132 144 127 140 126 139 133 145 128 136 127 140 130 146 125 138 124 142 134 147 135 148 130 146 135 148 136 149 131 141 136 149 137 150 132 144 142 151 143 152 138 153 141 154 142 151 137 150 148 155 143 152 142 151 140 156 135 148 134 147 151 157 146 158 145 159 152 160 147 161 146 158 153 162 148 155 147 161 150 163 145 159 144 164 155 165 156 166 151 157 156 166 157 167 152 160 158 168 153 162 152 160 154 169 155 165 150 163 161 170 156 166 155 165 161 170 162 171 157 167 162 171 163 172 158 168 160 173 155 165 154 169 165 174 166 175 161 170 166 175 167 176 162 171 167 176 168 177 163 172 165 174 160 173 159 178 169 35 170 34 165 174 171 179 166 175 165 174 172 38 167 176 166 175 173 37 168 177 167 176 191 42 171 179 170 34 187 45 186 47 191 42 36 59 175 56 176 51 40 61 34 54 33 60 58 80 53 71 52 70 60 83 61 81 56 76 77 97 72 94 71 90 80 99 75 92 74 98 97 114 98 116 93 109 101 117 96 113 95 112 116 130 117 131 112 124 119 180 120 143 115 134 138 153 133 145 132 144 140 156 141 154 136 149 146 158 141 154 140 156 147 161 142 151 141 154 144 164 145 159 140 156 190 40 172 38 171 179 1 0 44 73 39 69 1 0 183 53 188 44 1 0 54 74 49 181 1 0 33 60 178 182 1 0 74 98 69 91 1 0 59 183 54 74 1 0 89 184 84 107 1 0 79 185 74 98 1 0 69 91 64 88 1 0 94 111 89 184 1 0 84 107 79 185 1 0 114 186 109 129 1 0 99 126 94 111 1 0 129 187 124 142 1 0 119 180 114 186 1 0 109 129 104 188 1 0 134 147 129 187 1 0 124 142 119 180 1 0 154 169 149 189 1 0 139 190 134 147 1 0 169 35 164 191 1 0 159 178 154 169 1 0 149 189 144 164 1 0 164 191 159 178 1 0 64 88 59 183 1 0 104 188 99 126 1 0 144 164 139 190 1 0 39 69 33 60 1 0 188 44 193 192 1 0 193 192 169 35 1 0 49 181 44 73 1 0 178 182 183 53 251 193 219 194 220 195 213 196 212 197 244 198 205 199 204 200 236 201 197 202 196 203 228 204 225 205 223 206 255 207 255 207 223 206 224 208 224 208 221 209 253 210 221 209 222 211 254 212 222 211 219 194 251 193 220 195 218 213 250 214 250 214 218 213 217 215 217 215 216 216 248 217 248 217 216 216 215 218 247 219 215 218 214 220 214 220 213 196 245 221 212 197 211 222 243 223 211 222 210 224 242 225 210 224 209 226 241 227 241 227 209 226 208 228 240 229 208 228 207 230 239 231 207 230 206 232 238 233 206 232 205 199 236 201 204 200 203 234 203 234 202 235 234 236 234 236 202 235 201 237 201 237 200 238 232 239 200 238 199 240 231 241 199 240 198 242 230 243 230 243 198 242 197 202 196 203 195 244 227 245 195 244 194 246 226 247 226 247 194 246 225 205 194 246 38 248 225 205 195 244 38 248 194 246 196 203 38 248 195 244 198 242 38 248 197 202 199 240 38 248 198 242 200 238 38 248 199 240 201 237 38 248 200 238 202 235 38 248 201 237 203 234 38 248 202 235 204 200 38 248 203 234 206 232 38 248 205 199 207 230 38 248 206 232 208 228 38 248 207 230 209 226 38 248 208 228 210 224 38 248 209 226 211 222 38 248 210 224 212 197 38 248 211 222 214 220 38 248 213 196 215 218 38 248 214 220 216 216 38 248 215 218 217 215 38 248 216 216 218 213 38 248 217 215 220 195 38 248 218 213 222 211 38 248 219 194 221 209 38 248 222 211 224 208 38 248 221 209 223 206 38 248 224 208 225 205 38 248 223 206 197 202 38 248 196 203 205 199 38 248 204 200 213 196 38 248 212 197 219 194 38 248 220 195 226 247 257 249 173 37 184 39 227 245 226 247 179 43 228 204 227 245 37 57 230 243 229 250 43 58 231 241 230 243 48 63 232 239 231 241 53 71 233 251 232 239 58 80 234 236 233 251 63 79 235 252 234 236 68 82 236 201 235 252 78 95 238 233 237 253 83 96 239 231 238 233 88 101 240 229 239 231 93 109 241 227 240 229 98 116 242 225 241 227 103 115 243 223 242 225 108 119 244 198 243 223 118 132 246 254 245 221 123 133 247 219 246 254 128 136 248 217 247 219 133 145 249 255 248 217 138 153 250 214 249 255 143 152 252 256 250 214 153 162 254 212 251 193 158 168 253 210 254 212 163 172 256 257 253 210 255 207 256 257 163 172 173 37 257 249 255 207 174 49 229 250 228 204 73 87 237 253 236 201 113 125 245 221 244 198 148 155 251 193 252 256 193 192 192 33 169 35 190 40 189 36 172 38 185 41 184 39 190 40 186 47 185 41 191 42 180 46 179 43 185 41 193 192 188 44 192 33 181 48 180 46 186 47 182 50 181 48 187 45 175 56 174 49 180 46 183 53 182 50 188 44 177 52 176 51 182 50 178 182 177 52 183 53 177 52 34 54 176 51 176 51 175 56 181 48 36 59 37 57 175 56 42 64 43 58 36 59 178 182 33 60 177 52 34 54 40 61 35 55 47 66 48 63 42 64 41 62 42 64 35 55 45 68 46 65 40 61 41 62 46 65 42 64 50 72 51 67 45 68 44 73 45 68 39 69 51 67 52 70 46 65 47 66 52 70 48 63 49 181 50 72 44 73 49 181 54 74 50 72 50 72 55 75 51 67 51 67 56 76 52 70 57 77 62 78 58 80 56 76 61 81 57 77 67 85 68 82 62 78 59 183 60 83 54 74 61 81 66 84 62 78 60 83 65 86 61 81 72 94 73 87 67 85 59 183 64 88 60 83 65 86 70 89 66 84 64 88 69 91 65 86 70 89 75 92 71 90 66 84 71 90 67 85 77 97 78 95 72 94 82 102 83 96 77 97 69 91 74 98 70 89 75 92 80 99 76 93 87 105 88 101 82 102 76 93 81 100 77 97 80 99 85 103 81 100 81 100 86 104 82 102 90 110 91 106 85 103 79 185 84 107 80 99 91 106 92 108 86 104 92 108 93 109 87 105 89 184 90 110 84 107 89 184 94 111 90 110 90 110 95 112 91 106 91 106 96 113 92 108 102 118 103 115 97 114 96 113 101 117 97 114 107 122 108 119 102 118 99 126 100 120 94 111 101 117 106 121 102 118 100 120 105 123 101 117 107 122 112 124 108 119 104 188 105 123 99 126 105 123 110 127 106 121 104 188 109 129 105 123 115 134 116 130 110 127 111 128 112 124 106 121 112 124 117 131 113 125 122 137 123 133 117 131 114 186 115 134 109 129 120 143 121 135 115 134 127 140 128 136 122 137 116 130 121 135 117 131 120 143 125 138 121 135 121 135 126 139 122 137 130 146 131 141 125 138 119 180 124 142 120 143 131 141 132 144 126 139 132 144 133 145 127 140 129 187 130 146 124 142 129 187 134 147 130 146 130 146 135 148 131 141 131 141 136 149 132 144 137 150 142 151 138 153 136 149 141 154 137 150 147 161 148 155 142 151 139 190 140 156 134 147 150 163 151 157 145 159 151 157 152 160 146 158 152 160 153 162 147 161 149 189 150 163 144 164 150 163 155 165 151 157 151 157 156 166 152 160 157 167 158 168 152 160 149 189 154 169 150 163 160 173 161 170 155 165 156 166 161 170 157 167 157 167 162 171 158 168 159 178 160 173 154 169 160 173 165 174 161 170 161 170 166 175 162 171 162 171 167 176 163 172 164 191 165 174 159 178 164 191 169 35 165 174 170 34 171 179 165 174 171 179 172 38 166 175 172 38 173 37 167 176 192 33 191 42 170 34 192 33 187 45 191 42 35 55 36 59 176 51 39 69 40 61 33 60 57 77 58 80 52 70 55 75 60 83 56 76 76 93 77 97 71 90 79 185 80 99 74 98 92 108 97 114 93 109 100 120 101 117 95 112 111 128 116 130 112 124 114 186 119 180 115 134 137 150 138 153 132 144 135 148 140 156 136 149 145 159 146 158 140 156 146 158 147 161 141 154 139 190 144 164 140 156 191 42 190 40 171 179 252 256 251 193 220 195 245 221 213 196 244 198 237 253 205 199 236 201 229 250 197 202 228 204 257 249 225 205 255 207 256 257 255 207 224 208 256 257 224 208 253 210 253 210 221 209 254 212 254 212 222 211 251 193 252 256 220 195 250 214 249 255 250 214 217 215 249 255 217 215 248 217 247 219 248 217 215 218 246 254 247 219 214 220 246 254 214 220 245 221 244 198 212 197 243 223 243 223 211 222 242 225 242 225 210 224 241 227 240 229 241 227 208 228 239 231 240 229 207 230 238 233 239 231 206 232 237 253 238 233 205 199 235 252 236 201 203 234 235 252 203 234 234 236 233 251 234 236 201 237 233 251 201 237 232 239 232 239 200 238 231 241 231 241 199 240 230 243 229 250 230 243 197 202 228 204 196 203 227 245 227 245 195 244 226 247 257 249 226 247 225 205 189 36 226 247 173 37 189 36 184 39 226 247 184 39 179 43 227 245 174 49 37 57 229 250 37 57 43 58 230 243 43 58 48 63 231 241 48 63 53 71 232 239 53 71 58 80 233 251 58 80 63 79 234 236 63 79 68 82 235 252 73 87 78 95 237 253 78 95 83 96 238 233 83 96 88 101 239 231 88 101 93 109 240 229 93 109 98 116 241 227 98 116 103 115 242 225 103 115 108 119 243 223 113 125 118 132 245 221 118 132 123 133 246 254 123 133 128 136 247 219 128 136 133 145 248 217 133 145 138 153 249 255 138 153 143 152 250 214 148 155 153 162 251 193 153 162 158 168 254 212 158 168 163 172 253 210 168 177 255 207 163 172 168 177 173 37 255 207 179 43 174 49 228 204 68 82 73 87 236 201 108 119 113 125 244 198 143 152 148 155 252 256</p>
        </polylist>
      </mesh>
    </geometry>
  </library_geometries>
  <library_controllers/>
  <library_visual_scenes>
    <visual_scene id="Scene" name="Scene">
      <node id="Bowlnside" name="Bowlnside" type="NODE">
        <matrix sid="transform">1 0 0 0 0 1 0 0 0 0 1 0 0 0 0 1</matrix>
        <instance_geometry url="#Sphere_005-mesh">
          <bind_material>
            <technique_common>
              <instance_material symbol="Bowl_002-material" target="#Bowl_002-material"/>
            </technique_common>
          </bind_material>
        </instance_geometry>
      </node>
    </visual_scene>
  </library_visual_scenes>
  <scene>
    <instance_visual_scene url="#Scene"/>
  </scene>
</COLLADA>